{"id":"4HvuRzyvlCm", "score":"76322"}
{"id":"D7hQLKoWWuP", "score":"64031"}
{"id":"I5fS0R3voRh", "score":"43178"}
{"id":"AXSSQBpWa6C", "score":"42581"}
{"id":"1fel57AkL2X", "score":"37021"}
{"id":"JCQgLNtTrEB", "score":"19538"}
{"id":"8r8KZLPhgYx", "score":"18897"}
{"id":"LkDzpk6c2cl", "score":"18668"}
{"id":"G7DCz7fLvoQ", "score":"12589"}
{"id":"C6wjNnhFfHU", "score":"9721"}
{"id":"EQN6OluI4WJ", "score":"7018"}
{"id":"J9QpYE4u7Vz", "score":"5704"}
{"id":"EuX9hzVJ558", "score":"2588"}
{"id":"CzZv9DttVML", "score":"2500"}
{"id":"A0Iiuv4zFNM", "score":"2146"}
{"id":"LXExEFdVxyi", "score":"1587"}
{"id":"2ku3xnMadRd", "score":"1500"}
{"id":"CTgllbgYkyV", "score":"732"}
{"id":"5328gxdyrrV", "score":"500"}
{"id":"I9PXrvZmp94", "score":"49"}
{"id":"user_9", "score":"1"}
{"id":"user_8", "score":"1"}
{"id":"user_7", "score":"1"}
{"id":"user_6", "score":"1"}
{"id":"user_5", "score":"1"}
{"id":"user_4", "score":"1"}
{"id":"user_3", "score":"1"}
{"id":"user_2", "score":"1"}
{"id":"user_10", "score":"1"}
{"id":"user_1", "score":"1"}
