{"id":"JK5etU9DCmZ", "score":"155452"}
{"id":"xJJmcfs08F", "score":"78203"}
{"id":"65E5vpxHDSb", "score":"58858"}
{"id":"AbQ7CkTSX22", "score":"40364"}
{"id":"bYwU8b0A1C", "score":"36975"}
{"id":"AXpESESPGSz", "score":"35094"}
{"id":"KrYtvr9AXRd", "score":"33278"}
{"id":"9S3sXyXqilM", "score":"31316"}
{"id":"KomseI4v370", "score":"25822"}
{"id":"LArgs9VBYUY", "score":"22632"}
{"id":"1SGujP2YF35", "score":"19770"}
{"id":"yD5NYSJtNv", "score":"18931"}
{"id":"yAMAL5o8lm", "score":"18751"}
{"id":"GmW7GeBpZjw", "score":"15051"}
{"id":"J0ZsjrVmLQG", "score":"12552"}
{"id":"1pqWxh9NG6X", "score":"12414"}
{"id":"Fqe5WJqX2eG", "score":"12409"}
{"id":"JrTPp2Iu4X6", "score":"11260"}
{"id":"2EfABoG0Suq", "score":"11109"}
{"id":"GPifsNslS1V", "score":"11050"}
{"id":"93OiuqjmsLI", "score":"10735"}
{"id":"FNRqZ9tQqwt", "score":"10224"}
{"id":"DxhTQ51QnXp", "score":"9511"}
{"id":"EHPwpG7L8Mq", "score":"8498"}
{"id":"J9Yzm1iTdmQ", "score":"7859"}
{"id":"F0ArzXNATLL", "score":"7777"}
{"id":"Jg4VDw0npzs", "score":"7771"}
{"id":"2IttCpmqnEn", "score":"7192"}
{"id":"7eBEDBXZ6SD", "score":"7055"}
{"id":"9gAeIpb02xH", "score":"6942"}
{"id":"D5VfWdqVNaD", "score":"6819"}
{"id":"LunJdpHJZ9n", "score":"6655"}
{"id":"4mlfbcIwgx0", "score":"6583"}
{"id":"HcdaQxIY87H", "score":"6489"}
{"id":"Gn5J8XcFXt1", "score":"5815"}
{"id":"D0JXWXu8uPY", "score":"5712"}
{"id":"Be1eOdElvTB", "score":"5634"}
{"id":"CdPABQzw6Xj", "score":"5173"}
{"id":"9cfU0o9uQTu", "score":"5142"}
{"id":"LDMvjavGQIv", "score":"4876"}
{"id":"LtnbPYlUCyF", "score":"4472"}
{"id":"1WILoqAv4Qp", "score":"4410"}
{"id":"Gj4RP1eKzVz", "score":"4199"}
{"id":"1JmOuMU9jVO", "score":"4070"}
{"id":"5QwmUtsTP8z", "score":"3504"}
{"id":"5tHNgNYbo6W", "score":"3485"}
{"id":"8VnfQMmAPyg", "score":"3288"}
{"id":"DFqQHH1tiKd", "score":"3258"}
{"id":"BIx5tq6p4Pp", "score":"3129"}
{"id":"71sUIIUO2uf", "score":"3079"}
{"id":"HpOXtu4LRwG", "score":"3076"}
{"id":"EcwljAUsA0x", "score":"2895"}
{"id":"4ufLioQN8mD", "score":"2660"}
{"id":"6acTWUpUguL", "score":"2630"}
{"id":"7DRuWWTVuqV", "score":"2540"}
{"id":"3ADp8WPKUaD", "score":"2500"}
{"id":"379N7rY5Ejd", "score":"2431"}
{"id":"4Yp2oZIo85d", "score":"2327"}
{"id":"2ABJUtyAgH8", "score":"2189"}
{"id":"CtetEv8RIPB", "score":"1867"}
{"id":"FxQOeAr0mk", "score":"1701"}
{"id":"5zY5CJd2cGC", "score":"1642"}
{"id":"OeI5p09z0p", "score":"1525"}
{"id":"LmrRHjFTD5N", "score":"1500"}
{"id":"GYRT4AeQyTV", "score":"1434"}
{"id":"F8SNwxeQho5", "score":"1344"}
{"id":"Cx9BnATGQOZ", "score":"1329"}
{"id":"JeMtsaFSSiI", "score":"1100"}
{"id":"GoAATeSasIW", "score":"1022"}
{"id":"Cu3nOfUWKje", "score":"945"}
{"id":"8JkQjQsQi89", "score":"917"}
{"id":"5tp9BLYsY4d", "score":"884"}
{"id":"HjEVlPBXMqw", "score":"818"}
{"id":"Hn6w51IVE3O", "score":"797"}
{"id":"CoKZVT99fam", "score":"607"}
{"id":"5RjKbrln03G", "score":"507"}
{"id":"DZUtRHZhzwi", "score":"500"}
{"id":"C6cWIWY0lR", "score":"500"}
{"id":"1Eaxz7VOcyl", "score":"500"}
{"id":"5x8fuBQtSjq", "score":"317"}
{"id":"E7GNo2NnVw3", "score":"300"}
{"id":"4g5y6lkLz3i", "score":"224"}
{"id":"LAYYdFGfgv4", "score":"217"}
{"id":"DO3jiEqyQYG", "score":"144"}
{"id":"6EZK4IK0wak", "score":"98"}
{"id":"K6dGD3QkjxL", "score":"77"}
{"id":"PXJlsNA25V", "score":"47"}
{"id":"user_9", "score":"1"}
{"id":"user_8", "score":"1"}
{"id":"user_7", "score":"1"}
{"id":"user_6", "score":"1"}
{"id":"user_5", "score":"1"}
{"id":"user_4", "score":"1"}
{"id":"user_3", "score":"1"}
{"id":"user_2", "score":"1"}
{"id":"user_10", "score":"1"}
{"id":"user_1", "score":"1"}
{"id":"LxmRaQ2PguO", "score":"0"}
{"id":"KIObTotUUco", "score":"0"}
{"id":"JrJB1zAIN0U", "score":"0"}
{"id":"JRvpcupAgWT", "score":"0"}
{"id":"HUbMzot3R6e", "score":"0"}
{"id":"H6cqRGDzR8w", "score":"0"}
{"id":"EphtsF680Ka", "score":"0"}
{"id":"DenznD981nr", "score":"0"}
{"id":"DbOamOMH1tS", "score":"0"}
{"id":"C8yHkMDcjIk", "score":"0"}
{"id":"7stpdT8CzU8", "score":"0"}
{"id":"7LWkTjVoz3i", "score":"0"}
{"id":"1blEmJfqoEh", "score":"0"}
