{"id":"1lqNAFxOwwQ", "score":"16267"}
{"id":"82EcSkdjgmc", "score":"8456"}
{"id":"K7CagXQh6hv", "score":"8455"}
{"id":"CB1j1zqgz96", "score":"6788"}
{"id":"Btq28hmmtgM", "score":"6771"}
{"id":"2DEuaUR3oxu", "score":"4001"}
{"id":"7AdC7yNYC4M", "score":"3347"}
{"id":"5fX2lsHKxJ0", "score":"3283"}
{"id":"ItPMiC8lSfI", "score":"2068"}
{"id":"HbssyaAJxRA", "score":"2067"}
{"id":"96b8jEBYdUu", "score":"2066"}
{"id":"9QYz7p1yj4k", "score":"1456"}
{"id":"Htbrz57q8y1", "score":"1369"}
{"id":"DWVrwL3wnmX", "score":"1158"}
{"id":"LwbAjfvVMth", "score":"689"}
{"id":"3GsQExLuq1S", "score":"439"}
{"id":"LU9S3yk0wLL", "score":"385"}
{"id":"m7m9I9o1X9", "score":"199"}
{"id":"user_9", "score":"1"}
{"id":"user_8", "score":"1"}
{"id":"user_7", "score":"1"}
{"id":"user_6", "score":"1"}
{"id":"user_5", "score":"1"}
{"id":"user_4", "score":"1"}
{"id":"user_3", "score":"1"}
{"id":"user_2", "score":"1"}
{"id":"user_10", "score":"1"}
{"id":"user_1", "score":"1"}
{"id":"BGgYC8Aej06", "score":"0"}
{"id":"AQsuMhaC6dj", "score":"0"}
