{"id":"IleMhXBF8IP", "score":"368292"}
{"id":"A8U33F6U5wm", "score":"250749"}
{"id":"ZSHhS3WY1s", "score":"190360"}
{"id":"Hmj0MTPue0R", "score":"189956"}
{"id":"CLKR4tYtAyD", "score":"169459"}
{"id":"3J11wrGNFiy", "score":"153774"}
{"id":"96a1BWcnGVI", "score":"133575"}
{"id":"IEHbtSV3YMV", "score":"103356"}
{"id":"LUXl9eNDqdz", "score":"80071"}
{"id":"9qNG7TzGixo", "score":"77749"}
{"id":"9P2ypAquRRF", "score":"66300"}
{"id":"5SrqZYyPN6S", "score":"61677"}
{"id":"DXOh2i1vWCx", "score":"52830"}
{"id":"1XmxHzHU9", "score":"43664"}
{"id":"HUdrWhGRXYq", "score":"41933"}
{"id":"3kQyTw9qEMx", "score":"40976"}
{"id":"Dh5mCi92wNP", "score":"39505"}
{"id":"9CaNBeWAxtZ", "score":"39372"}
{"id":"KPRpZ7qXdNL", "score":"39217"}
{"id":"GRvgOHDyrD3", "score":"38993"}
{"id":"3oCtsXXkKnC", "score":"35791"}
{"id":"2935uLFgotI", "score":"31967"}
{"id":"AaGFWWlcLrk", "score":"31437"}
{"id":"7NXuki58wJZ", "score":"28815"}
{"id":"3iJSy5b9Lta", "score":"28453"}
{"id":"GAGzAU0KND6", "score":"28257"}
{"id":"2DyFuLSYVHJ", "score":"27960"}
{"id":"KCwZ60qJOv1", "score":"26973"}
{"id":"Czc4OUmzkDV", "score":"26779"}
{"id":"6PZz3wAMbiW", "score":"25811"}
{"id":"Gs3e9118tKf", "score":"23477"}
{"id":"7qG5kbHJmeZ", "score":"23435"}
{"id":"JFFTXzgqdoo", "score":"23214"}
{"id":"67RNzJJxbC3", "score":"22005"}
{"id":"H3PIpZmgq4A", "score":"21861"}
{"id":"K3k2v46N9gp", "score":"20486"}
{"id":"7wQnzoPbkfF", "score":"19191"}
{"id":"FdA4ZSnwEJe", "score":"17715"}
{"id":"APm5M4rRj7Z", "score":"17331"}
{"id":"EYtMfleIxag", "score":"17041"}
{"id":"1GzpaN4XwKl", "score":"16322"}
{"id":"Gy1j0ENRTP8", "score":"15101"}
{"id":"9IJKnUOg4v", "score":"15053"}
{"id":"DLvGI8W12nS", "score":"14968"}
{"id":"FU0ZfUvifVh", "score":"13656"}
{"id":"5H9pnFcfB6L", "score":"13375"}
{"id":"D2MgIRqgt9W", "score":"12605"}
{"id":"5xKDLPw7lNh", "score":"12487"}
{"id":"4MJtJbUDOCF", "score":"12439"}
{"id":"DXZHYxoY0YU", "score":"12415"}
{"id":"7AWulWQnPuW", "score":"12063"}
{"id":"KYPZyWe0Pxx", "score":"11632"}
{"id":"7BGytdMEtgM", "score":"11531"}
{"id":"LVqhskxWLdO", "score":"10247"}
{"id":"EVy7oN3qMvO", "score":"9632"}
{"id":"FAsJsQESFyN", "score":"8902"}
{"id":"6QDoZSQVpjW", "score":"8868"}
{"id":"IecZfc7Iihc", "score":"8088"}
{"id":"7h4zLYwKb0B", "score":"7813"}
{"id":"8MdbCMN13NG", "score":"7277"}
{"id":"irenxzWzyt", "score":"7133"}
{"id":"79RyUnq24cC", "score":"6927"}
{"id":"7d1Ex7yybh1", "score":"6285"}
{"id":"8kEcXdyKcyq", "score":"5895"}
{"id":"ErXlbnoDKkq", "score":"4987"}
{"id":"qKViIitvnq", "score":"4895"}
{"id":"8lTEscrgTrz", "score":"4811"}
{"id":"76zE7TdrBQi", "score":"4794"}
{"id":"5X8BDXMbxeU", "score":"4494"}
{"id":"EzuONjBFzYC", "score":"4480"}
{"id":"8mWRct2GNFA", "score":"4449"}
{"id":"BJpN8T2CTgA", "score":"4156"}
{"id":"D7ZQBeKkuOF", "score":"3659"}
{"id":"GFbMk1UYyyu", "score":"3500"}
{"id":"8dnM8BInF2F", "score":"3406"}
{"id":"9s188RJY7uX", "score":"2465"}
{"id":"1gpECbyQQeZ", "score":"2230"}
{"id":"2Q6M98JxuLx", "score":"1881"}
{"id":"71ZTIjh88pP", "score":"1782"}
{"id":"LxudlAbT7TM", "score":"1582"}
{"id":"L2K5o1Xuui4", "score":"1426"}
{"id":"8CZOcQryXHx", "score":"1295"}
{"id":"JKEuAAounnt", "score":"1289"}
{"id":"C4GYvUAm1u6", "score":"880"}
{"id":"3gv9lwfp1KX", "score":"351"}
{"id":"3RDOdBvoE6g", "score":"68"}
{"id":"6zs5Q9HGuho", "score":"25"}
{"id":"user_9", "score":"1"}
{"id":"user_8", "score":"1"}
{"id":"user_7", "score":"1"}
{"id":"user_6", "score":"1"}
{"id":"user_5", "score":"1"}
{"id":"user_4", "score":"1"}
{"id":"user_3", "score":"1"}
{"id":"user_2", "score":"1"}
{"id":"user_10", "score":"1"}
{"id":"user_1", "score":"1"}
{"id":"HhziT0mFvI6", "score":"0"}
{"id":"5PeIasisMWn", "score":"0"}
{"id":"4kZzxexJbth", "score":"0"}
