{"id":"Bsmhp6DnGAx", "score":"61235"}
{"id":"222nDbmuodJ", "score":"48984"}
{"id":"6LAiYc2Acyw", "score":"26120"}
{"id":"2WSArXQR0d8", "score":"21644"}
{"id":"5W4WciJUltQ", "score":"12440"}
{"id":"63p5rGwGMmA", "score":"12413"}
{"id":"ISTse5b2Tge", "score":"9593"}
{"id":"5Gh4Y2mK7de", "score":"8176"}
{"id":"KU9OxAEBMtX", "score":"6401"}
{"id":"Dbss2pVcIvx", "score":"5428"}
{"id":"LER3uwrzGP", "score":"5242"}
{"id":"5BtSurNicKq", "score":"4567"}
{"id":"Gi0LAXFqOEW", "score":"2642"}
{"id":"F5GXGfCVBAS", "score":"2500"}
{"id":"Cm7yRZd6Xyb", "score":"1703"}
{"id":"Ih0QOFKOXZD", "score":"1530"}
{"id":"GiFCWYwVb3g", "score":"368"}
{"id":"FD0iPfMjZEx", "score":"142"}
{"id":"IPnK6vYlcn", "score":"33"}
{"id":"16Cc7WbBJhl", "score":"26"}
{"id":"user_9", "score":"1"}
{"id":"user_8", "score":"1"}
{"id":"user_7", "score":"1"}
{"id":"user_6", "score":"1"}
{"id":"user_5", "score":"1"}
{"id":"user_4", "score":"1"}
{"id":"user_3", "score":"1"}
{"id":"user_2", "score":"1"}
{"id":"user_10", "score":"1"}
{"id":"user_1", "score":"1"}
