{"id":"JepjzAoOtTm", "score":"1192"}
{"id":"GOfFfJx3ZfE", "score":"1175"}
{"id":"K8l8GworHSC", "score":"618"}
{"id":"5CIfBJSpcGV", "score":"173"}
{"id":"FwSzANUWJcv", "score":"151"}
{"id":"6idwjopUsxb", "score":"111"}
{"id":"FcvJ4Se5rTn", "score":"38"}
{"id":"8f0WVpmtgOd", "score":"29"}
{"id":"user_9", "score":"1"}
{"id":"user_8", "score":"1"}
{"id":"user_7", "score":"1"}
{"id":"user_6", "score":"1"}
{"id":"user_5", "score":"1"}
{"id":"user_4", "score":"1"}
{"id":"user_3", "score":"1"}
{"id":"user_2", "score":"1"}
{"id":"user_10", "score":"1"}
{"id":"user_1", "score":"1"}
{"id":"KMMlnZVuTza", "score":"0"}
{"id":"InGJQpo5ITD", "score":"0"}
{"id":"FWN8WS1IXY", "score":"0"}
{"id":"8nc66Ocni43", "score":"0"}
{"id":"8EYzZBw8MRi", "score":"0"}
{"id":"6pXoaqfZqrA", "score":"0"}
