{"id":"6SNrxrbhQRU", "score":"87184"}
{"id":"8YOl89p1S5m", "score":"44898"}
{"id":"A3r53tnUpQw", "score":"35899"}
{"id":"EdGKnEFNNKf", "score":"34716"}
{"id":"2J9dgVaQWFU", "score":"21077"}
{"id":"GRtWetTcrgx", "score":"18693"}
{"id":"5c3tvONjuQQ", "score":"18538"}
{"id":"46VaE2vdYle", "score":"18228"}
{"id":"L6R4OI3Tkvf", "score":"17086"}
{"id":"A21QdiaULNX", "score":"16345"}
{"id":"9HoTRw2LgGG", "score":"15965"}
{"id":"CNxxJfgDTbM", "score":"14121"}
{"id":"KDpW7sEDFP5", "score":"13308"}
{"id":"1nEfUwCv7EF", "score":"12035"}
{"id":"1wuwtJeUqgr", "score":"10170"}
{"id":"6OQ8KM77sRY", "score":"10011"}
{"id":"Gr8qw61YvWF", "score":"9471"}
{"id":"1r3cITLV95e", "score":"8066"}
{"id":"LrEQi4BCHie", "score":"7920"}
{"id":"GzIpb9ag1Ao", "score":"6981"}
{"id":"jRbgn3tBZh", "score":"6655"}
{"id":"9h5SAh6TRHn", "score":"6494"}
{"id":"FrkRnZIYiCg", "score":"6280"}
{"id":"KEj0KjaKrac", "score":"6119"}
{"id":"FuoO6MCvZIf", "score":"5968"}
{"id":"JwL2jKJlLmQ", "score":"5894"}
{"id":"1SuFAm2p99p", "score":"5463"}
{"id":"7kWF8T3UZo6", "score":"5299"}
{"id":"EH6KArmfJzb", "score":"5223"}
{"id":"B4rDmMDyNvs", "score":"4951"}
{"id":"3lFvPHwLLBy", "score":"4401"}
{"id":"5swamCJxG0W", "score":"4327"}
{"id":"1CT7km4FMCs", "score":"4230"}
{"id":"1B6C4ZdCKwA", "score":"4078"}
{"id":"8vD0W4Sb4DD", "score":"3866"}
{"id":"3OheB1VhUHv", "score":"3757"}
{"id":"FKkkWhXXA4E", "score":"3746"}
{"id":"9CnbwFmzH03", "score":"3742"}
{"id":"6kBZfcfPmIT", "score":"3693"}
{"id":"4QMSMsDECJf", "score":"3597"}
{"id":"ABDbmY0XJWd", "score":"3451"}
{"id":"AC8UP6jKNOP", "score":"3215"}
{"id":"DgSwcJf6Hae", "score":"3203"}
{"id":"2gmLhOuHzaL", "score":"3198"}
{"id":"HAu5KxarCBV", "score":"3130"}
{"id":"56kZwrHSbeE", "score":"3077"}
{"id":"BcseZCMkj8s", "score":"2910"}
{"id":"JB1rE39BhMg", "score":"2821"}
{"id":"LSqgv6NpKsU", "score":"2793"}
{"id":"LZ9R3PqQyYg", "score":"2630"}
{"id":"6kk86fXAd0U", "score":"2587"}
{"id":"JGMi3R0zKad", "score":"2532"}
{"id":"LplSX8Fgh6R", "score":"2516"}
{"id":"FPvosI7SbaR", "score":"2512"}
{"id":"3Cm8Dqe074a", "score":"2476"}
{"id":"7rHXSy37ZSH", "score":"2462"}
{"id":"B9QG9MOn3Xh", "score":"2394"}
{"id":"JnMpvqVE33u", "score":"2193"}
{"id":"A4iSZNgJltt", "score":"2171"}
{"id":"7BvJTgq9epj", "score":"2121"}
{"id":"Hpq6owQtGnd", "score":"2110"}
{"id":"LCAbaxRjRYC", "score":"2013"}
{"id":"6un4Wt0bhsO", "score":"2013"}
{"id":"6zylRmw7gtj", "score":"1916"}
{"id":"49Ov9Ch5Qxy", "score":"1764"}
{"id":"FCpa4SA8VuO", "score":"1705"}
{"id":"LGW11GEAc8p", "score":"1671"}
{"id":"8d0n33OlaVU", "score":"1575"}
{"id":"ECUUBbfLSKe", "score":"1569"}
{"id":"56evekYSoew", "score":"1282"}
{"id":"AjC6cmRIVdN", "score":"1269"}
{"id":"ANoGhY1Wmat", "score":"1237"}
{"id":"9FZFEafjBYP", "score":"1198"}
{"id":"7S66F0YQ801", "score":"1118"}
{"id":"ALjA6GSBm0H", "score":"1056"}
{"id":"EclsKgXu1QP", "score":"937"}
{"id":"7A7t08swR14", "score":"599"}
{"id":"Li7JQ2hB1II", "score":"594"}
{"id":"KjzAKJR3qc7", "score":"587"}
{"id":"Hktm0Zv06W5", "score":"579"}
{"id":"PKwQAKZID2", "score":"573"}
{"id":"LqgJDgFdq2h", "score":"561"}
{"id":"6LLjgQafPg4", "score":"559"}
{"id":"Ke3XgCW0fXu", "score":"484"}
{"id":"2lUk10YQwUn", "score":"469"}
{"id":"1U0RQ97hrpt", "score":"469"}
{"id":"2cmQuEQLqsv", "score":"279"}
{"id":"5EoUlAypO8G", "score":"220"}
{"id":"9XF4vNkyEPc", "score":"216"}
{"id":"1zQML1V693U", "score":"184"}
{"id":"FG0KcAZUwfV", "score":"180"}
{"id":"DRCHe2s5U4j", "score":"115"}
{"id":"G6sdqCtFTdn", "score":"114"}
{"id":"JG5OKuOFQrq", "score":"99"}
{"id":"42fEwJeWCWI", "score":"82"}
{"id":"Lq6034eiibA", "score":"67"}
{"id":"KF0Eh8YsiNT", "score":"38"}
{"id":"AgYDG5A92NN", "score":"11"}
{"id":"user_9", "score":"1"}
{"id":"user_8", "score":"1"}
{"id":"user_7", "score":"1"}
{"id":"user_6", "score":"1"}
{"id":"user_5", "score":"1"}
{"id":"user_4", "score":"1"}
{"id":"user_3", "score":"1"}
{"id":"user_2", "score":"1"}
{"id":"user_10", "score":"1"}
{"id":"user_1", "score":"1"}
{"id":"AJm6b7ixvzy", "score":"0"}
{"id":"9ubUNcWfxsQ", "score":"0"}
