{"id":"5t10TPlwDVX", "score":"163083"}
{"id":"ChIRj8dmBOC", "score":"133122"}
{"id":"DQRpHllsJjm", "score":"132492"}
{"id":"KuF4eg03Ab2", "score":"77430"}
{"id":"8g4LL0byTWu", "score":"52304"}
{"id":"HsmYlAW2gmw", "score":"39833"}
{"id":"B908JG15wVT", "score":"36677"}
{"id":"KyA0tH8OtUa", "score":"26940"}
{"id":"ERCMLiLZh8x", "score":"17942"}
{"id":"Hmh8Ooh4R7Q", "score":"11548"}
{"id":"H1B3qpHdUJL", "score":"11095"}
{"id":"9Y9s0zB7kVw", "score":"10558"}
{"id":"ZY85dwC1To", "score":"8621"}
{"id":"8ZfWponklB3", "score":"6782"}
{"id":"Ay5JIXvOhv3", "score":"4848"}
{"id":"HPzcE6plaFy", "score":"4105"}
{"id":"EFxmCYnCZJv", "score":"4071"}
{"id":"Jkw2J2u2suA", "score":"3127"}
{"id":"J6vWEPSyW3E", "score":"536"}
{"id":"AB7cjfM9Tqk", "score":"75"}
{"id":"user_9", "score":"1"}
{"id":"user_8", "score":"1"}
{"id":"user_7", "score":"1"}
{"id":"user_6", "score":"1"}
{"id":"user_5", "score":"1"}
{"id":"user_4", "score":"1"}
{"id":"user_3", "score":"1"}
{"id":"user_2", "score":"1"}
{"id":"user_10", "score":"1"}
{"id":"user_1", "score":"1"}
