{"id":"GS05XZWYNN4", "score":"197061"}
{"id":"5W0YboPrLVX", "score":"105027"}
{"id":"AfkIN8awa6K", "score":"102062"}
{"id":"J6WlkKTQmef", "score":"100635"}
{"id":"Iu5od97o5Qk", "score":"77152"}
{"id":"F329sCmjN8u", "score":"73551"}
{"id":"5SKCTS9YuYL", "score":"70667"}
{"id":"Bp1JVh8RVpV", "score":"67260"}
{"id":"Aa3OjuARk9E", "score":"61768"}
{"id":"JDFJI4KVZPu", "score":"58155"}
{"id":"1T9721uDkwO", "score":"55419"}
{"id":"JvI5Pt1m6OU", "score":"53577"}
{"id":"1Kj75on8uMN", "score":"52946"}
{"id":"I2ZrKHjyFw9", "score":"52594"}
{"id":"BaoztbW2xI3", "score":"49379"}
{"id":"DP7k8IijpyR", "score":"43938"}
{"id":"5wazii2geFn", "score":"43458"}
{"id":"AhBcl2wEd4a", "score":"43333"}
{"id":"EizylSJiG4N", "score":"42996"}
{"id":"yHTd3tEkKY", "score":"38271"}
{"id":"IOjO64BhZrI", "score":"37225"}
{"id":"Em7aF8lhhmm", "score":"36505"}
{"id":"Hq913YjGKxp", "score":"35530"}
{"id":"4uCzccxPWf5", "score":"33155"}
{"id":"Ke5CcX6vVKD", "score":"32635"}
{"id":"KH2iiaDBLNZ", "score":"31062"}
{"id":"2Rs9DqjxQ7H", "score":"29817"}
{"id":"AKlRJmSPDox", "score":"29277"}
{"id":"7LgUeRPzgjM", "score":"29057"}
{"id":"Kr0obWaRp9d", "score":"28885"}
{"id":"GSbyvZGIkQQ", "score":"28842"}
{"id":"HPbikWgMjYz", "score":"28438"}
{"id":"GuhdFbz3PzK", "score":"28174"}
{"id":"FHbIlxExJpq", "score":"27396"}
{"id":"ErZ8K7nbPJD", "score":"27389"}
{"id":"9q2S5Rc1wAc", "score":"26995"}
{"id":"EruTT6chFwt", "score":"26779"}
{"id":"9XwO61nwQi7", "score":"26730"}
{"id":"ithnvyRkP7", "score":"26472"}
{"id":"EkcBNqoXBPS", "score":"26331"}
{"id":"GhpDrcA52gs", "score":"26119"}
{"id":"GtS9vl5qOmQ", "score":"25066"}
{"id":"Q8aEOiv08J", "score":"25010"}
{"id":"IzqbOIjqAAP", "score":"24991"}
{"id":"8NOulK9fMM9", "score":"24965"}
{"id":"JwP3G53kysx", "score":"24015"}
{"id":"Lq6J88CyBdY", "score":"23725"}
{"id":"F4b47FQe3uj", "score":"23688"}
{"id":"ARZnI7Ap0yq", "score":"23492"}
{"id":"BXrXUuF5xhT", "score":"23466"}
{"id":"DIj6RAAIx6C", "score":"23213"}
{"id":"LQhA9v9t46j", "score":"22812"}
{"id":"4fxBrMqpQHB", "score":"22744"}
{"id":"FJTti4OjZSL", "score":"22734"}
{"id":"LhF6CFJPCa4", "score":"22068"}
{"id":"FjZ0reVHqGw", "score":"22053"}
{"id":"I06bmyeBmu4", "score":"21321"}
{"id":"An0UM5sECvC", "score":"21161"}
{"id":"IU6s9KNJRMs", "score":"21125"}
{"id":"16viNT34OXK", "score":"21029"}
{"id":"8T4loZMhe6S", "score":"20996"}
{"id":"4aa36tJUDbe", "score":"20601"}
{"id":"D1MZ387PEGy", "score":"20554"}
{"id":"8W5gFgvcncq", "score":"20428"}
{"id":"9yLVgsuyqT7", "score":"20320"}
{"id":"BrUzf7OVdgP", "score":"20281"}
{"id":"ILiLfbDqyY", "score":"20192"}
{"id":"3b8SA0fG1yw", "score":"19993"}
{"id":"UiWZKmAqPE", "score":"19685"}
{"id":"402wyMgwvDk", "score":"19503"}
{"id":"6azQQoY9wGe", "score":"19458"}
{"id":"8izdmdxzW46", "score":"19094"}
{"id":"BsFYUApBdy9", "score":"18954"}
{"id":"7gnYNS0xmmP", "score":"18867"}
{"id":"CN1NzduHYNG", "score":"18635"}
{"id":"2C0IDKQ5f7W", "score":"18584"}
{"id":"4LUyjGUGvV4", "score":"18460"}
{"id":"AkvXxQIi429", "score":"18030"}
{"id":"1aIG3FEtBEq", "score":"17900"}
{"id":"3QQDd8mqMMb", "score":"17654"}
{"id":"2hgiKYnbEQW", "score":"17588"}
{"id":"6OeSVIduj2C", "score":"17586"}
{"id":"I77HQpSWQIc", "score":"17544"}
{"id":"LKg5UZYmAN7", "score":"17405"}
{"id":"6FaUjRAfB6J", "score":"16853"}
{"id":"IWe9wZCbhNe", "score":"16793"}
{"id":"Asq3ExUV7WW", "score":"16637"}
{"id":"AThbErdmRYI", "score":"16429"}
{"id":"LCPcLsZ5YkC", "score":"16382"}
{"id":"O94e3EiQc4", "score":"16344"}
{"id":"L1RSWzXiSNB", "score":"16324"}
{"id":"7zy4QZJsBJc", "score":"16238"}
{"id":"Heyi6Hyjchv", "score":"16111"}
{"id":"B4JguxuKf8s", "score":"15916"}
{"id":"3mVhuzpKrAt", "score":"15845"}
{"id":"22LHePXD9wR", "score":"15829"}
{"id":"5FXjN66iOX", "score":"15717"}
{"id":"AHIzTyN59fh", "score":"15654"}
{"id":"7goKmslMjH0", "score":"15369"}
{"id":"Ba1KSh7h15W", "score":"15362"}
{"id":"449e1ulF0V9", "score":"15340"}
{"id":"8CbWhAdo5lF", "score":"15268"}
{"id":"Lb0cFTqObI7", "score":"15087"}
{"id":"4f7WRbBiOlR", "score":"14856"}
{"id":"5ZQyTIcSM9Q", "score":"14517"}
{"id":"EhYocmhPSVC", "score":"14423"}
{"id":"32iqpytDSp2", "score":"14328"}
{"id":"1LuI4odOi7U", "score":"14295"}
{"id":"833NwQiECgb", "score":"14178"}
{"id":"3fKNZ5g2nIZ", "score":"14104"}
{"id":"9Vr9t6s1xHD", "score":"13911"}
{"id":"39LDCgShwyf", "score":"13891"}
{"id":"IjzKmdIbcFt", "score":"13852"}
{"id":"DzJDdkACTn3", "score":"13815"}
{"id":"DH2K3fzycc6", "score":"13779"}
{"id":"1BtusD4pLNl", "score":"13699"}
{"id":"4FNkWGaEyW3", "score":"13679"}
{"id":"8PebToftz0H", "score":"13656"}
{"id":"Bnb5MFnCPZd", "score":"13018"}
{"id":"5WrD8D6YWaA", "score":"12880"}
{"id":"K8OusEsFIoO", "score":"12823"}
{"id":"TVksUgbYlN", "score":"12795"}
{"id":"CjiY3sibDoC", "score":"12577"}
{"id":"CvcKl67bnNo", "score":"12574"}
{"id":"9oL5a3KZXLV", "score":"12515"}
{"id":"AShVCkp9h9K", "score":"12462"}
{"id":"7pruP7DiGju", "score":"12447"}
{"id":"3gytW5DJO9u", "score":"12118"}
{"id":"2AWAazK9aI7", "score":"12057"}
{"id":"JVULuQh9wL6", "score":"12040"}
{"id":"BjvNXbz0WMZ", "score":"11876"}
{"id":"mCmOEz22iv", "score":"11841"}
{"id":"LWa0hgkv7At", "score":"11733"}
{"id":"1LPhh2SSw0X", "score":"11562"}
{"id":"BFmU8Fty7rf", "score":"11489"}
{"id":"IWpWXYhzSJi", "score":"11425"}
{"id":"AxtPy8bXqln", "score":"11277"}
{"id":"797hIubC8eB", "score":"11277"}
{"id":"4zqOLViu9Xl", "score":"11263"}
{"id":"79pzdSHj3cd", "score":"11240"}
{"id":"7vn67PUhskF", "score":"11223"}
{"id":"CJLplZxN5dx", "score":"11194"}
{"id":"Jkkl9JCutKX", "score":"11143"}
{"id":"Rz5Iw0lzqg", "score":"11082"}
{"id":"LOPNFirkKpB", "score":"11038"}
{"id":"Bo9ucYOLbZL", "score":"10978"}
{"id":"BxyPUqqpmem", "score":"10921"}
{"id":"Ezh4s6zi90F", "score":"10864"}
{"id":"5mS6pzTm6Wt", "score":"10863"}
{"id":"541E2LI9RGZ", "score":"10781"}
{"id":"Hqc5Uyy1rD5", "score":"10692"}
{"id":"1CFrzeKp2xu", "score":"10487"}
{"id":"BDjtkY4AeTJ", "score":"10383"}
{"id":"KcdbJaNV4tR", "score":"10343"}
{"id":"FKPceCQCmak", "score":"10302"}
{"id":"3mcUGUvrNtx", "score":"10292"}
{"id":"B2RzCoQzJm7", "score":"10274"}
{"id":"2VLU1xSwoOB", "score":"10237"}
{"id":"2f2Mz5wJ9I0", "score":"10232"}
{"id":"EI7azHQXzud", "score":"10145"}
{"id":"9LB3g4rh5cx", "score":"10024"}
{"id":"DyYDmYpG5TX", "score":"10023"}
{"id":"KjUjFWNiU2l", "score":"10014"}
{"id":"7BeMWEmpc6f", "score":"9758"}
{"id":"Futv3Q0tIZf", "score":"9705"}
{"id":"BTC7EPNTHZX", "score":"9705"}
{"id":"JhsXTsNPx2C", "score":"9686"}
{"id":"4YKiGPp2D8n", "score":"9673"}
{"id":"KXWJQoRzwpv", "score":"9662"}
{"id":"Is2l39Wdeaq", "score":"9659"}
{"id":"6Khx24O803A", "score":"9651"}
{"id":"4Kd2FVcLzta", "score":"9608"}
{"id":"lKXXst4bUY", "score":"9488"}
{"id":"L1DsEYIeHs4", "score":"9320"}
{"id":"1ZfQFbVTGuG", "score":"9311"}
{"id":"E0ZaMZroUWD", "score":"9212"}
{"id":"4eaKg7QgdJg", "score":"9176"}
{"id":"3898Lv2JswI", "score":"9058"}
{"id":"YQYWrvqX5r", "score":"9035"}
{"id":"6VOlgEyNVq6", "score":"9034"}
{"id":"48hJrpEMSku", "score":"8959"}
{"id":"7hnzF97duC6", "score":"8883"}
{"id":"GK8ThOqHnoQ", "score":"8845"}
{"id":"E7bOjlZwwJr", "score":"8835"}
{"id":"1QXpEROpc7y", "score":"8787"}
{"id":"BvVD8IZLN6L", "score":"8731"}
{"id":"DIVrtOsyzYH", "score":"8682"}
{"id":"5IzFlBfIH20", "score":"8637"}
{"id":"LpTAfOqkxTX", "score":"8595"}
{"id":"8HYPAPBn6Hh", "score":"8580"}
{"id":"I5B0iwb8Mc6", "score":"8560"}
{"id":"IDx6jRFTomL", "score":"8556"}
{"id":"7OoRjNyes2N", "score":"8451"}
{"id":"9R87Iuvq0U5", "score":"8449"}
{"id":"4Vuy057WH1k", "score":"8448"}
{"id":"HKXawliOJrB", "score":"8354"}
{"id":"KcsKkyVEzlD", "score":"8233"}
{"id":"5c9LrPb2ZML", "score":"8232"}
{"id":"79ApeLe8n5F", "score":"8191"}
{"id":"HV5HQWnszjc", "score":"8089"}
{"id":"7WOaIchfLVx", "score":"8064"}
{"id":"BakzFYzEKqt", "score":"8046"}
{"id":"A9rHcpz8kdZ", "score":"8041"}
{"id":"LAZVs5Z8gvJ", "score":"8040"}
{"id":"LcRiG7fkbnY", "score":"7937"}
{"id":"JYiUpR4NtNW", "score":"7891"}
{"id":"BMPgYSGOqJ2", "score":"7845"}
{"id":"EUC0G03F0nX", "score":"7844"}
{"id":"6G5It08mRwj", "score":"7784"}
{"id":"89PdNFzZClj", "score":"7783"}
{"id":"rS6AJGeG0D", "score":"7773"}
{"id":"D0DfgxM8792", "score":"7648"}
{"id":"KbAxJkpiDJ1", "score":"7625"}
{"id":"E7qjp87M5XT", "score":"7582"}
{"id":"6bAqTD6Q5OA", "score":"7529"}
{"id":"87Xs7Zr5a9", "score":"7476"}
{"id":"9aHhze0bFmT", "score":"7443"}
{"id":"FCpsDDSfiPE", "score":"7387"}
{"id":"11uJcx6HmdM", "score":"7222"}
{"id":"5keOIz6HhDo", "score":"7219"}
{"id":"DqC0MPgjSwz", "score":"7206"}
{"id":"EdWepSXprB1", "score":"7174"}
{"id":"LYE9ur87ZTl", "score":"7151"}
{"id":"6KiN4kb942J", "score":"7142"}
{"id":"7kZiBmzWLI8", "score":"7074"}
{"id":"2MFYTjlGrAj", "score":"7000"}
{"id":"7hUJmDgky7r", "score":"6993"}
{"id":"81sUmelFDV3", "score":"6958"}
{"id":"ELKCYRO7tdp", "score":"6813"}
{"id":"9u4WmFp4PMX", "score":"6805"}
{"id":"I2rlBSn21Ca", "score":"6779"}
{"id":"BZjIMhdlz31", "score":"6692"}
{"id":"82bF6OtZUme", "score":"6657"}
{"id":"DbxHxqBiJLK", "score":"6617"}
{"id":"IG6FCbZZPcl", "score":"6582"}
{"id":"7O8OgwBEiu0", "score":"6579"}
{"id":"7THBeInyK7r", "score":"6565"}
{"id":"BxMvmIkdawg", "score":"6451"}
{"id":"4NxhUmACTb8", "score":"6329"}
{"id":"8TpTq7sYeU9", "score":"6217"}
{"id":"DcXpdcjJOfi", "score":"6202"}
{"id":"5gks7OXAeON", "score":"6194"}
{"id":"GtmIEWl5kuB", "score":"6191"}
{"id":"F160nLHnch5", "score":"6155"}
{"id":"76ARJpATkeQ", "score":"6134"}
{"id":"8Xt53JI5OeE", "score":"6117"}
{"id":"6l9DOmgo2kX", "score":"6104"}
{"id":"GWvNY06xJbh", "score":"6043"}
{"id":"CwvRrruvbDp", "score":"6019"}
{"id":"LaLBeZjqf17", "score":"6012"}
{"id":"7yTaPVLkb7X", "score":"5972"}
{"id":"KQJuVF9KQC7", "score":"5970"}
{"id":"I5ZAdsmY0mw", "score":"5959"}
{"id":"EN2tjaaUVL0", "score":"5955"}
{"id":"BOdpJRwllB9", "score":"5935"}
{"id":"Ak8jM5C6gJH", "score":"5893"}
{"id":"DAFu6IJDGjV", "score":"5861"}
{"id":"L4Rv0snzY5X", "score":"5853"}
{"id":"Hr8pMVQ43Uz", "score":"5849"}
{"id":"Jy6oFleML3B", "score":"5789"}
{"id":"9pXHR0omNWt", "score":"5787"}
{"id":"FAvIiFB1BmN", "score":"5760"}
{"id":"6s34lN00vth", "score":"5738"}
{"id":"GWkdoqKwWYP", "score":"5718"}
{"id":"FULlImNHQCc", "score":"5708"}
{"id":"7kIMlr0vvKR", "score":"5704"}
{"id":"BvqhCILZAwk", "score":"5674"}
{"id":"EQZakzmuMMo", "score":"5668"}
{"id":"CeBNjuGZKG9", "score":"5604"}
{"id":"93GPzbMvURn", "score":"5565"}
{"id":"GRhHtFM7pFi", "score":"5556"}
{"id":"8DPQgXoHRLY", "score":"5552"}
{"id":"I3lTobdFFSu", "score":"5525"}
{"id":"22X2t6BLck2", "score":"5485"}
{"id":"FlfH8Qw9HdR", "score":"5444"}
{"id":"DPdCp46E5Bl", "score":"5385"}
{"id":"CAArxNSi4L6", "score":"5368"}
{"id":"B4BJIUlw6NV", "score":"5252"}
{"id":"CmGzNfU7GLD", "score":"5243"}
{"id":"9n5moRJFzpu", "score":"5218"}
{"id":"C0AhpKhI33E", "score":"5211"}
{"id":"4lFN0v2vhsa", "score":"5189"}
{"id":"1quRwYfs1xt", "score":"5187"}
{"id":"6maCJPTbRcf", "score":"5185"}
{"id":"4PdSwQjRBQD", "score":"5176"}
{"id":"1wlbxbSnusq", "score":"5144"}
{"id":"BrBBQDvHITA", "score":"5140"}
{"id":"JfewwqW8mb5", "score":"5127"}
{"id":"ILeVc0bDFte", "score":"5114"}
{"id":"KiFcxL1gqjd", "score":"5106"}
{"id":"9j37AROzwMg", "score":"5047"}
{"id":"ERVCaUc79Qd", "score":"5014"}
{"id":"LlgKQXYmmU7", "score":"4934"}
{"id":"LwbnIyJ9eYf", "score":"4913"}
{"id":"252QUgsM2CB", "score":"4867"}
{"id":"7KLw3qsSUIg", "score":"4864"}
{"id":"KCD3hyYKJXv", "score":"4854"}
{"id":"1SkprsWtlgz", "score":"4854"}
{"id":"6mqablDsKku", "score":"4827"}
{"id":"BjOA8HRkL1k", "score":"4787"}
{"id":"340AFpc3Kov", "score":"4735"}
{"id":"EutszIp0dCC", "score":"4721"}
{"id":"B7H0TbH0YCc", "score":"4710"}
{"id":"5hqaldzMi9T", "score":"4709"}
{"id":"dCuybEGuNR", "score":"4703"}
{"id":"CzjjyTiPRo8", "score":"4641"}
{"id":"Blcbvcpglw", "score":"4623"}
{"id":"3pOniTujCDh", "score":"4602"}
{"id":"E4ZErqHnSeM", "score":"4582"}
{"id":"GwulyxrASGl", "score":"4580"}
{"id":"9octmSAMuY5", "score":"4577"}
{"id":"FxKtYATTbEA", "score":"4562"}
{"id":"FILB43sAroh", "score":"4552"}
{"id":"3RNGhKxA9Wp", "score":"4527"}
{"id":"HnKk4iLtMng", "score":"4508"}
{"id":"3vOzmOx8iT4", "score":"4499"}
{"id":"JkqHGO7lzN2", "score":"4496"}
{"id":"5qxYbTpdvAY", "score":"4486"}
{"id":"3qpp4vl6YEy", "score":"4453"}
{"id":"GdDr6pQ8X4m", "score":"4402"}
{"id":"2wVJ5PZ0mEX", "score":"4397"}
{"id":"5l553F3GHKo", "score":"4395"}
{"id":"LFcn7oViVye", "score":"4391"}
{"id":"2UBiq9MTDTp", "score":"4364"}
{"id":"EyKD3ZIdDeK", "score":"4313"}
{"id":"73GgRy1etS7", "score":"4310"}
{"id":"8uSGGovabYw", "score":"4296"}
{"id":"K7itUqGc3aK", "score":"4287"}
{"id":"LCC7cn07nBT", "score":"4282"}
{"id":"AwfsNngL6XN", "score":"4273"}
{"id":"4NtB97DYu2Q", "score":"4264"}
{"id":"KD8XrPBXuyJ", "score":"4249"}
{"id":"DqIS2kGAwHR", "score":"4236"}
{"id":"BrtGLOZwlLZ", "score":"4234"}
{"id":"BHAXQ5Ev2HK", "score":"4226"}
{"id":"8XZEDc3Lz3c", "score":"4213"}
{"id":"KDgLsPzd9LF", "score":"4193"}
{"id":"J9B1bq24Tl8", "score":"4190"}
{"id":"JhGoeXwdanN", "score":"4172"}
{"id":"991kyJmmgv", "score":"4171"}
{"id":"3JGz98XpiGA", "score":"4137"}
{"id":"IMQwJC1Uvjs", "score":"4088"}
{"id":"33Cm90RUB24", "score":"4085"}
{"id":"AsZ8xiv6r56", "score":"4039"}
{"id":"GFVlDh3nlkV", "score":"4020"}
{"id":"HHTzZB2RcD", "score":"4016"}
{"id":"DCzeA3bWFjx", "score":"3981"}
{"id":"DMMdeNdQ4g3", "score":"3956"}
{"id":"DvCoTtHmS6", "score":"3935"}
{"id":"3TUaEoSrEzf", "score":"3897"}
{"id":"IQLYt2ASdnX", "score":"3894"}
{"id":"KXVkcG5eyIb", "score":"3884"}
{"id":"40wFluVxQ9P", "score":"3868"}
{"id":"Db4DTCVyITs", "score":"3860"}
{"id":"GBf53JmhfD", "score":"3858"}
{"id":"GNL8hXpn3p0", "score":"3833"}
{"id":"CmtSAdYfKd6", "score":"3794"}
{"id":"CAdZZYoipHy", "score":"3753"}
{"id":"I9EdmbC3lkq", "score":"3729"}
{"id":"9K2NxfESdNm", "score":"3725"}
{"id":"Gy8gephY0fS", "score":"3708"}
{"id":"2ItQnJbsdW2", "score":"3698"}
{"id":"5A1ewmdPIFe", "score":"3695"}
{"id":"AUxkgbVYZtD", "score":"3690"}
{"id":"K20n6gq1k0C", "score":"3681"}
{"id":"2my4sRcsi6q", "score":"3665"}
{"id":"EqhFiubK09J", "score":"3641"}
{"id":"7qS83X4hRx7", "score":"3613"}
{"id":"93quNDkuCGE", "score":"3607"}
{"id":"9NQvaWLpCIT", "score":"3603"}
{"id":"BF2WS48iDM3", "score":"3600"}
{"id":"LPAuPiI0qJ0", "score":"3599"}
{"id":"LZREkUvAA78", "score":"3567"}
{"id":"GMXhKF0Ervh", "score":"3567"}
{"id":"221SMNA3Wao", "score":"3564"}
{"id":"A1bzl9xtzTB", "score":"3561"}
{"id":"ENygXqgg4JO", "score":"3559"}
{"id":"GGJ6A45Hs9M", "score":"3556"}
{"id":"6KjusmacF9b", "score":"3554"}
{"id":"5akNfIOlCvV", "score":"3540"}
{"id":"CW04vauBwW4", "score":"3530"}
{"id":"6QAghE4Zr96", "score":"3512"}
{"id":"2upTr6WVNoD", "score":"3512"}
{"id":"Hr8pMVQ5VPA", "score":"3497"}
{"id":"L4nUevyhjtX", "score":"3490"}
{"id":"DMREMxfhJuy", "score":"3475"}
{"id":"FWMAoREu204", "score":"3472"}
{"id":"G87j5oFJHZw", "score":"3466"}
{"id":"EUEB3cv7vum", "score":"3445"}
{"id":"J8GRI02xNH6", "score":"3441"}
{"id":"IfhUrthKAls", "score":"3424"}
{"id":"4msnVEfvsEI", "score":"3424"}
{"id":"AbsHAPkIc5A", "score":"3415"}
{"id":"5gkWrBbdMmd", "score":"3401"}
{"id":"8R5kk2XkNpy", "score":"3397"}
{"id":"H6luqHdSgdd", "score":"3377"}
{"id":"Dh7orJsFhGk", "score":"3348"}
{"id":"3FLj3onfIAi", "score":"3328"}
{"id":"oIdaay7NuD", "score":"3311"}
{"id":"FXIJnenvmTe", "score":"3294"}
{"id":"42cgOCKnEQB", "score":"3294"}
{"id":"LKNkjOXBGAI", "score":"3239"}
{"id":"1DsOEJlWFRD", "score":"3233"}
{"id":"187SeBfNSU0", "score":"3225"}
{"id":"DpbManAJA74", "score":"3219"}
{"id":"H2qE6mAx5Lf", "score":"3206"}
{"id":"Gzw0gkyVvrr", "score":"3204"}
{"id":"9SAMrxhX5Bl", "score":"3155"}
{"id":"9RBRcOPq44x", "score":"3155"}
{"id":"9Xyf6Qu9hij", "score":"3152"}
{"id":"7pLkwlg3y7r", "score":"3135"}
{"id":"EaoXAiSX2Gf", "score":"3133"}
{"id":"FzirVS8lVIM", "score":"3121"}
{"id":"5a3h8OFS3xA", "score":"3108"}
{"id":"8e5l6EbtwLh", "score":"3106"}
{"id":"FA3zCKyYpp6", "score":"3066"}
{"id":"KJSRXJ3dk0n", "score":"3064"}
{"id":"kCG5pC3Kwb", "score":"3058"}
{"id":"D3jYLFAl28Q", "score":"3057"}
{"id":"Imt9cyhnoVN", "score":"3054"}
{"id":"5lAUYh5DjpB", "score":"3038"}
{"id":"W92HglRHPy", "score":"3025"}
{"id":"9PAYb5zlbnT", "score":"3020"}
{"id":"815f7MJQo2L", "score":"3012"}
{"id":"BBPAfc3XjAO", "score":"3002"}
{"id":"3VP96VOhNn", "score":"3002"}
{"id":"JpGud6vsjqB", "score":"2997"}
{"id":"Cwy911KOag2", "score":"2986"}
{"id":"FCSzTaLceBn", "score":"2984"}
{"id":"J0mhqhTkou9", "score":"2979"}
{"id":"LckcXsHdJRv", "score":"2968"}
{"id":"7pTUecNnHJl", "score":"2938"}
{"id":"9pYUM7ojK20", "score":"2928"}
{"id":"4QZy3vhokRG", "score":"2908"}
{"id":"9KMDqfL2YZN", "score":"2904"}
{"id":"38xIbgkG1Km", "score":"2901"}
{"id":"H6VGoQxeJFd", "score":"2897"}
{"id":"65XwumsUEa0", "score":"2868"}
{"id":"IVEiiHiiycB", "score":"2842"}
{"id":"4L3SoLHZJa5", "score":"2841"}
{"id":"AG18DafyNjD", "score":"2839"}
{"id":"BgFlFIRes9G", "score":"2833"}
{"id":"brTMkzJVsX", "score":"2828"}
{"id":"A7h6yItfqjB", "score":"2824"}
{"id":"CMwQjaETti", "score":"2808"}
{"id":"7hbl9kMqBWt", "score":"2802"}
{"id":"1VleJ6THu6G", "score":"2800"}
{"id":"KB4rtfconaG", "score":"2799"}
{"id":"3IBM4LT7SRa", "score":"2773"}
{"id":"Imh9BU1ZXb1", "score":"2767"}
{"id":"Daf1YiKP0IF", "score":"2764"}
{"id":"BMIgR6yVqfw", "score":"2760"}
{"id":"7Pk9nWDv61h", "score":"2752"}
{"id":"1C4EW0RNlfv", "score":"2743"}
{"id":"GurZKEBDEWf", "score":"2737"}
{"id":"BGY6jTfDHGR", "score":"2719"}
{"id":"A4NAlkzRvOt", "score":"2700"}
{"id":"6oYA3f6gYBd", "score":"2698"}
{"id":"3DkDksZLF0Q", "score":"2698"}
{"id":"3pPUufvjJ1u", "score":"2687"}
{"id":"KqC6N5QR3LG", "score":"2669"}
{"id":"1UC0WcCG01q", "score":"2664"}
{"id":"AQjLdFLZ6LA", "score":"2639"}
{"id":"BEyY9CSZSPt", "score":"2631"}
{"id":"1a6zZlk7lGP", "score":"2624"}
{"id":"GFUL2ZLAfER", "score":"2619"}
{"id":"CxdQcoFrjNB", "score":"2613"}
{"id":"9x1i3mbGAF8", "score":"2599"}
{"id":"CQ0so8pp8Vh", "score":"2593"}
{"id":"HN3hZLDWUBd", "score":"2586"}
{"id":"FQMFi0SvRuR", "score":"2579"}
{"id":"EJnKb1qEpEz", "score":"2579"}
{"id":"8uJ1OpaFgev", "score":"2575"}
{"id":"GzXs3EJFdu0", "score":"2569"}
{"id":"2emhYWelnOt", "score":"2563"}
{"id":"7iv8CjhucMq", "score":"2553"}
{"id":"10emI6tp3HS", "score":"2549"}
{"id":"DWKmnp1NnSi", "score":"2541"}
{"id":"AbIr95TvCyM", "score":"2532"}
{"id":"JOORN6RJOJ3", "score":"2527"}
{"id":"GldtGSs7zSL", "score":"2526"}
{"id":"Bd0XmtEEzb5", "score":"2504"}
{"id":"ERiHBAs99AO", "score":"2500"}
{"id":"JEcYpDjsgwi", "score":"2498"}
{"id":"ISLN5Ec7zWp", "score":"2488"}
{"id":"Gnyx1jAG3IH", "score":"2474"}
{"id":"A2rKcN6sIW0", "score":"2468"}
{"id":"AV9g6xd6Tbx", "score":"2463"}
{"id":"DMQ16G1KKUn", "score":"2456"}
{"id":"4yQReApzsTS", "score":"2440"}
{"id":"HOISFt6dON6", "score":"2435"}
{"id":"Cj5MqElSRWW", "score":"2429"}
{"id":"HofMTid6zMa", "score":"2418"}
{"id":"ECAXnBAQckH", "score":"2410"}
{"id":"KV4gMzjIvv6", "score":"2406"}
{"id":"JfwJxPjXqVH", "score":"2402"}
{"id":"HFVQGpXGoqL", "score":"2398"}
{"id":"Gr5XdxSzLBw", "score":"2396"}
{"id":"Cb8aKBAvNJ2", "score":"2377"}
{"id":"G5F4QY5tPQB", "score":"2370"}
{"id":"Ij9CHO9E3dH", "score":"2369"}
{"id":"DFAQfhfaAwk", "score":"2368"}
{"id":"Ku491cHQjig", "score":"2362"}
{"id":"HSF6H88fS8T", "score":"2358"}
{"id":"9rFwfwknRYi", "score":"2348"}
{"id":"C1piaLuIYED", "score":"2346"}
{"id":"DOrslafcbUz", "score":"2319"}
{"id":"FnFd1g8dFhC", "score":"2310"}
{"id":"JZinfVuMguI", "score":"2307"}
{"id":"5ADkFtc55IB", "score":"2306"}
{"id":"K5aAeb3f2G9", "score":"2302"}
{"id":"9be2ycpMfqv", "score":"2289"}
{"id":"K4vgpLdznht", "score":"2279"}
{"id":"1bQNzhiDm8Q", "score":"2276"}
{"id":"2ebV9GcUpac", "score":"2263"}
{"id":"EqdkfkD5qNg", "score":"2258"}
{"id":"BMpCEe5P9h9", "score":"2255"}
{"id":"1UUVjz1LW4t", "score":"2249"}
{"id":"IwIU8VXJCtT", "score":"2229"}
{"id":"DqXuePdkTvB", "score":"2219"}
{"id":"9sMdYclpnRt", "score":"2212"}
{"id":"Bocnect4K14", "score":"2204"}
{"id":"GWuWA94HIWK", "score":"2198"}
{"id":"C8B0zs3mC4j", "score":"2164"}
{"id":"7xaI8Y2MfIF", "score":"2164"}
{"id":"CBCOQJaLFfv", "score":"2151"}
{"id":"7sDqQWQOcc9", "score":"2147"}
{"id":"BKJKJyA29IG", "score":"2139"}
{"id":"1vGFSSEwOZX", "score":"2114"}
{"id":"7aXXnbXO7nJ", "score":"2112"}
{"id":"Bw0sRJIiGHK", "score":"2064"}
{"id":"H21zUqwqJzr", "score":"2063"}
{"id":"6KM0lye7ini", "score":"2060"}
{"id":"LWuNG7vuv6P", "score":"2055"}
{"id":"IDCdgHUJntG", "score":"2047"}
{"id":"Kge4ih2QQ1i", "score":"2028"}
{"id":"4QDL23CC75s", "score":"1979"}
{"id":"HM6itMZn7Ua", "score":"1970"}
{"id":"JRcvJTmjeA4", "score":"1960"}
{"id":"5BXqM8U73GQ", "score":"1953"}
{"id":"BKfiMvfpHet", "score":"1909"}
{"id":"LnP70HJyQiN", "score":"1895"}
{"id":"4AyynDnZTN0", "score":"1880"}
{"id":"1saYagh3c9U", "score":"1880"}
{"id":"DCv1BOiYlNv", "score":"1858"}
{"id":"5GgcwVbhnNc", "score":"1852"}
{"id":"3jILc8eZNsg", "score":"1850"}
{"id":"LIqhgiOa6no", "score":"1847"}
{"id":"8oLNjfp9sji", "score":"1844"}
{"id":"70Df0jW7zSx", "score":"1830"}
{"id":"BqO6YDXdE3k", "score":"1819"}
{"id":"JSlECjCLuqz", "score":"1817"}
{"id":"6pUb3dAbBks", "score":"1812"}
{"id":"KxH164mAy7N", "score":"1808"}
{"id":"3tklf7FikgI", "score":"1805"}
{"id":"2xMGckaExMm", "score":"1802"}
{"id":"K1eCx3JjZmF", "score":"1783"}
{"id":"5Xz7elh0EUm", "score":"1770"}
{"id":"1aG9qJp5gbv", "score":"1763"}
{"id":"6msAC1kJN3z", "score":"1743"}
{"id":"IhWaiQsuCR5", "score":"1741"}
{"id":"29cKGD2CII9", "score":"1741"}
{"id":"96d1lPpOwG7", "score":"1736"}
{"id":"Kzncf3S8RKM", "score":"1728"}
{"id":"6YdmkDn9Ebs", "score":"1711"}
{"id":"GQn9WnO9mz9", "score":"1698"}
{"id":"3bce1uhR8QD", "score":"1698"}
{"id":"IIWPt4XNPE9", "score":"1697"}
{"id":"KeADU2nd5p0", "score":"1691"}
{"id":"7DtgyrWG7In", "score":"1689"}
{"id":"D5e6CNrZqZt", "score":"1683"}
{"id":"JhC3mtgN4j1", "score":"1671"}
{"id":"3YVB2snuTi8", "score":"1664"}
{"id":"7jV1AoVvmQb", "score":"1658"}
{"id":"IYGLQGjwnTZ", "score":"1657"}
{"id":"Iu4X2Ms5NR5", "score":"1653"}
{"id":"y5APvg81J7", "score":"1631"}
{"id":"CdbkVcUDCV0", "score":"1630"}
{"id":"EVrkPhKVAZx", "score":"1621"}
{"id":"AAU3qXfPFEO", "score":"1619"}
{"id":"A4jyE1kf4XE", "score":"1617"}
{"id":"wFQY51thAd", "score":"1614"}
{"id":"F4bZ007v1aA", "score":"1595"}
{"id":"8vImiMTEfDb", "score":"1574"}
{"id":"H16Nk5ifJ9C", "score":"1559"}
{"id":"2d360j9akMp", "score":"1525"}
{"id":"B00CsrFgI7s", "score":"1511"}
{"id":"3oR9JoWAQf6", "score":"1497"}
{"id":"2lu5ysqi1a9", "score":"1467"}
{"id":"3osH8dnpWWL", "score":"1437"}
{"id":"3huwiOznV6Q", "score":"1397"}
{"id":"HY8dO70CY8j", "score":"1391"}
{"id":"E68tRDwmUnf", "score":"1372"}
{"id":"LJhuEjNYnLo", "score":"1371"}
{"id":"WeRrfRLxxD", "score":"1355"}
{"id":"9QDku6BQ7I", "score":"1352"}
{"id":"K8RK2Dssrl2", "score":"1347"}
{"id":"JwvU9bXcGtm", "score":"1334"}
{"id":"8B8XcSVliTd", "score":"1324"}
{"id":"8ho58GkhW34", "score":"1323"}
{"id":"CWOgFlStNP9", "score":"1319"}
{"id":"97h5U5o6ORm", "score":"1313"}
{"id":"KKRcryJUp7W", "score":"1301"}
{"id":"GJjFNmZRkwL", "score":"1291"}
{"id":"3saopYRv379", "score":"1282"}
{"id":"tRLeYOiJaC", "score":"1277"}
{"id":"KmoJBrmOUKt", "score":"1238"}
{"id":"Bupq3beFZWj", "score":"1231"}
{"id":"H9n37G5aLVw", "score":"1226"}
{"id":"rgZQGyEdfn", "score":"1224"}
{"id":"FuLqyI3TvyX", "score":"1224"}
{"id":"1UAgayOksNi", "score":"1210"}
{"id":"1QQ6pVAH1sI", "score":"1171"}
{"id":"6Xbq4DuAm6a", "score":"1168"}
{"id":"3TbZDZaGJDH", "score":"1156"}
{"id":"HelJQu3kwjl", "score":"1142"}
{"id":"8JGyD6oM3ic", "score":"1105"}
{"id":"GlnrVZwJ7OV", "score":"1063"}
{"id":"7SlWLmGTNC2", "score":"1031"}
{"id":"724h7yUATVx", "score":"1022"}
{"id":"9J2vJ1YPtMF", "score":"1020"}
{"id":"EHDgKUoyrj9", "score":"1017"}
{"id":"G1Jy1D2ACc8", "score":"1000"}
{"id":"BUwgx4v6njS", "score":"994"}
{"id":"Ds2rAhiNqB2", "score":"991"}
{"id":"HodAxo95eNE", "score":"982"}
{"id":"7c5u5kIOnL9", "score":"977"}
{"id":"CPwfkJ7MxaF", "score":"976"}
{"id":"Awtp1fLFK6L", "score":"970"}
{"id":"BuGU3GOwSGZ", "score":"961"}
{"id":"1ab4kabyoDr", "score":"957"}
{"id":"5VkBBU4GHMB", "score":"952"}
{"id":"Ii4k3ojAXcP", "score":"934"}
{"id":"4MKcenHQ0Vl", "score":"924"}
{"id":"Ik660rg4eWf", "score":"922"}
{"id":"D7He2fTt4lU", "score":"919"}
{"id":"8TCRTx7pqZ3", "score":"919"}
{"id":"CsIvO6N6c9Q", "score":"918"}
{"id":"bkmeZDStbC", "score":"887"}
{"id":"HVdZ9caIxjM", "score":"886"}
{"id":"LfRA4U6OFVn", "score":"879"}
{"id":"1dSNHV5kHaX", "score":"868"}
{"id":"JBSmxA2JH6N", "score":"833"}
{"id":"IycZEsNtAUY", "score":"815"}
{"id":"Dlh0Dt6n0pC", "score":"806"}
{"id":"LCoXi2HtiUu", "score":"785"}
{"id":"bcnNnIb3p6", "score":"769"}
{"id":"KFxLiJcXLIt", "score":"768"}
{"id":"DcsvXxukiin", "score":"763"}
{"id":"7jE7L7B1BUZ", "score":"760"}
{"id":"A4TT3bYEhS7", "score":"752"}
{"id":"DN8dy492Zak", "score":"741"}
{"id":"4474mUNTIzp", "score":"733"}
{"id":"oiPv4bsoTe", "score":"724"}
{"id":"9YvaMCXmT7R", "score":"718"}
{"id":"EkzOYXEPiPu", "score":"714"}
{"id":"EIjcS3OAQXc", "score":"704"}
{"id":"Cs5E7iNAlRS", "score":"698"}
{"id":"7UtjzHCoNht", "score":"698"}
{"id":"5jGOW55ECh5", "score":"698"}
{"id":"YtbO09MA8p", "score":"696"}
{"id":"I0YsZxC3teW", "score":"695"}
{"id":"H0uN2RMl0WU", "score":"693"}
{"id":"7BomTYN1E8n", "score":"684"}
{"id":"6hLVFQzSyFz", "score":"678"}
{"id":"G7de524u7MP", "score":"662"}
{"id":"1CUlcXE36nn", "score":"661"}
{"id":"8AsPNxxvCPc", "score":"652"}
{"id":"GjdiYZviLp5", "score":"649"}
{"id":"GDjXpu37D38", "score":"643"}
{"id":"5quUa22bto3", "score":"640"}
{"id":"1JCHnnSdOIo", "score":"637"}
{"id":"FpIezfTZlOk", "score":"626"}
{"id":"4KJghAHf8YP", "score":"619"}
{"id":"A2jkwfks6xp", "score":"618"}
{"id":"FPt9dHJFaOH", "score":"605"}
{"id":"BoM91nEk15p", "score":"599"}
{"id":"BoCyrBBML2T", "score":"599"}
{"id":"8uWL14EblLT", "score":"599"}
{"id":"7Tu8bCuQn0D", "score":"575"}
{"id":"4jhlEvirAeB", "score":"561"}
{"id":"DuAYBaEIAYI", "score":"555"}
{"id":"HbVn1ZUUjhw", "score":"553"}
{"id":"8cpOX1KKxbA", "score":"544"}
{"id":"AgeY7WLn1Fj", "score":"537"}
{"id":"C3m4yBZF4dc", "score":"532"}
{"id":"HoR0IKUkgjz", "score":"522"}
{"id":"CTJs6EcwYT8", "score":"522"}
{"id":"DJnsbnr3wJa", "score":"519"}
{"id":"AjO5fIM1kpd", "score":"516"}
{"id":"1BzuudGtnBO", "score":"516"}
{"id":"GTpxW5Mr6wY", "score":"512"}
{"id":"IO8FfsOjIpU", "score":"500"}
{"id":"Agn8KOrhUwN", "score":"500"}
{"id":"8tRbUhWNAIf", "score":"500"}
{"id":"62zjSrhFhqG", "score":"500"}
{"id":"2ojdrEdsPxy", "score":"500"}
{"id":"3cXyQ555HWT", "score":"484"}
{"id":"LAvDPfvqscg", "score":"465"}
{"id":"6NQK42T27t6", "score":"454"}
{"id":"G9iz8h2eWcT", "score":"453"}
{"id":"BQ6QSe9r8Nh", "score":"451"}
{"id":"HpzviraTdE4", "score":"449"}
{"id":"9ysiLRTf7He", "score":"439"}
{"id":"DivVhVC1dHf", "score":"438"}
{"id":"GpVxGwZcDVp", "score":"437"}
{"id":"V3h2Aasldq", "score":"436"}
{"id":"L2BIJsGkPG0", "score":"435"}
{"id":"F6u3prS5vt0", "score":"426"}
{"id":"B7DOXdeIWxV", "score":"423"}
{"id":"JBz4YjALBIr", "score":"412"}
{"id":"1ao1htxAtod", "score":"408"}
{"id":"7mWEfybzc1t", "score":"405"}
{"id":"K3Y0bR51VtT", "score":"401"}
{"id":"a47XIgOXpw", "score":"398"}
{"id":"ecKBPgn6B7", "score":"396"}
{"id":"BXm1JCIvRLt", "score":"396"}
{"id":"6KwSBEwOngm", "score":"380"}
{"id":"LGzHHl5Cnoz", "score":"378"}
{"id":"LHDHySSVzyA", "score":"372"}
{"id":"3bGzYRhrbZn", "score":"372"}
{"id":"9FCS0AuQVkF", "score":"366"}
{"id":"H1f1QgiyLAX", "score":"363"}
{"id":"IBdjw8tlGwv", "score":"358"}
{"id":"LDKFFxR1vGg", "score":"352"}
{"id":"F0eVZjPykPU", "score":"334"}
{"id":"5xXWYtGvbx8", "score":"333"}
{"id":"Byn1k6XrYYZ", "score":"326"}
{"id":"2nCcKZ3Yudd", "score":"326"}
{"id":"3mMb5QaCGtM", "score":"325"}
{"id":"CywuNAwzLzu", "score":"316"}
{"id":"HcBQEwoMRCm", "score":"315"}
{"id":"JqYP2nGjobi", "score":"311"}
{"id":"7cPxA5shUcz", "score":"311"}
{"id":"4jjRKToy3Wt", "score":"311"}
{"id":"31VbwHyZByg", "score":"306"}
{"id":"7bn6IaXFYZb", "score":"303"}
{"id":"JMVBD1fABgc", "score":"301"}
{"id":"FnqvOcEWUpG", "score":"300"}
{"id":"7v8YXsDz1Y", "score":"296"}
{"id":"EDW4GtjS0M8", "score":"295"}
{"id":"6CwcxMzCmKf", "score":"295"}
{"id":"AwHyOJDK2Vx", "score":"290"}
{"id":"4rIZHZH8TeC", "score":"288"}
{"id":"EUcZ58phAUO", "score":"271"}
{"id":"HoHPpIxLV66", "score":"269"}
{"id":"CvsFKA9I0JU", "score":"267"}
{"id":"98LfnL5qcn0", "score":"267"}
{"id":"15dGUOVPWCN", "score":"265"}
{"id":"3SUvK9Zfqi", "score":"264"}
{"id":"Cz6KCAJ2dlU", "score":"262"}
{"id":"74rN5j9cfPj", "score":"257"}
{"id":"GScXYUdk6kT", "score":"256"}
{"id":"GmAV9M9NW9K", "score":"255"}
{"id":"1NdZmmj1qAT", "score":"255"}
{"id":"B7AtVkea1Lh", "score":"237"}
{"id":"FRHMmbitQRA", "score":"228"}
{"id":"7Ot1WT3mxPP", "score":"228"}
{"id":"FZzLn1eF5zA", "score":"227"}
{"id":"EYbvPRDdUgD", "score":"223"}
{"id":"GxAZspUAun8", "score":"219"}
{"id":"9f9vSP0iPny", "score":"219"}
{"id":"15ZxXXVIhol", "score":"217"}
{"id":"GOE8IgymOXY", "score":"211"}
{"id":"2lHt0aMbzy4", "score":"208"}
{"id":"Kzxiw9GkLN9", "score":"202"}
{"id":"1KruhyJCMDJ", "score":"201"}
{"id":"LCz8bc01Qn8", "score":"198"}
{"id":"L3txh238Xa7", "score":"198"}
{"id":"K4uybwczUGY", "score":"198"}
{"id":"JzabJKzEU0w", "score":"198"}
{"id":"JHPv1hwpsLz", "score":"198"}
{"id":"FtvPstxemcF", "score":"198"}
{"id":"DbEMWvFU9tN", "score":"198"}
{"id":"3yu6KvwHct3", "score":"198"}
{"id":"7lFbXij526w", "score":"192"}
{"id":"4PHCxTFencN", "score":"189"}
{"id":"75sx59QKncd", "score":"188"}
{"id":"cDr0dtjFeE", "score":"184"}
{"id":"7T4Mx2twoLd", "score":"184"}
{"id":"LKgxWheGZi6", "score":"183"}
{"id":"5Zdio6wsLO3", "score":"182"}
{"id":"8AhR0QTq0PZ", "score":"174"}
{"id":"L2LdcTfVHFp", "score":"171"}
{"id":"9hxIMRAMihb", "score":"170"}
{"id":"331WGVgNBHu", "score":"168"}
{"id":"CKLVLU2kbxz", "score":"167"}
{"id":"BCUPGbGigz3", "score":"162"}
{"id":"vqnExs83G9", "score":"161"}
{"id":"KjYUeSD4vUB", "score":"161"}
{"id":"3a8CZLuA7H5", "score":"161"}
{"id":"BLCbLPvZHZE", "score":"160"}
{"id":"AtBLRSP7zWt", "score":"157"}
{"id":"D43wCfyUQI1", "score":"156"}
{"id":"8omhXUhuntA", "score":"154"}
{"id":"3iXyvYpbWDC", "score":"151"}
{"id":"2dspzMDSOXw", "score":"145"}
{"id":"JFpdreLv41u", "score":"140"}
{"id":"B70Y0eteqhn", "score":"136"}
{"id":"AN61WzXkXy2", "score":"136"}
{"id":"DhCaU6FVRKR", "score":"135"}
{"id":"99PTCX5R3a7", "score":"134"}
{"id":"IEQWGe1exvg", "score":"132"}
{"id":"nUQOL0bXnm", "score":"131"}
{"id":"A2Bz0r9vkk7", "score":"128"}
{"id":"6SSH0IJ0hxp", "score":"128"}
{"id":"8jH4kuUO9EZ", "score":"126"}
{"id":"HNFNTl2eSvB", "score":"119"}
{"id":"329g2oGwGm0", "score":"119"}
{"id":"JwB3EPEgGxx", "score":"117"}
{"id":"BowVdQCVloF", "score":"113"}
{"id":"4D84uKKXwa8", "score":"111"}
{"id":"5ZOkM1QrfR5", "score":"110"}
{"id":"1S2COGHJE8e", "score":"109"}
{"id":"4JiJGG6V2nw", "score":"104"}
{"id":"GUfEeEigYhS", "score":"101"}
{"id":"3hVMAoUToN7", "score":"101"}
{"id":"F6aMmTHesqB", "score":"100"}
{"id":"nFquC04PkN", "score":"99"}
{"id":"ZAYL3bYyGE", "score":"99"}
{"id":"IRBrSqQ2oX9", "score":"99"}
{"id":"IDZ4UmUwGg0", "score":"99"}
{"id":"HbS1PDCW405", "score":"99"}
{"id":"Eom4x6taWq7", "score":"99"}
{"id":"DCSlJs9kz7Q", "score":"99"}
{"id":"BwVa4PFatyw", "score":"99"}
{"id":"BRDf9IMUrqE", "score":"99"}
{"id":"A0nC1TGpvu9", "score":"99"}
{"id":"87smgNzGx0j", "score":"99"}
{"id":"7Dz6g0epnx", "score":"99"}
{"id":"6EbpOWo7YL5", "score":"99"}
{"id":"4ps00oKadyE", "score":"99"}
{"id":"3palFv2IH4H", "score":"99"}
{"id":"2n9yQp1JRaO", "score":"99"}
{"id":"2ZQphzzZoH7", "score":"99"}
{"id":"169Mjsgykxy", "score":"97"}
{"id":"JrQdXZq909y", "score":"91"}
{"id":"7PePInNbE4n", "score":"84"}
{"id":"HDFy6oQGoEu", "score":"80"}
{"id":"1qqrBma0E7O", "score":"80"}
{"id":"KUoNZ4ejotL", "score":"78"}
{"id":"EoLpNTuFPGx", "score":"78"}
{"id":"J4lkzUJ4l19", "score":"76"}
{"id":"DwxThRds6pm", "score":"76"}
{"id":"KVBwCB0iOaf", "score":"75"}
{"id":"IeP3eX1Urft", "score":"74"}
{"id":"Eu06hTsyGLO", "score":"72"}
{"id":"9MF5uv27H3s", "score":"72"}
{"id":"Iay6zIl5jZ6", "score":"71"}
{"id":"3UVFaLO3GgF", "score":"68"}
{"id":"J7PChz68zkH", "score":"67"}
{"id":"HowXomIpsnL", "score":"66"}
{"id":"Fb74U2Tlde3", "score":"64"}
{"id":"BthsV4PryLu", "score":"62"}
{"id":"GfHrhWtN5Yu", "score":"59"}
{"id":"GT9VRh6e6sf", "score":"58"}
{"id":"DOCs5n1d8rM", "score":"57"}
{"id":"7iD2SHf3ITL", "score":"54"}
{"id":"5p9A2kjkjKd", "score":"45"}
{"id":"J7BToogq4Q0", "score":"44"}
{"id":"FMhjFwISeXQ", "score":"41"}
{"id":"GWcEzMojS7G", "score":"39"}
{"id":"CHnCT8qd6Fw", "score":"39"}
{"id":"AZR1Q5CpHe", "score":"34"}
{"id":"AKSpUSxlgQZ", "score":"34"}
{"id":"EA828sTEz8X", "score":"33"}
{"id":"7umnSNe0jCS", "score":"33"}
{"id":"1LrShbQbbwZ", "score":"33"}
{"id":"JpX2Y0Thk3I", "score":"32"}
{"id":"AoJBhvxuBov", "score":"30"}
{"id":"7LHalshI8xv", "score":"30"}
{"id":"8yn6IqjGoko", "score":"26"}
{"id":"8CncDJFyf5Y", "score":"24"}
{"id":"5j7hxqsAk1M", "score":"24"}
{"id":"J3cxryemJvE", "score":"22"}
{"id":"CgrVev5Sp66", "score":"22"}
{"id":"8Bl0yGcI4kC", "score":"19"}
{"id":"JOScazHd2lN", "score":"18"}
{"id":"D3uJNQ7fWl4", "score":"18"}
{"id":"Be0sZPVIAtz", "score":"18"}
{"id":"9wttSH7Ks6K", "score":"17"}
{"id":"2kNyMHVPFhs", "score":"16"}
{"id":"7H8XABNrhd0", "score":"15"}
{"id":"DtuAS3VXZVo", "score":"14"}
{"id":"Lj1KUVfR4il", "score":"12"}
{"id":"F9cDTfOpYln", "score":"10"}
{"id":"7NUuxHaYmAh", "score":"10"}
{"id":"DUaif8UbLxM", "score":"8"}
{"id":"LpcAKfCKr72", "score":"7"}
{"id":"9CpnG3SXPIw", "score":"4"}
{"id":"2QmE69W4a42", "score":"3"}
{"id":"user_9", "score":"1"}
{"id":"user_8", "score":"1"}
{"id":"user_7", "score":"1"}
{"id":"user_6", "score":"1"}
{"id":"user_5", "score":"1"}
{"id":"user_4", "score":"1"}
{"id":"user_3", "score":"1"}
{"id":"user_2", "score":"1"}
{"id":"user_10", "score":"1"}
{"id":"user_1", "score":"1"}
{"id":"wBSkWbMWWt", "score":"0"}
{"id":"arPBJiH8tR", "score":"0"}
{"id":"ZmtaIXHTCl", "score":"0"}
{"id":"RIx4nIWgA", "score":"0"}
{"id":"R7F4gmlbAJ", "score":"0"}
{"id":"LkONTcchp8F", "score":"0"}
{"id":"Ljk4JVLGtON", "score":"0"}
{"id":"LYOHah8eMko", "score":"0"}
{"id":"LX1isGtr1h1", "score":"0"}
{"id":"L3tvFR6ylvl", "score":"0"}
{"id":"KqCutxljImh", "score":"0"}
{"id":"Ko3WfeJsgMF", "score":"0"}
{"id":"KiN83jBlQz6", "score":"0"}
{"id":"Kb7ymxgRj1M", "score":"0"}
{"id":"KaXzlQFmddF", "score":"0"}
{"id":"KUmIiujmiD6", "score":"0"}
{"id":"KNaceIg1pap", "score":"0"}
{"id":"KNWyS2QbwFh", "score":"0"}
{"id":"JdxHpjaz5jx", "score":"0"}
{"id":"J3iTv0l8vft", "score":"0"}
{"id":"J00OMSrBezP", "score":"0"}
{"id":"IyqN6kXtiOC", "score":"0"}
{"id":"IVhwvfGTq9A", "score":"0"}
{"id":"IMdKFBTcnzT", "score":"0"}
{"id":"HokZUJVysHH", "score":"0"}
{"id":"HjcgfewF6x4", "score":"0"}
{"id":"HTjw0gAInL7", "score":"0"}
{"id":"H7nZOqsZmRN", "score":"0"}
{"id":"H3mVSOEGa6Z", "score":"0"}
{"id":"Grf4epL7t6M", "score":"0"}
{"id":"GmcfgyQooX3", "score":"0"}
{"id":"GKQb8hX2chD", "score":"0"}
{"id":"GBLJ6jZLMI3", "score":"0"}
{"id":"GAqIvdDcp0a", "score":"0"}
{"id":"G62xPokmaNy", "score":"0"}
{"id":"G1pvYMCatKm", "score":"0"}
{"id":"FxxS7JAaFZE", "score":"0"}
{"id":"FxIh9n4E6En", "score":"0"}
{"id":"FZPBTdQrUz2", "score":"0"}
{"id":"FU40hqWOSvf", "score":"0"}
{"id":"FNaLqBMQUDU", "score":"0"}
{"id":"F4xWU6MM5Eq", "score":"0"}
{"id":"EgTL3diL84k", "score":"0"}
{"id":"EfyMckaYd2k", "score":"0"}
{"id":"EKxNfrLqM1G", "score":"0"}
{"id":"EJFV95k6EE1", "score":"0"}
{"id":"E8toLgQNbDv", "score":"0"}
{"id":"E4zZJXBtgcb", "score":"0"}
{"id":"E20J0f7LKSG", "score":"0"}
{"id":"CiFVDfCCYdA", "score":"0"}
{"id":"CdPbLfJAJxp", "score":"0"}
{"id":"COBOHd9CGf2", "score":"0"}
{"id":"CCbBn1SuVsJ", "score":"0"}
{"id":"BumI7CfrYwa", "score":"0"}
{"id":"BoEJqtFZmHn", "score":"0"}
{"id":"BfgQndl2qm4", "score":"0"}
{"id":"BH57nd3knNh", "score":"0"}
{"id":"BFOzLY3SJqL", "score":"0"}
{"id":"Ateayi9cprV", "score":"0"}
{"id":"Ac8EIOrsytZ", "score":"0"}
{"id":"AMXEuuf5lV2", "score":"0"}
{"id":"AHb8yzdXqES", "score":"0"}
{"id":"9lFGjNs7SYn", "score":"0"}
{"id":"9i1Z2uQVmvm", "score":"0"}
{"id":"9aBccsq9Ffl", "score":"0"}
{"id":"9QJiF0BVhuz", "score":"0"}
{"id":"8gpDKhcjuJd", "score":"0"}
{"id":"87BMovs0Ky3", "score":"0"}
{"id":"7ukVHPYoBgm", "score":"0"}
{"id":"7rC1ILEv811", "score":"0"}
{"id":"7q4CjeP7V9x", "score":"0"}
{"id":"6obXXSBNAnT", "score":"0"}
{"id":"6elCdUOrBWO", "score":"0"}
{"id":"6dwKujQnyd", "score":"0"}
{"id":"6SoNrlpBY9q", "score":"0"}
{"id":"6HHVkUdz557", "score":"0"}
{"id":"5RG1tpfIZHK", "score":"0"}
{"id":"5HuUYvgOC6w", "score":"0"}
{"id":"5DppoZ4Mazm", "score":"0"}
{"id":"54nDkXjdJ10", "score":"0"}
{"id":"54OFFoWW1hF", "score":"0"}
{"id":"4iU3u3gRStd", "score":"0"}
{"id":"4hm8wA6GLER", "score":"0"}
{"id":"4McoRvlTlqc", "score":"0"}
{"id":"4Bk4nfRyeVF", "score":"0"}
{"id":"3DRMmTGkGen", "score":"0"}
{"id":"397Hrt0qnmH", "score":"0"}
{"id":"37DNVPSMfV1", "score":"0"}
{"id":"2ljsXXWzghn", "score":"0"}
{"id":"2foAfDNQC8P", "score":"0"}
{"id":"2URcbr8UnyE", "score":"0"}
{"id":"2TeWcssRRzg", "score":"0"}
{"id":"2KIMLViMaq9", "score":"0"}
{"id":"2AKxDtM3SZu", "score":"0"}
{"id":"1ipA2Tx3n7V", "score":"0"}
{"id":"1Ga0DgU8Ijc", "score":"0"}
