{"id":"BCYJaKa2erq", "score":"94018"}
{"id":"7zW1L4Xb1Bm", "score":"92621"}
{"id":"3JHJDgyZYVM", "score":"70838"}
{"id":"IeYTdc9IYX0", "score":"48440"}
{"id":"3k5oVMz7AeQ", "score":"35534"}
{"id":"9ZWCbRfY28J", "score":"14046"}
{"id":"LIEmOLNKrH2", "score":"13822"}
{"id":"CizaPKxrZ98", "score":"12622"}
{"id":"AHuxQu3oLEE", "score":"11188"}
{"id":"9XLui69N1Kj", "score":"10714"}
{"id":"8zTq75Rlcq3", "score":"7451"}
{"id":"8MIpbkHq2QL", "score":"4240"}
{"id":"3Bw0VbE0ZUt", "score":"1660"}
{"id":"AF5pW8xUEry", "score":"1308"}
{"id":"3RcCPalhirp", "score":"1305"}
{"id":"33PfzFG0J0K", "score":"1000"}
{"id":"IHo9xFwt6dW", "score":"500"}
{"id":"AYvz0l5CLmm", "score":"350"}
{"id":"ECQ5wjoFjkc", "score":"117"}
{"id":"user_9", "score":"1"}
{"id":"user_8", "score":"1"}
{"id":"user_7", "score":"1"}
{"id":"user_6", "score":"1"}
{"id":"user_5", "score":"1"}
{"id":"user_4", "score":"1"}
{"id":"user_3", "score":"1"}
{"id":"user_2", "score":"1"}
{"id":"user_10", "score":"1"}
{"id":"user_1", "score":"1"}
{"id":"IPdLQDHa402", "score":"0"}
