{"id":"JJUmWwHQp8D", "score":"177953"}
{"id":"CaQyBrNDyFh", "score":"114818"}
{"id":"6GymXQitsVy", "score":"107095"}
{"id":"33OjKZ7b9nH", "score":"104809"}
{"id":"3wTkWNvRX1h", "score":"93478"}
{"id":"IkFU2ONNPBq", "score":"56323"}
{"id":"1fH4yZvFhj4", "score":"55053"}
{"id":"AY23nVyss9R", "score":"46778"}
{"id":"dFzoI1C51W", "score":"37558"}
{"id":"BxGgBtyNZ44", "score":"36945"}
{"id":"IIvwbBuP5cp", "score":"33455"}
{"id":"CTRJFD12WJ5", "score":"33347"}
{"id":"A6NgkAFFeJn", "score":"32397"}
{"id":"8dM9OlEabPV", "score":"30560"}
{"id":"HZniTmXI6Uj", "score":"28940"}
{"id":"Ifo2OtI6oL4", "score":"27180"}
{"id":"DSv89inzMdm", "score":"26770"}
{"id":"L06TqbhPz0p", "score":"25983"}
{"id":"4XB94mKPx0d", "score":"25903"}
{"id":"7nWKCS3qk1D", "score":"23445"}
{"id":"LAiB2bJAwGi", "score":"22574"}
{"id":"bFJvPAIQ0Z", "score":"22423"}
{"id":"DMIyCMxvyE4", "score":"22077"}
{"id":"FDUDLDDEDdo", "score":"21364"}
{"id":"2rysjTvgdMh", "score":"21269"}
{"id":"1hJLlTPcYxp", "score":"21002"}
{"id":"Jt6xbog1rZU", "score":"20794"}
{"id":"CkCGMg2BNdK", "score":"18666"}
{"id":"A6Uo2lQXFTO", "score":"18279"}
{"id":"2RbI1p9el1n", "score":"17682"}
{"id":"BKn5S0XF0dH", "score":"16973"}
{"id":"Ad64uv0R20N", "score":"16784"}
{"id":"5vTzMnhlKXP", "score":"16182"}
{"id":"1QCSNZ8XVra", "score":"16018"}
{"id":"CKCTuMgFHS9", "score":"15689"}
{"id":"HHJJoLEzubM", "score":"15442"}
{"id":"GMqgSEceKOU", "score":"15107"}
{"id":"EgRNKfM498L", "score":"14446"}
{"id":"IkTOaU2vwuG", "score":"14424"}
{"id":"4uRTfF2meED", "score":"14088"}
{"id":"94yyXOrqkik", "score":"14001"}
{"id":"InD38Tp0wzQ", "score":"13886"}
{"id":"6pfoLTYAlj6", "score":"13809"}
{"id":"Dcd8FaYermf", "score":"13339"}
{"id":"AI0Myet9fa4", "score":"13308"}
{"id":"7yIjR1PXWdh", "score":"12632"}
{"id":"KIdykYCgMku", "score":"12595"}
{"id":"5RMUq338v8c", "score":"12367"}
{"id":"CRVkHl0KBJl", "score":"12254"}
{"id":"1j5GwDbNrhO", "score":"11398"}
{"id":"EFx34b5CRLF", "score":"11287"}
{"id":"3tgR3nSobl8", "score":"10794"}
{"id":"7BXsSbJPyxO", "score":"10595"}
{"id":"LRb1VJK84uW", "score":"10592"}
{"id":"CJWRP2m1a0S", "score":"10471"}
{"id":"1UkJ2mmRdFB", "score":"10445"}
{"id":"5TdswSITjcZ", "score":"9786"}
{"id":"B7CjvJ31ck7", "score":"9337"}
{"id":"8McGZOgZizw", "score":"9214"}
{"id":"ZExaGQAEru", "score":"8783"}
{"id":"JtYUHZWEUSd", "score":"8586"}
{"id":"GCVAJ4AXIF9", "score":"8295"}
{"id":"4nLPJ5Q1cur", "score":"7724"}
{"id":"60y80TNvnDE", "score":"7696"}
{"id":"FIaHKi2OMAl", "score":"7250"}
{"id":"E0Z6FZcAEoB", "score":"7215"}
{"id":"HYtWboz7csz", "score":"6677"}
{"id":"IwUVBdz8UJI", "score":"6434"}
{"id":"DX9fvyCVWXJ", "score":"6287"}
{"id":"KdE7pp8II3J", "score":"6070"}
{"id":"HRc0HS3PpO7", "score":"5716"}
{"id":"6UUqbXkI5FY", "score":"5698"}
{"id":"FVmsTxTJnZ9", "score":"5019"}
{"id":"JKLXz6oVS8H", "score":"4867"}
{"id":"Fz512BJx63U", "score":"4618"}
{"id":"5vO1y5J3sUm", "score":"4458"}
{"id":"4CcTgtGMW1G", "score":"4376"}
{"id":"CVKIqschUnF", "score":"4365"}
{"id":"5z5fg9f09RE", "score":"4182"}
{"id":"1va6ZUjRGGP", "score":"4145"}
{"id":"IfiwVrtAuA7", "score":"4027"}
{"id":"B4lQ2REa04B", "score":"3573"}
{"id":"lw8jcjkau3", "score":"3282"}
{"id":"Djek97gx11A", "score":"2999"}
{"id":"DRiUdYW8261", "score":"2998"}
{"id":"G9nMq5Ror0y", "score":"2841"}
{"id":"32PQQU6mW7M", "score":"2500"}
{"id":"GoIM3tHz9LI", "score":"1948"}
{"id":"FNVTwevSoPg", "score":"1870"}
{"id":"EYzE1tC6SSr", "score":"1519"}
{"id":"FzWYTjecPET", "score":"1463"}
{"id":"FCLFGFgfJvQ", "score":"1263"}
{"id":"qkshadrhHy", "score":"1185"}
{"id":"8vwmXDbuN6t", "score":"925"}
{"id":"JxATJU2pe6p", "score":"846"}
{"id":"3JPbI5vTURN", "score":"808"}
{"id":"Clj3oB6l06J", "score":"610"}
{"id":"JsgdIWz4Akl", "score":"444"}
{"id":"user_9", "score":"1"}
{"id":"user_8", "score":"1"}
{"id":"user_7", "score":"1"}
{"id":"user_6", "score":"1"}
{"id":"user_5", "score":"1"}
{"id":"user_4", "score":"1"}
{"id":"user_3", "score":"1"}
{"id":"user_2", "score":"1"}
{"id":"user_10", "score":"1"}
{"id":"user_1", "score":"1"}
{"id":"LZfxanfW9Ii", "score":"0"}
{"id":"KKa5oMqX5dW", "score":"0"}
