{"id":"Kerrbd6vsBv", "score":"92694"}
{"id":"Lha0FwLeIcg", "score":"86785"}
{"id":"IHtr3PsU2iV", "score":"66206"}
{"id":"BdLlkpwbCUW", "score":"37232"}
{"id":"FF5BG85jdl1", "score":"29796"}
{"id":"GdvPCZGf39p", "score":"26250"}
{"id":"8kKDLdqZQhb", "score":"21870"}
{"id":"61pfnF6SQgq", "score":"19988"}
{"id":"3oZQSXKt5HS", "score":"17939"}
{"id":"Iyekupf3Zbl", "score":"16110"}
{"id":"5818FoHRZOX", "score":"12059"}
{"id":"FYxLdLTZFTw", "score":"11260"}
{"id":"DRyLlihYLE4", "score":"11083"}
{"id":"4BSMf6bc1D7", "score":"10695"}
{"id":"BKGBV09VjtE", "score":"8333"}
{"id":"CBDoJjjaThC", "score":"8285"}
{"id":"7thZY4imKM9", "score":"8166"}
{"id":"KAHOUnXhPGQ", "score":"7841"}
{"id":"4pnibuwWczd", "score":"7821"}
{"id":"CJCdwSEUZRk", "score":"6971"}
{"id":"54btRzoDB8u", "score":"6839"}
{"id":"8oUZuKbFQ45", "score":"6745"}
{"id":"DaSuPc6WdI6", "score":"6693"}
{"id":"64uWXs4ADwD", "score":"6656"}
{"id":"69Aep3q5Jhe", "score":"6021"}
{"id":"4W7gj2O1kca", "score":"5602"}
{"id":"4zV5bRSlaRz", "score":"5436"}
{"id":"HehWJaRqXrX", "score":"4523"}
{"id":"LaGFaoH8fD6", "score":"4474"}
{"id":"L6eXTPfNn1e", "score":"4387"}
{"id":"1lvNZu0AblS", "score":"4352"}
{"id":"Kl9lXpwFyrd", "score":"4045"}
{"id":"KXkGqJFASMX", "score":"3911"}
{"id":"5oWPO3RKxBX", "score":"3836"}
{"id":"IE0IgLIiTCO", "score":"3702"}
{"id":"DndrifcP1W9", "score":"3602"}
{"id":"J8ni8EGuo8P", "score":"3045"}
{"id":"LQtqauRRjeo", "score":"2641"}
{"id":"EVgvWQs2gQi", "score":"2496"}
{"id":"1V4dhHPjCco", "score":"2356"}
{"id":"HGac9eVrkVZ", "score":"2343"}
{"id":"xr3DugAztx", "score":"2341"}
{"id":"FMoxwHG0afI", "score":"2230"}
{"id":"C0Ta5dHjcoH", "score":"2218"}
{"id":"3cPr9cdUk5Z", "score":"1904"}
{"id":"HkD13fEUmox", "score":"1789"}
{"id":"8kkQsbC56Sn", "score":"1686"}
{"id":"Bqf6AVWbt9P", "score":"1595"}
{"id":"4Vq0xp6gFet", "score":"1591"}
{"id":"JLQoKmu79Mt", "score":"1588"}
{"id":"GfV50OmMn1g", "score":"1531"}
{"id":"EdOj5i4xK4h", "score":"1424"}
{"id":"HlEFubbsA6M", "score":"1403"}
{"id":"1FBIn4syS6m", "score":"1398"}
{"id":"2fvsKqS1Neq", "score":"1342"}
{"id":"I04zHUmBzVT", "score":"1252"}
{"id":"4kcD04kkX3Z", "score":"1151"}
{"id":"KjPJ5ywbjEJ", "score":"1041"}
{"id":"9AsZwO1OAiZ", "score":"1032"}
{"id":"347Gn3Jtymp", "score":"1000"}
{"id":"4tLFaSEsQi", "score":"974"}
{"id":"2Pf16p5tOKz", "score":"958"}
{"id":"CA0l5IWxMwn", "score":"870"}
{"id":"Fx3xAcirGZh", "score":"792"}
{"id":"K3aKZ6HO6Ra", "score":"651"}
{"id":"3iRUCvIxOK1", "score":"625"}
{"id":"KZ6qkHWjTKj", "score":"500"}
{"id":"H22TklhHh1V", "score":"500"}
{"id":"6Ol7xZwUfwl", "score":"416"}
{"id":"8NNDIVlWzGs", "score":"402"}
{"id":"8hDzghOLj81", "score":"373"}
{"id":"CYeTT377eWL", "score":"346"}
{"id":"KQy3Snu1SDG", "score":"343"}
{"id":"BeOwFoPuA36", "score":"324"}
{"id":"JQs9pNcKUab", "score":"294"}
{"id":"6micylufxRL", "score":"206"}
{"id":"K6YJYe7gJbC", "score":"186"}
{"id":"2SQMZcOHCWj", "score":"150"}
{"id":"7w01yf40y3i", "score":"147"}
{"id":"AJ8vLhgulE0", "score":"66"}
{"id":"27JPGgyvqgF", "score":"47"}
{"id":"HY2ZAAyWEeQ", "score":"38"}
{"id":"user_9", "score":"1"}
{"id":"user_8", "score":"1"}
{"id":"user_7", "score":"1"}
{"id":"user_6", "score":"1"}
{"id":"user_5", "score":"1"}
{"id":"user_4", "score":"1"}
{"id":"user_3", "score":"1"}
{"id":"user_2", "score":"1"}
{"id":"user_10", "score":"1"}
{"id":"user_1", "score":"1"}
{"id":"oRQALPEVee", "score":"0"}
{"id":"LviqKScPeR3", "score":"0"}
{"id":"KaU07kmxawY", "score":"0"}
{"id":"JSai4t06l7Y", "score":"0"}
{"id":"ITz2wLZP7Bz", "score":"0"}
{"id":"H8pV5IzliqI", "score":"0"}
{"id":"GvkXErIJGTR", "score":"0"}
{"id":"G5YhxvR3ZY2", "score":"0"}
{"id":"DClP0qVEn5m", "score":"0"}
{"id":"Cw7hVGfOimX", "score":"0"}
{"id":"CEJIwnFy1CM", "score":"0"}
{"id":"BDoku5Mv5q2", "score":"0"}
{"id":"Aopv8oAJbX8", "score":"0"}
{"id":"9gQWr1wv9xy", "score":"0"}
{"id":"9g5Mx4B2p7v", "score":"0"}
{"id":"5oaUfXOsNJA", "score":"0"}
{"id":"5dmFYVh74il", "score":"0"}
{"id":"2ZuIYbjuGSQ", "score":"0"}
