{"id":"B6bFPBLJ6o", "score":"60653"}
{"id":"3yKmksUVnyj", "score":"44732"}
{"id":"C5aRwOipuqR", "score":"36031"}
{"id":"ElzNWo8d8ss", "score":"26723"}
{"id":"4mHBnwngGmN", "score":"24870"}
{"id":"HMjbiz3aPNH", "score":"19375"}
{"id":"BIw1bkAsBJJ", "score":"12698"}
{"id":"9SS1ug62gGK", "score":"10324"}
{"id":"LwAvC1bWhgV", "score":"9349"}
{"id":"CTAu8zKji5D", "score":"9113"}
{"id":"vvYuXpSvLd", "score":"8543"}
{"id":"ARqUxifHCTz", "score":"7541"}
{"id":"2Ad4SDi6Eyz", "score":"7205"}
{"id":"3x7mLMNv9cV", "score":"6967"}
{"id":"6EIMtj9GnSa", "score":"6631"}
{"id":"IUYxgVUOiAC", "score":"6398"}
{"id":"A9C7Ujw73Hv", "score":"6040"}
{"id":"ExeElG5m4tT", "score":"5259"}
{"id":"C6De4IVPq8y", "score":"5259"}
{"id":"7jfQrCAYf1f", "score":"4872"}
{"id":"EtAcMvfr9Cx", "score":"3533"}
{"id":"K6rXgp9ktyM", "score":"3196"}
{"id":"32kkNeBGBjR", "score":"3155"}
{"id":"McFzNarTLi", "score":"3059"}
{"id":"HGBI406a3Me", "score":"2702"}
{"id":"4ot3ysc9YH6", "score":"2502"}
{"id":"1eTqc74i7Te", "score":"2311"}
{"id":"Cj2m8Q3AFom", "score":"2298"}
{"id":"3fbp7KbORlI", "score":"2241"}
{"id":"1EvAZpBITo", "score":"2068"}
{"id":"1HiAvSQJKGI", "score":"2041"}
{"id":"56Rav9QxC81", "score":"1940"}
{"id":"CyYGxvxfJQV", "score":"1864"}
{"id":"Lx51QfS5zuK", "score":"1836"}
{"id":"EuCzrl6036V", "score":"1818"}
{"id":"GmGBCVmjijb", "score":"1808"}
{"id":"KMHw0xDam1", "score":"1753"}
{"id":"9laJJZMozNJ", "score":"1519"}
{"id":"BpB7pEzPISO", "score":"1427"}
{"id":"Iu8xUjlNgYE", "score":"1252"}
{"id":"HXJccxxbHlP", "score":"1239"}
{"id":"ApNfWT6iCm6", "score":"1197"}
{"id":"KLiihWMlAAh", "score":"1110"}
{"id":"8gnX8MmhtL6", "score":"1058"}
{"id":"XzBPEeCCDx", "score":"1039"}
{"id":"7JXOPO0SAX8", "score":"1016"}
{"id":"60IJYoRqR32", "score":"988"}
{"id":"7fSWCXZ6xhp", "score":"986"}
{"id":"KbTqiZVqdsH", "score":"983"}
{"id":"4xSVyPMDEtS", "score":"957"}
{"id":"4tvtZu7NB8c", "score":"947"}
{"id":"GrQ8l5sw3Mo", "score":"933"}
{"id":"DAXLVqb9kMj", "score":"918"}
{"id":"GetZbr8blqs", "score":"911"}
{"id":"J5WC818xd08", "score":"901"}
{"id":"4AjyyIlT1FU", "score":"888"}
{"id":"IkIsZvKSfUH", "score":"835"}
{"id":"8gNidUFLQhH", "score":"827"}
{"id":"FQRtuHamPQn", "score":"769"}
{"id":"HLOMamMRQMY", "score":"745"}
{"id":"Ki51Hp0QnMF", "score":"733"}
{"id":"J3R7nSYG5vf", "score":"722"}
{"id":"FtOW9w2QtCk", "score":"589"}
{"id":"rFu9x4C4zC", "score":"528"}
{"id":"1CjEfbSjm9V", "score":"506"}
{"id":"4wzuvqAdAom", "score":"470"}
{"id":"5dPCsA5hTSz", "score":"469"}
{"id":"3FuhlepenZk", "score":"465"}
{"id":"GGPhSsRwH2L", "score":"461"}
{"id":"BoLZYDOAoeK", "score":"446"}
{"id":"8FDKlJlBDCx", "score":"444"}
{"id":"7YqWHuNDSI2", "score":"438"}
{"id":"LTSVqaW2te", "score":"436"}
{"id":"GT3yWYuJrfJ", "score":"420"}
{"id":"ATwsVoaN5tc", "score":"408"}
{"id":"Zq2jeoVSCD", "score":"259"}
{"id":"user_9", "score":"1"}
{"id":"user_8", "score":"1"}
{"id":"user_7", "score":"1"}
{"id":"user_6", "score":"1"}
{"id":"user_5", "score":"1"}
{"id":"user_4", "score":"1"}
{"id":"user_3", "score":"1"}
{"id":"user_2", "score":"1"}
{"id":"user_10", "score":"1"}
{"id":"user_1", "score":"1"}
{"id":"dG9SEQAx6C", "score":"0"}
{"id":"LLUIGSi5WGz", "score":"0"}
{"id":"KDDdgv5V5RS", "score":"0"}
{"id":"JscnzTo0HXv", "score":"0"}
{"id":"JAuwg32zfZu", "score":"0"}
{"id":"Ioh1rG6FTXr", "score":"0"}
{"id":"I4XlR7Dk9XC", "score":"0"}
{"id":"HZqaB1vfLAf", "score":"0"}
{"id":"HZCGc3thqNx", "score":"0"}
{"id":"HIqUwKFZGBu", "score":"0"}
{"id":"GwfyVzsyCZF", "score":"0"}
{"id":"GY02bPpayVR", "score":"0"}
{"id":"FZPBTdQrUz2", "score":"0"}
{"id":"FMgpdanYKWb", "score":"0"}
{"id":"EtnwirD13iy", "score":"0"}
{"id":"EdXKtgAT7cI", "score":"0"}
{"id":"Ed7sCKCFmav", "score":"0"}
{"id":"ERX0klOGXI9", "score":"0"}
{"id":"EH2nDi75y4T", "score":"0"}
{"id":"Dn0ciHBkqw5", "score":"0"}
{"id":"DPIlrejr7PL", "score":"0"}
{"id":"DH1jEi90AYV", "score":"0"}
{"id":"D5oMi1w3VX0", "score":"0"}
{"id":"CA6aDZEIxRr", "score":"0"}
{"id":"C9pgOR4vCpn", "score":"0"}
{"id":"Ala792jc0wp", "score":"0"}
{"id":"ATDfE7wdjLZ", "score":"0"}
{"id":"9KM0tuhQuVF", "score":"0"}
{"id":"9JJ2cpiFG4b", "score":"0"}
{"id":"9GXZcq3LAWq", "score":"0"}
{"id":"9C6mJyTrIrv", "score":"0"}
{"id":"8zvcTHnJGgJ", "score":"0"}
{"id":"8lLHu8DiH7v", "score":"0"}
{"id":"8i1ikIy3wdN", "score":"0"}
{"id":"8evXzbJZgwk", "score":"0"}
{"id":"86EdDKdQJIQ", "score":"0"}
{"id":"7xd97GqJjmR", "score":"0"}
{"id":"7t2qLAVYBWf", "score":"0"}
{"id":"7LngeytyALL", "score":"0"}
{"id":"6fskCUf5cca", "score":"0"}
{"id":"6aij5HneTMy", "score":"0"}
{"id":"5vOjxMFoTFG", "score":"0"}
{"id":"5syBYa0ScoF", "score":"0"}
{"id":"5Jaa5Xv2od9", "score":"0"}
{"id":"56liBMMugtI", "score":"0"}
{"id":"4uaP1fyk7Y9", "score":"0"}
{"id":"4KbyOtk4R5R", "score":"0"}
{"id":"4ATgHESKRAA", "score":"0"}
{"id":"36jRgBqrXLc", "score":"0"}
{"id":"30G2sKCVgT5", "score":"0"}
{"id":"2l0PiBwbaPs", "score":"0"}
{"id":"2JzGIUDR3nj", "score":"0"}
{"id":"1rV8dqpA1DF", "score":"0"}
{"id":"1i32DObCtut", "score":"0"}
