{"id":"A0hERd9aETG", "score":"1506323"}
{"id":"HvCQ5xY5Ts9", "score":"1405651"}
{"id":"BGKCNcL18Wp", "score":"1237357"}
{"id":"82qKCM2YJIb", "score":"985738"}
{"id":"9hfJTUf4usR", "score":"962760"}
{"id":"LmmMlQ1IISF", "score":"962268"}
{"id":"A9EtQAq6apZ", "score":"746794"}
{"id":"7TXTqzlVs2U", "score":"723124"}
{"id":"LmO73QMPDvO", "score":"562164"}
{"id":"4KJRXDqzjMn", "score":"556573"}
{"id":"HYTYFqG0D5b", "score":"541609"}
{"id":"96vIPI3InfP", "score":"499096"}
{"id":"9VPX8EuDGj6", "score":"494019"}
{"id":"EYiCVp4k4gD", "score":"462196"}
{"id":"8HYPAPBn6Hh", "score":"443382"}
{"id":"7NA61G6mISS", "score":"379022"}
{"id":"ExAePwA3X9z", "score":"370657"}
{"id":"7xOeQSXrVyX", "score":"340784"}
{"id":"A23OlaE94Tk", "score":"295689"}
{"id":"BCp7dVCJjGM", "score":"278821"}
{"id":"H0nfokPB0gF", "score":"267331"}
{"id":"46R95kv3ItS", "score":"263939"}
{"id":"3wEZ8AskYfh", "score":"262622"}
{"id":"IA6qDbxGBPe", "score":"252336"}
{"id":"7nr4wjt1GY9", "score":"234873"}
{"id":"6pvkU3WjkTc", "score":"214662"}
{"id":"3mx8k7K8Oxu", "score":"208511"}
{"id":"1bj5IfYfPBA", "score":"176075"}
{"id":"ENDl2SkuBqn", "score":"158836"}
{"id":"Ab7BIsM98zj", "score":"129596"}
{"id":"FaL8dgBUG0S", "score":"128237"}
{"id":"68pprJ606Ic", "score":"122583"}
{"id":"HOISFt6dON6", "score":"121300"}
{"id":"4Ryn602lpM1", "score":"119609"}
{"id":"KR0CNumCOve", "score":"88821"}
{"id":"BrBBQDvHITA", "score":"84882"}
{"id":"sVMn46zdUc", "score":"74281"}
{"id":"KfOMO45PXuq", "score":"73914"}
{"id":"J9gSfaHNB5M", "score":"72412"}
{"id":"6hyjivUP29d", "score":"71649"}
{"id":"7KhdsGlRL2c", "score":"68457"}
{"id":"jKXl0ft0VR", "score":"57392"}
{"id":"3LbFNpJTnFO", "score":"56425"}
{"id":"ASiyzPZaaRz", "score":"53598"}
{"id":"E6NkE0Ob29i", "score":"44960"}
{"id":"I5baQdzl4C3", "score":"44669"}
{"id":"FKKGTpouD53", "score":"39214"}
{"id":"40yIJCEJ9T9", "score":"36390"}
{"id":"GBZ0iSj6Sqs", "score":"34845"}
{"id":"4ixuZw0YnF1", "score":"32713"}
{"id":"KfJlYsqkbRP", "score":"31889"}
{"id":"748riZYQpry", "score":"29709"}
{"id":"3FLj3onfIAi", "score":"25623"}
{"id":"6Dlf7WzTskO", "score":"25025"}
{"id":"JU7wCfmXL34", "score":"23397"}
{"id":"NVPaH22qIv", "score":"21609"}
{"id":"GV6eoy8DETY", "score":"20493"}
{"id":"BrtGLOZwlLZ", "score":"19787"}
{"id":"KNmbEs1aQcP", "score":"18638"}
{"id":"HaAk0CqqBoC", "score":"18636"}
{"id":"7yskpmtK4Jf", "score":"16154"}
{"id":"ENeEKBE2aH0", "score":"15117"}
{"id":"EIjcS3OAQXc", "score":"15109"}
{"id":"5TwnZmBsCTk", "score":"13550"}
{"id":"ASR279DbwTe", "score":"12747"}
{"id":"5fn3FPb5wfG", "score":"12747"}
{"id":"I1FZ6IwuoGj", "score":"11484"}
{"id":"8XZEDc3Lz3c", "score":"10791"}
{"id":"9r2RlbQgJPR", "score":"10685"}
{"id":"HOv0gGUxj9e", "score":"10565"}
{"id":"6OQ8KM77sRY", "score":"9198"}
{"id":"7hnzF97duC6", "score":"8966"}
{"id":"6W5LJTTR7NQ", "score":"8954"}
{"id":"70Eo3fN7joS", "score":"7162"}
{"id":"Hpq6owQtGnd", "score":"6840"}
{"id":"KK17NwBfg2e", "score":"6210"}
{"id":"HL7rWCh9Mxm", "score":"5636"}
{"id":"GlOkLKYd27m", "score":"5187"}
{"id":"3DwJYisto3H", "score":"5115"}
{"id":"1ksO5yvbIlf", "score":"5051"}
{"id":"7aUBirwqLur", "score":"5041"}
{"id":"6mxREIulRlo", "score":"4940"}
{"id":"3js3iMsBC8r", "score":"4758"}
{"id":"1saYagh3c9U", "score":"4572"}
{"id":"D2R0PK5jpmT", "score":"3866"}
{"id":"2lrBrijm0yv", "score":"3730"}
{"id":"5oKq4bEDp2H", "score":"3499"}
{"id":"JeJ7kCbsaY5", "score":"3441"}
{"id":"J10mTRNmWX5", "score":"3432"}
{"id":"LIySbzyekQB", "score":"3426"}
{"id":"FFNGXj55CzO", "score":"3197"}
{"id":"1yXQNxkVgBQ", "score":"3193"}
{"id":"65XwumsUEa0", "score":"3168"}
{"id":"I5B0iwb8Mc6", "score":"2613"}
{"id":"3jum7QLUubw", "score":"2547"}
{"id":"3Vley5Lf16h", "score":"2519"}
{"id":"4ouIhpROzNE", "score":"2468"}
{"id":"JUn1gI48hXo", "score":"2086"}
{"id":"B0rUDM7IvIx", "score":"2073"}
{"id":"i96xjNSTeU", "score":"2029"}
{"id":"4sdjho8W0O6", "score":"1944"}
{"id":"724h7yUATVx", "score":"1939"}
{"id":"3AIL7L5hRzi", "score":"1914"}
{"id":"87F6mKP2Cdr", "score":"1878"}
{"id":"5YkuSu9pVEK", "score":"1843"}
{"id":"EpYAUr7OJGr", "score":"1747"}
{"id":"4kmE2FOynyf", "score":"1332"}
{"id":"K4qEzoMpsbT", "score":"1219"}
{"id":"GEILrX1Q10k", "score":"1179"}
{"id":"LCDlOVM4AA0", "score":"1174"}
{"id":"LEVC4Ncfuap", "score":"1146"}
{"id":"Eu06hTsyGLO", "score":"1104"}
{"id":"D3jYLFAl28Q", "score":"1038"}
{"id":"Fj3iCFgO4i3", "score":"998"}
{"id":"9bs9IB6DTq6", "score":"996"}
{"id":"8tZaye4FhHP", "score":"996"}
{"id":"82lxOtUn67Y", "score":"983"}
{"id":"IfNuXbHLMZY", "score":"958"}
{"id":"LnaeaKE2ZTA", "score":"952"}
{"id":"8PNlDK0lscV", "score":"952"}
{"id":"LsIUWxgUA4T", "score":"934"}
{"id":"6a5iM7pP0ZI", "score":"796"}
{"id":"2yiqZakCaDx", "score":"779"}
{"id":"user_9", "score":"1"}
{"id":"user_8", "score":"1"}
{"id":"user_7", "score":"1"}
{"id":"user_6", "score":"1"}
{"id":"user_5", "score":"1"}
{"id":"user_4", "score":"1"}
{"id":"user_3", "score":"1"}
{"id":"user_2", "score":"1"}
{"id":"user_10", "score":"1"}
{"id":"user_1", "score":"1"}
{"id":"vuU4TzQ1C5", "score":"0"}
{"id":"pjdBs9K8zw", "score":"0"}
{"id":"UUvd82a8Dj", "score":"0"}
{"id":"LjOtINy1DD9", "score":"0"}
{"id":"LA3uCB7R0ZA", "score":"0"}
{"id":"L2LdcTfVHFp", "score":"0"}
{"id":"Ki0d4IPJ6O8", "score":"0"}
{"id":"K473WwK35Ct", "score":"0"}
{"id":"GM0IIJTREvx", "score":"0"}
{"id":"FESrZgLeyQC", "score":"0"}
{"id":"Dq4xlvvcpOG", "score":"0"}
{"id":"CgrVev5Sp66", "score":"0"}
{"id":"CJdlsHOFKJG", "score":"0"}
{"id":"CEa2XcrA21y", "score":"0"}
{"id":"C6TpnlbSgw1", "score":"0"}
{"id":"BjQ3hHmVlgW", "score":"0"}
{"id":"BisYiFEUVfV", "score":"0"}
{"id":"BVFDpxLb5iK", "score":"0"}
{"id":"BMELzb9bvpr", "score":"0"}
{"id":"ALvseEvDLOZ", "score":"0"}
{"id":"ADjso7cgYq5", "score":"0"}
{"id":"4McoRvlTlqc", "score":"0"}
{"id":"49b5yLGHN46", "score":"0"}
{"id":"3ghkJco1V8N", "score":"0"}
{"id":"2w3EP3Yg9HS", "score":"0"}
{"id":"2QW04deCCWX", "score":"0"}
{"id":"1NQ9WbnW5kv", "score":"0"}
