{"id":"CFTLWXbQWeM", "score":"342798"}
{"id":"FB7Iqckm6oD", "score":"281962"}
{"id":"8WPFUM3EcFe", "score":"128045"}
{"id":"E0ZaMZroUWD", "score":"119115"}
{"id":"FqlaW2fHxdO", "score":"101461"}
{"id":"3pOniTujCDh", "score":"90885"}
{"id":"DifZzFCrZHl", "score":"86647"}
{"id":"2gSPzuGa7h9", "score":"85729"}
{"id":"Lya4maw9VnQ", "score":"76947"}
{"id":"IxlEJmvEJBc", "score":"76642"}
{"id":"LZREkUvAA78", "score":"74111"}
{"id":"EDW4GtjS0M8", "score":"66041"}
{"id":"BonWsPbseo4", "score":"61450"}
{"id":"BvqhCILZAwk", "score":"52248"}
{"id":"3roo9mZkQu8", "score":"51384"}
{"id":"Hqc5Uyy1rD5", "score":"49580"}
{"id":"7Tu8bCuQn0D", "score":"49056"}
{"id":"Em43euQJSE2", "score":"45068"}
{"id":"GlQc5q6NE1w", "score":"44612"}
{"id":"2UXwC8A9Btp", "score":"42991"}
{"id":"GRhHtFM7pFi", "score":"39109"}
{"id":"AzJgnnDUjKh", "score":"38076"}
{"id":"B35LES8JHRH", "score":"36731"}
{"id":"4T5RaGLjO7i", "score":"31241"}
{"id":"ED62ZTjU6LN", "score":"28257"}
{"id":"2ktkRIIIbUs", "score":"27404"}
{"id":"zCPS3gfnDu", "score":"26522"}
{"id":"GxbyxkFuo3h", "score":"23859"}
{"id":"gHfuutMZ0A", "score":"23505"}
{"id":"IMW4aCGcJBD", "score":"22059"}
{"id":"7XRnu94JuD3", "score":"20911"}
{"id":"DGOiGbPrMUF", "score":"20236"}
{"id":"43KCa4ueGx2", "score":"14881"}
{"id":"HfIIM7ItVTv", "score":"14805"}
{"id":"DOrslafcbUz", "score":"14749"}
{"id":"9QRqz7NITrC", "score":"14307"}
{"id":"AzFkEhNrJNu", "score":"11711"}
{"id":"LZSOxULVTdb", "score":"11520"}
{"id":"L4Q6sPdMrJ2", "score":"10834"}
{"id":"DYMmGtiZXsZ", "score":"10197"}
{"id":"LuIF3yTEWLZ", "score":"9925"}
{"id":"E4ZErqHnSeM", "score":"8745"}
{"id":"77sQ2sJj4Oq", "score":"8224"}
{"id":"4xrQuM0FCda", "score":"8197"}
{"id":"6yebtivOeL6", "score":"8074"}
{"id":"HraouskIB9c", "score":"7970"}
{"id":"2LFnqkqV0Gm", "score":"7641"}
{"id":"3iecWrGTko7", "score":"7533"}
{"id":"1Oee4uV5ST0", "score":"6548"}
{"id":"HoYqtQOZb0O", "score":"5643"}
{"id":"2fSIeFsu5lH", "score":"5490"}
{"id":"ADzf7F13Rmz", "score":"5424"}
{"id":"5sOVE7symmx", "score":"5323"}
{"id":"ITg85WoxvRm", "score":"5074"}
{"id":"ETtqxyIzZCn", "score":"4424"}
{"id":"9pwG681hWmN", "score":"4339"}
{"id":"ESmjBGwGeWh", "score":"4266"}
{"id":"7iyFkPervlb", "score":"3940"}
{"id":"CY4HGN1Kind", "score":"3320"}
{"id":"8JrQTTspYpm", "score":"3272"}
{"id":"G5pkmbuC2xm", "score":"3208"}
{"id":"DKnZ0ZUdlTV", "score":"3202"}
{"id":"2bMN9eFfO1k", "score":"3164"}
{"id":"B7pGWRjy2F5", "score":"3157"}
{"id":"10emI6tp3HS", "score":"3100"}
{"id":"1vGFSSEwOZX", "score":"3037"}
{"id":"1MeQRC0Qdkd", "score":"2857"}
{"id":"Iw2jhGcmpPc", "score":"2709"}
{"id":"BhP8fIZPdEh", "score":"2253"}
{"id":"J0D5wgLMud", "score":"2186"}
{"id":"K2xbVC8nyCj", "score":"2091"}
{"id":"AIhoNPlBg4r", "score":"1999"}
{"id":"BWILp3plVWB", "score":"1900"}
{"id":"54voAQFB1nB", "score":"1861"}
{"id":"HUvgihWdley", "score":"1732"}
{"id":"KdwNM5KVFyF", "score":"1593"}
{"id":"99i2no0hpph", "score":"1528"}
{"id":"8Lbuf4qLEcB", "score":"1489"}
{"id":"LpPJyrS5Djg", "score":"1475"}
{"id":"9YjU2P3EQbR", "score":"1377"}
{"id":"1kxd1ex9LRW", "score":"1301"}
{"id":"9g4xGgkxZk3", "score":"1170"}
{"id":"FarQ9kuXmTA", "score":"1124"}
{"id":"LS9qXezYAmI", "score":"1115"}
{"id":"6UtA7lSmeLO", "score":"1076"}
{"id":"Egavsz4fL2B", "score":"995"}
{"id":"2IYOj30anB1", "score":"991"}
{"id":"66IiBsjuSSu", "score":"977"}
{"id":"FY1G9QWpsvj", "score":"973"}
{"id":"FgijUcFp9Qy", "score":"953"}
{"id":"FDiMvOLBpXq", "score":"949"}
{"id":"Gl18jnhIQLQ", "score":"944"}
{"id":"BQXkvZ2U3Xq", "score":"943"}
{"id":"BGNutUZEvvw", "score":"913"}
{"id":"EzUIv2LFvJC", "score":"872"}
{"id":"4KCsi2Otm6Q", "score":"814"}
{"id":"A1P3ZjsV9WH", "score":"790"}
{"id":"8WCpPqGtJbn", "score":"753"}
{"id":"2s0fpehG30V", "score":"749"}
{"id":"DRi0qlMyfzC", "score":"707"}
{"id":"1VSTH6KVWKv", "score":"677"}
{"id":"CdvPeaL8DUO", "score":"612"}
{"id":"IufbfFnywFP", "score":"491"}
{"id":"GTrDXDMNLeX", "score":"478"}
{"id":"user_9", "score":"1"}
{"id":"user_8", "score":"1"}
{"id":"user_7", "score":"1"}
{"id":"user_6", "score":"1"}
{"id":"user_5", "score":"1"}
{"id":"user_4", "score":"1"}
{"id":"user_3", "score":"1"}
{"id":"user_2", "score":"1"}
{"id":"user_10", "score":"1"}
{"id":"user_1", "score":"1"}
{"id":"hq7xQu1xOw", "score":"0"}
{"id":"KlukXPxD2f0", "score":"0"}
{"id":"KSyn3kx9S2r", "score":"0"}
{"id":"JteMwzUeEFd", "score":"0"}
{"id":"J7c7b6EFe4L", "score":"0"}
{"id":"J4kdRDisvBZ", "score":"0"}
{"id":"J0o0Pifgwq0", "score":"0"}
{"id":"Ib2lmFl29Xd", "score":"0"}
{"id":"IR0bJOnK4wM", "score":"0"}
{"id":"IAxH7lrIrL3", "score":"0"}
{"id":"HnFOORMeiZV", "score":"0"}
{"id":"H2HWYsgNVHy", "score":"0"}
{"id":"Gy8gephY0fS", "score":"0"}
{"id":"GFM5ZtJ5idI", "score":"0"}
{"id":"FJu2XzfD8W6", "score":"0"}
{"id":"EW53if6HRLQ", "score":"0"}
{"id":"E7fsIkLnAAG", "score":"0"}
{"id":"E1vl4eGWauQ", "score":"0"}
{"id":"DyI7K9QwG7w", "score":"0"}
{"id":"CqkUArRZQQy", "score":"0"}
{"id":"Cotiw59ioy9", "score":"0"}
{"id":"CkcBTKrApJK", "score":"0"}
{"id":"BM2LBRXrUpz", "score":"0"}
{"id":"BG5ZOVvLNhl", "score":"0"}
{"id":"AnBtp1TxrkP", "score":"0"}
{"id":"Alp7fKS64zk", "score":"0"}
{"id":"AhMah9K429k", "score":"0"}
{"id":"AhGamBfuF2O", "score":"0"}
{"id":"AZR1Q5CpHe", "score":"0"}
{"id":"AI0S6gCtKA7", "score":"0"}
{"id":"9Tqdg0iUYbV", "score":"0"}
{"id":"9K4esIE92SH", "score":"0"}
{"id":"8JBxSNjPpEe", "score":"0"}
{"id":"7v8YXsDz1Y", "score":"0"}
{"id":"7sqNfC96bv", "score":"0"}
{"id":"7ILygyTl4lU", "score":"0"}
{"id":"6skEO7H8G5I", "score":"0"}
{"id":"6XulpGDNgWh", "score":"0"}
{"id":"6KE2UNDs5dJ", "score":"0"}
{"id":"5LjLqiVByRi", "score":"0"}
{"id":"4VCtpeGv5lU", "score":"0"}
{"id":"4T0dPlCvhjw", "score":"0"}
{"id":"42fEwJeWCWI", "score":"0"}
{"id":"3pZHOr6a77W", "score":"0"}
{"id":"33C1cXgeKUU", "score":"0"}
{"id":"2Z4WYr2GypI", "score":"0"}
