{"id":"62g5fcWmJAO", "score":"53288"}
{"id":"JYyzO6pHm68", "score":"22294"}
{"id":"q95aB62sFg", "score":"13062"}
{"id":"KGPqugcPdEu", "score":"10481"}
{"id":"7Ecdm9RALWn", "score":"10414"}
{"id":"LOUrwf7sALU", "score":"10128"}
{"id":"BhDDyGQ4wqW", "score":"9353"}
{"id":"AycFIPinrjS", "score":"8228"}
{"id":"EoVOnffKTi3", "score":"7799"}
{"id":"EimzY2gawrj", "score":"7695"}
{"id":"CCE4Qo5buM9", "score":"7187"}
{"id":"5xC187dnjCQ", "score":"6950"}
{"id":"HSujrwc4AyC", "score":"5859"}
{"id":"KuWX4hoV0R1", "score":"5174"}
{"id":"Di3A9C1xBYQ", "score":"5043"}
{"id":"8rAfbhYB0y4", "score":"4994"}
{"id":"616mwYw8lfH", "score":"4954"}
{"id":"2qesrFQtTz", "score":"4563"}
{"id":"12zsKMQmbRL", "score":"4480"}
{"id":"DS5sLca8bZH", "score":"3594"}
{"id":"ABlhudxBSFl", "score":"3587"}
{"id":"HFVrizeak6T", "score":"2856"}
{"id":"DJFmcYHdhyh", "score":"2724"}
{"id":"984s2AxxAO8", "score":"2528"}
{"id":"ETt0zJlQEXi", "score":"2489"}
{"id":"3omnCWeK0Lr", "score":"2384"}
{"id":"HxwZBILMA04", "score":"2327"}
{"id":"INiXBYiouw0", "score":"2326"}
{"id":"IwDC5ORumf7", "score":"2272"}
{"id":"1cmWRP5tJjo", "score":"2025"}
{"id":"2S98H056Elw", "score":"2020"}
{"id":"1P1oUHJ5qjR", "score":"2008"}
{"id":"40CwvjDWo2x", "score":"1978"}
{"id":"3LvtDgm6jSb", "score":"1964"}
{"id":"BuYuz6LjpKy", "score":"1864"}
{"id":"4ihiRywsxFS", "score":"1858"}
{"id":"FC309LKmK2C", "score":"1840"}
{"id":"HTxgAgPBgWI", "score":"1768"}
{"id":"FPMThVsUcjh", "score":"1759"}
{"id":"GvYOb2ieeAr", "score":"1753"}
{"id":"6Doy12VsK36", "score":"1736"}
{"id":"9lGtzfZjRzp", "score":"1725"}
{"id":"9id8IUEMq8z", "score":"1672"}
{"id":"KJZOhmpjEau", "score":"1625"}
{"id":"4BJnr2J21ha", "score":"1621"}
{"id":"9qVR0Rydhfv", "score":"1470"}
{"id":"ABXSfY3kOA3", "score":"1434"}
{"id":"J2aWYHHQLK1", "score":"1364"}
{"id":"8P1UWbgf4Ru", "score":"1362"}
{"id":"2OPxm3Od7MP", "score":"1324"}
{"id":"9fhgEG8IZoX", "score":"1231"}
{"id":"5SxZeE6n8Zy", "score":"1224"}
{"id":"LiF65eNQk4w", "score":"1186"}
{"id":"C1Vst2l8oqp", "score":"1186"}
{"id":"KbyeiK4Vegr", "score":"1150"}
{"id":"JL1QmpUhe3A", "score":"1147"}
{"id":"HonhskxzZ7R", "score":"1139"}
{"id":"Goef4Xe4MAo", "score":"1090"}
{"id":"Wm617Zq3Qi", "score":"1030"}
{"id":"1Z93X6bwehH", "score":"1030"}
{"id":"JwrcpKjRtPe", "score":"1019"}
{"id":"AdsH8dfwtZR", "score":"993"}
{"id":"1GWVuKRzsFh", "score":"984"}
{"id":"FVYmLE3L7Xr", "score":"970"}
{"id":"8taYLLBhjyM", "score":"968"}
{"id":"9gEIKdNCbgH", "score":"965"}
{"id":"LNitv4qI9yZ", "score":"957"}
{"id":"J35FAJEZMSs", "score":"948"}
{"id":"9Ie0lfSu1MQ", "score":"948"}
{"id":"BgCPBWTzElM", "score":"943"}
{"id":"2jPc1LQKRHY", "score":"930"}
{"id":"5Umq3UvrPeD", "score":"928"}
{"id":"FRILVuF2WpF", "score":"923"}
{"id":"KtYwfnBUr5i", "score":"915"}
{"id":"FgygQEs8KUv", "score":"915"}
{"id":"6Fk4HKQx6SD", "score":"914"}
{"id":"IiWXGxXlqBD", "score":"898"}
{"id":"BvRqh7OnF61", "score":"859"}
{"id":"75iw0bqq9t9", "score":"827"}
{"id":"9TxmPyy63Ij", "score":"785"}
{"id":"IySpjVGJ68k", "score":"734"}
{"id":"fg48Yj40U4", "score":"730"}
{"id":"3qI3VZlkK1F", "score":"713"}
{"id":"Ln8NKbNwmmQ", "score":"698"}
{"id":"J0Y4RCn8qvv", "score":"698"}
{"id":"EMxIgfEYSc0", "score":"682"}
{"id":"A4PcRDFxW8G", "score":"616"}
{"id":"1NK5SJwS5ny", "score":"528"}
{"id":"7FKEyeyWE3W", "score":"522"}
{"id":"Ezkh16xUSK1", "score":"501"}
{"id":"77BgYfiGlkL", "score":"480"}
{"id":"1bZ30q03HKS", "score":"477"}
{"id":"7W5Tk9dvkSI", "score":"470"}
{"id":"9Lglk6NaOqf", "score":"460"}
{"id":"8S2dkhzx7le", "score":"459"}
{"id":"KpWoyrPb8x2", "score":"431"}
{"id":"3GvBeXIj7NS", "score":"366"}
{"id":"7DMt1ImIw2N", "score":"306"}
{"id":"user_9", "score":"1"}
{"id":"user_8", "score":"1"}
{"id":"user_7", "score":"1"}
{"id":"user_6", "score":"1"}
{"id":"user_5", "score":"1"}
{"id":"user_4", "score":"1"}
{"id":"user_3", "score":"1"}
{"id":"user_2", "score":"1"}
{"id":"user_10", "score":"1"}
{"id":"user_1", "score":"1"}
{"id":"Kyvw1hCdziw", "score":"0"}
{"id":"JpyfY4tsOEF", "score":"0"}
{"id":"ITweKN9n5mA", "score":"0"}
{"id":"H9EG8SY77KY", "score":"0"}
{"id":"H0sJgQwRPl", "score":"0"}
{"id":"GudYPRuy7So", "score":"0"}
{"id":"Gc1EESi2Wlc", "score":"0"}
{"id":"GRs2zs8CFCl", "score":"0"}
{"id":"GN5Xu5ulThz", "score":"0"}
{"id":"GBVVwqqcNl1", "score":"0"}
{"id":"G0xzvmOIklp", "score":"0"}
{"id":"F1aghzgJkBq", "score":"0"}
{"id":"Ez2GPkZzUh5", "score":"0"}
{"id":"EyfsVTtoUos", "score":"0"}
{"id":"EKPNQOO9JmO", "score":"0"}
{"id":"EGkl8jiFtoI", "score":"0"}
{"id":"EDIUougCFEI", "score":"0"}
{"id":"CuABJC83MLz", "score":"0"}
{"id":"Bb5QCHREq5g", "score":"0"}
{"id":"98EaeEC4d4d", "score":"0"}
{"id":"7jqlLK2BAbJ", "score":"0"}
{"id":"7I8W6fB4s7u", "score":"0"}
{"id":"6JzDT7iYDAE", "score":"0"}
{"id":"6G72wjX49YK", "score":"0"}
{"id":"6EPz4OmcpHU", "score":"0"}
{"id":"5u7GiImmF6Z", "score":"0"}
{"id":"5mqC5Un77vU", "score":"0"}
{"id":"4Xbez1aJpfq", "score":"0"}
{"id":"3DOd46gFoUZ", "score":"0"}
{"id":"22OYtNgPVcD", "score":"0"}
{"id":"204xnWeBJ45", "score":"0"}
{"id":"1JypR8WvVS5", "score":"0"}
