{"id":"ByhstYDIXrq", "score":"103521"}
{"id":"8nkTp2iZGrk", "score":"66550"}
{"id":"L2BIJsGkPG0", "score":"62402"}
{"id":"8TpTq7sYeU9", "score":"52382"}
{"id":"Dx2PkYnrZaX", "score":"44046"}
{"id":"5nifRpy7Kmw", "score":"41169"}
{"id":"3HG87pJ5unr", "score":"40369"}
{"id":"LFoYavEy8tW", "score":"38838"}
{"id":"1K8mhnF1tes", "score":"36790"}
{"id":"EMFdgHIQoYw", "score":"31049"}
{"id":"9nY822jb9ra", "score":"24489"}
{"id":"D1SlZb9RVxw", "score":"23403"}
{"id":"7Z2NnuAJ4fy", "score":"21027"}
{"id":"57BtsX3hERB", "score":"10113"}
{"id":"8iIBDgn6nBC", "score":"9454"}
{"id":"DtV7Yp13qqA", "score":"8664"}
{"id":"kLfIxRg5mj", "score":"7598"}
{"id":"EevQR8J3ug3", "score":"6814"}
{"id":"7mWEfybzc1t", "score":"6464"}
{"id":"LAucKqTuJXg", "score":"5153"}
{"id":"CATU4JdovtU", "score":"5153"}
{"id":"KqzRBEtrLjY", "score":"4964"}
{"id":"G32VOj8oyuT", "score":"4673"}
{"id":"AWJHX74N9p2", "score":"4664"}
{"id":"Jf76ojkaE4I", "score":"4361"}
{"id":"DH9cOyLbQnA", "score":"4314"}
{"id":"CQasVRJzEjk", "score":"4268"}
{"id":"5QnouKY7DIi", "score":"4201"}
{"id":"5bhjVJmGcvm", "score":"3631"}
{"id":"Fax67Ia2WCB", "score":"3524"}
{"id":"4BPcz7SvMY5", "score":"3422"}
{"id":"EdELoLcy6bM", "score":"3302"}
{"id":"9BzfVdq7dBa", "score":"3279"}
{"id":"4FOO8TQyxhu", "score":"3275"}
{"id":"2buLQ4wQMFy", "score":"3226"}
{"id":"Le8YuYoQoAg", "score":"3160"}
{"id":"AOUqldoZueG", "score":"3085"}
{"id":"JFlVdAD2OU5", "score":"3043"}
{"id":"FyAWKKsuIFq", "score":"2922"}
{"id":"9go4TyZEWMg", "score":"2881"}
{"id":"EOHOlzjaSQo", "score":"2645"}
{"id":"CMhmwsY7Ts8", "score":"2554"}
{"id":"4gWrf9xJ9sy", "score":"2519"}
{"id":"5oYECDawSCr", "score":"2428"}
{"id":"HOorGfnt7ey", "score":"2256"}
{"id":"6Z2JSvQo2iy", "score":"2010"}
{"id":"HVJTZRqf6or", "score":"1973"}
{"id":"KZTZG8Ntktg", "score":"1928"}
{"id":"KqvBIfSD5l1", "score":"1907"}
{"id":"1osCoziA4H5", "score":"1867"}
{"id":"G0rWAy56jiQ", "score":"1824"}
{"id":"IJXyPk8HLQV", "score":"1796"}
{"id":"7HSOFxg6pAh", "score":"1739"}
{"id":"1ve842gSQzI", "score":"1692"}
{"id":"Ek4yZi4gh8x", "score":"1678"}
{"id":"LiRNwTKoOtN", "score":"1666"}
{"id":"JHZVE7KA25x", "score":"1661"}
{"id":"3EJmgsrz4Th", "score":"1649"}
{"id":"7vwosFMCn0r", "score":"1371"}
{"id":"AJEp0WWqeMu", "score":"1287"}
{"id":"5iq25zKbrb3", "score":"1244"}
{"id":"94I50I89wdu", "score":"1083"}
{"id":"5QZc7iNEHtH", "score":"1080"}
{"id":"4jHEV1ERdgS", "score":"1008"}
{"id":"DxwyEoaHSlQ", "score":"1003"}
{"id":"1z0qgDDc7Ye", "score":"996"}
{"id":"1oZ2y8GyT0k", "score":"996"}
{"id":"77ZSo1vyTos", "score":"983"}
{"id":"ION0tHp7ocE", "score":"982"}
{"id":"LXiTGu8kZDu", "score":"968"}
{"id":"EuUCmcejK1S", "score":"964"}
{"id":"DDixDPzxjCX", "score":"956"}
{"id":"J3iTv0l8vft", "score":"955"}
{"id":"CjAK5hyDUbI", "score":"954"}
{"id":"Al3H74Vamgk", "score":"949"}
{"id":"InS6QDKhyxq", "score":"910"}
{"id":"3ZyZ29QOL36", "score":"859"}
{"id":"36Ek1epFF0w", "score":"852"}
{"id":"CNlSRqfMfEz", "score":"811"}
{"id":"DnLKFc4SMYC", "score":"738"}
{"id":"FamPQLye7wT", "score":"691"}
{"id":"5bWM9MZIGTu", "score":"667"}
{"id":"GwSMrEko583", "score":"607"}
{"id":"6rWfsC14pxg", "score":"502"}
{"id":"DbnY4Qo8xsu", "score":"493"}
{"id":"AoM3pMeqXDV", "score":"456"}
{"id":"CSuPEq2I8gi", "score":"454"}
{"id":"7PTlO3LHzB6", "score":"440"}
{"id":"Kgtnb9CZ9KD", "score":"420"}
{"id":"32OTGxp6rdK", "score":"386"}
{"id":"Ep6hwloNUr5", "score":"377"}
{"id":"user_9", "score":"1"}
{"id":"user_8", "score":"1"}
{"id":"user_7", "score":"1"}
{"id":"user_6", "score":"1"}
{"id":"user_5", "score":"1"}
{"id":"user_4", "score":"1"}
{"id":"user_3", "score":"1"}
{"id":"user_2", "score":"1"}
{"id":"user_10", "score":"1"}
{"id":"user_1", "score":"1"}
{"id":"KwW4oCiHU9Q", "score":"0"}
{"id":"KUjRPUxQDq", "score":"0"}
{"id":"JbfDGWU4DaW", "score":"0"}
{"id":"JNMMxXYFtry", "score":"0"}
{"id":"J1UbzOmszrU", "score":"0"}
{"id":"IVmc7NJ5fv2", "score":"0"}
{"id":"IUxjTutb686", "score":"0"}
{"id":"HWtFmyvqThZ", "score":"0"}
{"id":"HTS8pe7Fbqh", "score":"0"}
{"id":"FafawNjF8NI", "score":"0"}
{"id":"FI9q0cCd1bM", "score":"0"}
{"id":"Ebnf4CNTvSv", "score":"0"}
{"id":"EPM8ttmP3gK", "score":"0"}
{"id":"Dtn8YasuZod", "score":"0"}
{"id":"Dme4Y0TVIrm", "score":"0"}
{"id":"DaQBF6C0XXn", "score":"0"}
{"id":"D7b3HNhxBYA", "score":"0"}
{"id":"CyFhim91AFT", "score":"0"}
{"id":"C5Sp1y6UJQs", "score":"0"}
{"id":"C13Fyd8jwXF", "score":"0"}
{"id":"AjhG2C2qGJ5", "score":"0"}
{"id":"AWzUbQ42yvR", "score":"0"}
{"id":"9py80rTVM3p", "score":"0"}
{"id":"9nbGIxoBaED", "score":"0"}
{"id":"9MphFH8e4Jt", "score":"0"}
{"id":"85QQxD8nwdF", "score":"0"}
{"id":"7lNWBJPbnjg", "score":"0"}
{"id":"70QeHaknALs", "score":"0"}
{"id":"6GYjrVv3tsc", "score":"0"}
{"id":"5LSKIDblDg1", "score":"0"}
{"id":"5IDwcsw983q", "score":"0"}
{"id":"5FDW10Udu0G", "score":"0"}
{"id":"4boEinHIlup", "score":"0"}
{"id":"3rVjLKkGbkO", "score":"0"}
{"id":"3KK8dmSiqCy", "score":"0"}
{"id":"1quB5JXYmL6", "score":"0"}
{"id":"1beyF3HW7jB", "score":"0"}
{"id":"1QydKZWJXd7", "score":"0"}
{"id":"1Ga0DgU8Ijc", "score":"0"}
