{"id":"8moXaOs3BTL", "score":"58470"}
{"id":"Loghen0qLTJ", "score":"34254"}
{"id":"3g90J4ckIGJ", "score":"28803"}
{"id":"2VS7kpWVegB", "score":"25435"}
{"id":"FVvFwwUoA1t", "score":"22020"}
{"id":"J3L68Kc1bzE", "score":"15290"}
{"id":"3WdeJbcI8dF", "score":"13915"}
{"id":"8SmydzVGmZl", "score":"13151"}
{"id":"FL8LYlunLWQ", "score":"12809"}
{"id":"9kcOJXMKGmY", "score":"11179"}
{"id":"2FcXIWiAMBt", "score":"10690"}
{"id":"IQ8tK0q7km7", "score":"9909"}
{"id":"6RX2uZ3sQRD", "score":"8854"}
{"id":"J1gI2orIqra", "score":"8824"}
{"id":"HD8by6MjNMZ", "score":"8469"}
{"id":"LMoHeEpnZk0", "score":"8249"}
{"id":"LBNs9On9GMh", "score":"8111"}
{"id":"HLpEk9rNPzP", "score":"8063"}
{"id":"6AUQnMLpvzx", "score":"8055"}
{"id":"8nYrKIzgqiM", "score":"7915"}
{"id":"1kj2IkKvatt", "score":"7521"}
{"id":"BqbSD4olFSp", "score":"7356"}
{"id":"DGICZ9MUyNF", "score":"7012"}
{"id":"GAN5rNPujT", "score":"6790"}
{"id":"AKDyFgDU6yz", "score":"6196"}
{"id":"1xb6A9e45Xf", "score":"6190"}
{"id":"IPZlKZkoHMn", "score":"5924"}
{"id":"GyRmDt4k1cw", "score":"5535"}
{"id":"CgWjpCBW830", "score":"5454"}
{"id":"H6GKOEhHd5U", "score":"4623"}
{"id":"8EY4YCfd5bI", "score":"4580"}
{"id":"7pHoFTetPoO", "score":"4563"}
{"id":"1rMTZGdJg5c", "score":"4546"}
{"id":"7P8xYlm6J8p", "score":"4336"}
{"id":"Bnfl8E3TRkX", "score":"4248"}
{"id":"CI7EW43RjoP", "score":"3857"}
{"id":"9APtXJVsiV7", "score":"3157"}
{"id":"605x587ntr6", "score":"3047"}
{"id":"F7gyRRSyCuo", "score":"3000"}
{"id":"FP75zw5Fauj", "score":"2846"}
{"id":"LOJLvE3sgyO", "score":"2730"}
{"id":"4dDJ61fGCgP", "score":"2721"}
{"id":"FtTsZD6GG5g", "score":"2632"}
{"id":"3ftxUUi4a8d", "score":"2397"}
{"id":"6S60JPA1nkb", "score":"2196"}
{"id":"4nrkT7XiPlD", "score":"2175"}
{"id":"LjhOciUWzLl", "score":"2077"}
{"id":"LRUvhLGdbEv", "score":"2065"}
{"id":"qmFdxwVLWZ", "score":"2014"}
{"id":"AgIMYQJqTFY", "score":"1956"}
{"id":"4DeUKAKWt22", "score":"1949"}
{"id":"CMfoZWTsGph", "score":"1930"}
{"id":"4m65vUiq3Zm", "score":"1901"}
{"id":"9vDhfkY6WQw", "score":"1886"}
{"id":"LA8IDXK9h1Z", "score":"1883"}
{"id":"5vvARKUuecE", "score":"1846"}
{"id":"K0oDKUGmUOL", "score":"1840"}
{"id":"FhzSnIZDFGz", "score":"1477"}
{"id":"tcPjmMXGtP", "score":"1412"}
{"id":"C2dgOSuCbuf", "score":"1257"}
{"id":"3hnrrHDrb7T", "score":"1215"}
{"id":"5ydjYaOnAoS", "score":"1126"}
{"id":"1VDDKeOrgMp", "score":"1032"}
{"id":"ASuS3nufg60", "score":"1015"}
{"id":"wF61hBml8Z", "score":"1011"}
{"id":"2GY3oHqIP8I", "score":"1010"}
{"id":"2I9WpCwABwJ", "score":"1001"}
{"id":"BoVMEYCM8Fy", "score":"980"}
{"id":"32Y7ZS3I2fQ", "score":"980"}
{"id":"GnSYnpYR5Wi", "score":"970"}
{"id":"GHAImDyOLbv", "score":"964"}
{"id":"uAaHrTPy2T", "score":"954"}
{"id":"9DcpDciQT8h", "score":"948"}
{"id":"DHaRvWWmlLX", "score":"936"}
{"id":"9BpVPf3LGZO", "score":"930"}
{"id":"JkfqLv36Jo8", "score":"916"}
{"id":"HC0QRlVFkQw", "score":"864"}
{"id":"DatRHX9bEe2", "score":"819"}
{"id":"50GKbFw5F6j", "score":"707"}
{"id":"6rNXpifn1K6", "score":"698"}
{"id":"AJWTGapo1l8", "score":"547"}
{"id":"IRPPMKs5UW1", "score":"510"}
{"id":"HtLrnLUL3aJ", "score":"468"}
{"id":"BYQQ8rx88o3", "score":"463"}
{"id":"79egpGhKUp", "score":"456"}
{"id":"G84ooGycAfc", "score":"452"}
{"id":"EtVrX2mWAvA", "score":"443"}
{"id":"6L9cfXqOVWP", "score":"423"}
{"id":"BIIVzcmQdMG", "score":"409"}
{"id":"LeEOqhyNOlE", "score":"390"}
{"id":"5apSC7hEPvU", "score":"315"}
{"id":"user_9", "score":"1"}
{"id":"user_8", "score":"1"}
{"id":"user_7", "score":"1"}
{"id":"user_6", "score":"1"}
{"id":"user_5", "score":"1"}
{"id":"user_4", "score":"1"}
{"id":"user_3", "score":"1"}
{"id":"user_2", "score":"1"}
{"id":"user_10", "score":"1"}
{"id":"user_1", "score":"1"}
{"id":"LwyNF84eX6e", "score":"0"}
{"id":"LssnZ1gEGDp", "score":"0"}
{"id":"Kf0AAkZtO", "score":"0"}
{"id":"JrADN9qw1I8", "score":"0"}
{"id":"JQhXm2IpCld", "score":"0"}
{"id":"JHubhRwkrc4", "score":"0"}
{"id":"J5CADhPyWed", "score":"0"}
{"id":"HmOXjGVKbxZ", "score":"0"}
{"id":"HEoM0cpXv7Y", "score":"0"}
{"id":"GxlFKbrZAaC", "score":"0"}
{"id":"G8k7RWJxhri", "score":"0"}
{"id":"FkKYKp3q7P1", "score":"0"}
{"id":"FKXcAaFMgGi", "score":"0"}
{"id":"Efgxb8BWnKv", "score":"0"}
{"id":"Cxson6wnWqW", "score":"0"}
{"id":"Crx7mQUWPyl", "score":"0"}
{"id":"C0q4Y1jMhzP", "score":"0"}
{"id":"BO9upPVgXiB", "score":"0"}
{"id":"BMo3JPXbhnT", "score":"0"}
{"id":"BAzjgp7wYFH", "score":"0"}
{"id":"ApA6RZAgy1L", "score":"0"}
{"id":"Ab5OytA7ihA", "score":"0"}
{"id":"A4ORlYmQeUK", "score":"0"}
{"id":"9hVu0N98bqH", "score":"0"}
{"id":"7rdOWRMnGJX", "score":"0"}
{"id":"7n0sxh0Ay6y", "score":"0"}
{"id":"7TYYQv08DjV", "score":"0"}
{"id":"7JmsKMlBFSj", "score":"0"}
{"id":"6Eg0f2bXghQ", "score":"0"}
{"id":"5PSKQ0hd497", "score":"0"}
{"id":"5AOYtACVX3H", "score":"0"}
{"id":"52fULrEdd4u", "score":"0"}
{"id":"4jF5aHg11iZ", "score":"0"}
{"id":"4e6ceh7n4sL", "score":"0"}
{"id":"4UGzIzOysdi", "score":"0"}
{"id":"4Fkz8sbdugJ", "score":"0"}
{"id":"27k2OjDmvDL", "score":"0"}
{"id":"1utHXR9EQLU", "score":"0"}
{"id":"1beIwnExXzj", "score":"0"}
