{"id":"2J9dgVaQWFU", "score":"295735"}
{"id":"LzUXZZ5Z9G", "score":"264809"}
{"id":"1qhLz8d7Dg4", "score":"250898"}
{"id":"LnnYrUzouWG", "score":"161755"}
{"id":"Lb0cFTqObI7", "score":"160240"}
{"id":"6VOlgEyNVq6", "score":"132715"}
{"id":"EsTNkYA0jJE", "score":"131473"}
{"id":"1Ck9OCLBTHG", "score":"128574"}
{"id":"Dnw1jUM5POz", "score":"124577"}
{"id":"Kfcqo1FqDl6", "score":"116979"}
{"id":"BeFCQtxPRuM", "score":"106152"}
{"id":"8B8XcSVliTd", "score":"99158"}
{"id":"CJLplZxN5dx", "score":"99094"}
{"id":"IVEiiHiiycB", "score":"85644"}
{"id":"Ah6t0zFJVET", "score":"84086"}
{"id":"8AeZolNvpcm", "score":"75018"}
{"id":"LSqgv6NpKsU", "score":"74056"}
{"id":"19HHvCtuZQt", "score":"73928"}
{"id":"4TqlIvrjEo5", "score":"72458"}
{"id":"BHAXQ5Ev2HK", "score":"71813"}
{"id":"2mRcNrg4csO", "score":"69407"}
{"id":"B9QG9MOn3Xh", "score":"69297"}
{"id":"7zLByQB8pBQ", "score":"66062"}
{"id":"K9GehR2YA4m", "score":"65048"}
{"id":"Bkemr7wz6AO", "score":"64756"}
{"id":"7cTzHGjgBvZ", "score":"64190"}
{"id":"4ThW6BAzh3b", "score":"61664"}
{"id":"6kBZfcfPmIT", "score":"59820"}
{"id":"AkZj800mRfJ", "score":"56303"}
{"id":"1AyxGxRVXj2", "score":"55987"}
{"id":"7O1MPYPnWtV", "score":"55338"}
{"id":"ACVlIEqvjYv", "score":"51308"}
{"id":"LAU3r1xfZIP", "score":"50565"}
{"id":"5JbOBTjtbVj", "score":"48410"}
{"id":"Iu9gPcurxPg", "score":"44089"}
{"id":"LxQH7Dp4WTR", "score":"42674"}
{"id":"HGNj5rbhQnv", "score":"39919"}
{"id":"1kCFhuROcC9", "score":"32796"}
{"id":"GPPIXF8aUBG", "score":"32191"}
{"id":"J4gvaveHu9i", "score":"31999"}
{"id":"8yALAzDpLod", "score":"28214"}
{"id":"GxMwjrezRK3", "score":"27604"}
{"id":"9FCS0AuQVkF", "score":"26442"}
{"id":"5OyeMkasJe3", "score":"26317"}
{"id":"8LsgD0gcU0p", "score":"25811"}
{"id":"3AbAq5v2zSd", "score":"24844"}
{"id":"4YTkp0d1klM", "score":"23860"}
{"id":"1nbEyPw95TD", "score":"21849"}
{"id":"HfE1dlEyTBK", "score":"21329"}
{"id":"AgDtBzlkcrM", "score":"18939"}
{"id":"A9rHcpz8kdZ", "score":"17106"}
{"id":"JemcBZKEkCN", "score":"16315"}
{"id":"JlKz1TflXYd", "score":"15768"}
{"id":"4lFN0v2vhsa", "score":"14835"}
{"id":"1bXwOlZzhj", "score":"12657"}
{"id":"5bKZUDzXKA3", "score":"11906"}
{"id":"KDgv19SIVBb", "score":"11850"}
{"id":"5LRVz1ynRhl", "score":"10989"}
{"id":"J7fLKXkol91", "score":"10984"}
{"id":"DCv1BOiYlNv", "score":"10120"}
{"id":"IynAMWhlC3h", "score":"8338"}
{"id":"HpGllF2CIDK", "score":"8242"}
{"id":"KUG64JbaUGT", "score":"7963"}
{"id":"6d8Y0UcsTcT", "score":"7094"}
{"id":"HjxZmJNB1gY", "score":"6784"}
{"id":"Khu9SSDgySn", "score":"6705"}
{"id":"Fk0tJJRPBND", "score":"6653"}
{"id":"Jmeeyo2ylM3", "score":"6471"}
{"id":"4fTiaXXsFZG", "score":"6302"}
{"id":"11iBw0lR9Tz", "score":"5717"}
{"id":"HYarJGntgNo", "score":"5086"}
{"id":"KJvLKEKR8BO", "score":"5027"}
{"id":"5mEzBxJogPS", "score":"4523"}
{"id":"GQpGVik3AW6", "score":"4339"}
{"id":"DtuAS3VXZVo", "score":"4273"}
{"id":"I2rlBSn21Ca", "score":"3588"}
{"id":"KM064m8pLTx", "score":"3544"}
{"id":"25C9znNeErV", "score":"3470"}
{"id":"LxPx8OKeNPg", "score":"3183"}
{"id":"AMXEuuf5lV2", "score":"2636"}
{"id":"C87nsf2aAU6", "score":"2632"}
{"id":"GjrtB0f1Ool", "score":"2296"}
{"id":"7Kq5Ik0oyhP", "score":"1990"}
{"id":"Eg6dJAeD1Rk", "score":"1975"}
{"id":"8Vyf4sbJHmE", "score":"1946"}
{"id":"JDwc6KIX8YK", "score":"1731"}
{"id":"DEaQM69DZlH", "score":"1705"}
{"id":"GQMe8ZGBLMO", "score":"1652"}
{"id":"5xSsKAK4Dvt", "score":"1560"}
{"id":"DXu8c0WQgKJ", "score":"1494"}
{"id":"8ZNY8oD9uwr", "score":"1179"}
{"id":"3DmzpHAulAL", "score":"1077"}
{"id":"8xsjSalPDyb", "score":"1034"}
{"id":"AzQMhbqKnCx", "score":"1020"}
{"id":"9eLkQZgU0xl", "score":"1016"}
{"id":"2UMfapohKR", "score":"1010"}
{"id":"6OVHMOBpGaR", "score":"1002"}
{"id":"5k6ehq0jNaS", "score":"993"}
{"id":"KQSWWUPyoaA", "score":"988"}
{"id":"L0jr0aS50G7", "score":"976"}
{"id":"4nLRiQkAtRm", "score":"951"}
{"id":"2rrTyjPUJ25", "score":"894"}
{"id":"HsRnhb4tBmS", "score":"766"}
{"id":"AKV7MB4dhUT", "score":"743"}
{"id":"AOP1PUqfPZW", "score":"554"}
{"id":"KnpYCNVAX3I", "score":"433"}
{"id":"2zJpyZoGBrS", "score":"410"}
{"id":"user_9", "score":"1"}
{"id":"user_8", "score":"1"}
{"id":"user_7", "score":"1"}
{"id":"user_6", "score":"1"}
{"id":"user_5", "score":"1"}
{"id":"user_4", "score":"1"}
{"id":"user_3", "score":"1"}
{"id":"user_2", "score":"1"}
{"id":"user_10", "score":"1"}
{"id":"user_1", "score":"1"}
{"id":"LqgJDgFdq2h", "score":"0"}
{"id":"Ke3XgCW0fXu", "score":"0"}
{"id":"KZFmYn3fsIe", "score":"0"}
{"id":"JbqMnEm6uwc", "score":"0"}
{"id":"JSveVh1S5ZF", "score":"0"}
{"id":"I0KdzhOCTzP", "score":"0"}
{"id":"HPbikWgMjYz", "score":"0"}
{"id":"Gv2YXMY4VIg", "score":"0"}
{"id":"Gt0ijdzULkG", "score":"0"}
{"id":"G6sdqCtFTdn", "score":"0"}
{"id":"FaJI686JiIy", "score":"0"}
{"id":"EdaxtGIoPMP", "score":"0"}
{"id":"EHz7pqXanHY", "score":"0"}
{"id":"D1a4bd7rU6Y", "score":"0"}
{"id":"CkAbu9fC9J", "score":"0"}
{"id":"BfrwltAV2PD", "score":"0"}
{"id":"Be7QoEYaUNP", "score":"0"}
{"id":"B3IvmpiirCI", "score":"0"}
{"id":"B105Ij0OvqL", "score":"0"}
{"id":"AgYDG5A92NN", "score":"0"}
{"id":"AINXDOLuiKS", "score":"0"}
{"id":"9xjtiPqLNcy", "score":"0"}
{"id":"9O4dPFABcXd", "score":"0"}
{"id":"8w3Li4txBvm", "score":"0"}
{"id":"6McA5mqOmCi", "score":"0"}
{"id":"6IxtijkBLPh", "score":"0"}
{"id":"54glzXlJojT", "score":"0"}
{"id":"4y1F6aDkhXg", "score":"0"}
{"id":"3NaE1u7FBjh", "score":"0"}
{"id":"2u35xBWvFE7", "score":"0"}
{"id":"1Miag0WmSWO", "score":"0"}
{"id":"1JXel7DFIw0", "score":"0"}
