{"id":"5UM5mX5DE", "score":"519386"}
{"id":"Hr8pMVQ5VPA", "score":"153742"}
{"id":"9BrYIPUhNia", "score":"144103"}
{"id":"LCPcLsZ5YkC", "score":"109766"}
{"id":"11XSClznP16", "score":"108143"}
{"id":"9cazVT0OYWa", "score":"77734"}
{"id":"I4nLjLh5ew7", "score":"71219"}
{"id":"6mnkLvp4WbL", "score":"67853"}
{"id":"5mXrLcmPyr9", "score":"66619"}
{"id":"GWvNY06xJbh", "score":"65126"}
{"id":"ATiffUC4JSk", "score":"50462"}
{"id":"LBjy4wIYXE8", "score":"42705"}
{"id":"56tXEBsqI9v", "score":"40389"}
{"id":"GkLG2zc6RCe", "score":"35486"}
{"id":"I8wIChdgqDy", "score":"33789"}
{"id":"YzFroWAAUr", "score":"32155"}
{"id":"35yVIDgEYOe", "score":"24364"}
{"id":"3vOzmOx8iT4", "score":"19741"}
{"id":"Cwy911KOag2", "score":"18618"}
{"id":"C96USe7eLAb", "score":"17810"}
{"id":"3Q8vcU3sNyM", "score":"17476"}
{"id":"4UZiAl0aQLV", "score":"15015"}
{"id":"Facr1L4QD5Y", "score":"13787"}
{"id":"4OULH8jLpKB", "score":"12889"}
{"id":"9j37AROzwMg", "score":"12835"}
{"id":"1te5VIf3mv", "score":"10969"}
{"id":"BgldA3pG7yN", "score":"10544"}
{"id":"1IqCCzUtuYC", "score":"10237"}
{"id":"LRZVajkdDeX", "score":"8623"}
{"id":"9yHYY6Sktg5", "score":"8412"}
{"id":"3Jfk9qkBMdc", "score":"8204"}
{"id":"3JGz98XpiGA", "score":"7634"}
{"id":"LMA6QxDOrA7", "score":"7555"}
{"id":"ITF0iCCkxI4", "score":"7038"}
{"id":"D86UfYLkiJP", "score":"6893"}
{"id":"KXFdLuqCJrO", "score":"6764"}
{"id":"FvkVqU8vKFz", "score":"6658"}
{"id":"Bu17raXAlLz", "score":"6656"}
{"id":"EHDgKUoyrj9", "score":"5238"}
{"id":"LTpQ7y6Z1xe", "score":"4995"}
{"id":"681ZNGWYyzi", "score":"4799"}
{"id":"BT7Zhmm0wcU", "score":"4593"}
{"id":"ExwZrs1JS1q", "score":"4531"}
{"id":"6Xbq4DuAm6a", "score":"4466"}
{"id":"5IFU59mXmZA", "score":"3995"}
{"id":"K4PvVxkteSP", "score":"3721"}
{"id":"AS06pJkFR7I", "score":"3610"}
{"id":"DVjI8WyhZmQ", "score":"3295"}
{"id":"aOfe7dnFdb", "score":"3206"}
{"id":"GHgDtKNrWXz", "score":"3186"}
{"id":"Kncem9T2yhY", "score":"2906"}
{"id":"LRsHdVYSBd9", "score":"2869"}
{"id":"3fcPyt7ivQz", "score":"2759"}
{"id":"545ljcCoIAT", "score":"2548"}
{"id":"8zzzgOOVyZa", "score":"2277"}
{"id":"KwGYlxFQXFs", "score":"2201"}
{"id":"PN7wdClCDF", "score":"2060"}
{"id":"IgAmuaJEukp", "score":"2038"}
{"id":"80kFoKHEbL1", "score":"2023"}
{"id":"6imdleJW2bQ", "score":"2023"}
{"id":"JlB3z8ALYtW", "score":"1973"}
{"id":"8TCRTx7pqZ3", "score":"1878"}
{"id":"I5V5mOy0Z8E", "score":"1868"}
{"id":"4dLV3kVt842", "score":"1838"}
{"id":"9u3NzIf01sP", "score":"1799"}
{"id":"Kux3Zj5yrhy", "score":"1719"}
{"id":"2FpFLuZK3BK", "score":"1675"}
{"id":"GHDHmfSc2aj", "score":"1674"}
{"id":"AaCIaMejWNh", "score":"1668"}
{"id":"ASYzpt3SASW", "score":"1647"}
{"id":"9zdiBEp1tog", "score":"1575"}
{"id":"25Iiz6mbTy9", "score":"1453"}
{"id":"ILMAJEHjvoZ", "score":"1427"}
{"id":"8TsNS2XfEhN", "score":"1182"}
{"id":"2oVWtBw4sdU", "score":"1084"}
{"id":"8yhF3B4bwdB", "score":"1066"}
{"id":"HFOVY65MVlm", "score":"1020"}
{"id":"EUZeO8ViB3B", "score":"1015"}
{"id":"3gtWmU7qaz9", "score":"1012"}
{"id":"AK2P26yTjwX", "score":"999"}
{"id":"3ypuhx7jKMW", "score":"984"}
{"id":"DHJfLTOOX9i", "score":"965"}
{"id":"7JKo74KTAWj", "score":"952"}
{"id":"45URRbYId5c", "score":"938"}
{"id":"HDgKkKa2TFi", "score":"936"}
{"id":"7a4MEEEmyLY", "score":"911"}
{"id":"CQB4F6Q5M8W", "score":"874"}
{"id":"CwGIp3Dj72f", "score":"793"}
{"id":"DjvIfR55W0X", "score":"788"}
{"id":"HrxuzvzTcwS", "score":"770"}
{"id":"K9aQhPRhgGw", "score":"741"}
{"id":"FLSkKPZf7P9", "score":"740"}
{"id":"ChzCGEHfYSI", "score":"679"}
{"id":"79am1pKqnFU", "score":"501"}
{"id":"4AZvAdJ414C", "score":"458"}
{"id":"ICoWI5Nyntg", "score":"455"}
{"id":"16dH9fl2cMr", "score":"444"}
{"id":"2g9hvHYzorN", "score":"442"}
{"id":"user_9", "score":"1"}
{"id":"user_8", "score":"1"}
{"id":"user_7", "score":"1"}
{"id":"user_6", "score":"1"}
{"id":"user_5", "score":"1"}
{"id":"user_4", "score":"1"}
{"id":"user_3", "score":"1"}
{"id":"user_2", "score":"1"}
{"id":"user_10", "score":"1"}
{"id":"user_1", "score":"1"}
{"id":"sYiP6canYX", "score":"0"}
{"id":"LrSZ2d2Uwwx", "score":"0"}
{"id":"LrFu1jKtMlA", "score":"0"}
{"id":"LbsiiK2Clza", "score":"0"}
{"id":"L4y5e7luOgt", "score":"0"}
{"id":"JaJXLYeffUk", "score":"0"}
{"id":"JXJSW7P0Gdr", "score":"0"}
{"id":"IfhUrthKAls", "score":"0"}
{"id":"IHAExtXy48v", "score":"0"}
{"id":"HSrxDLtd9tI", "score":"0"}
{"id":"GJsNtY5d59S", "score":"0"}
{"id":"FKun1kdZblb", "score":"0"}
{"id":"ELa8q8zfdvp", "score":"0"}
{"id":"Dtb6jitQ3IN", "score":"0"}
{"id":"DWay3npO8IC", "score":"0"}
{"id":"DOpF1XHysNu", "score":"0"}
{"id":"D7TAoESgG4P", "score":"0"}
{"id":"D77nvWypE8G", "score":"0"}
{"id":"CHMiPPTwaDv", "score":"0"}
{"id":"9fKaOFYtovN", "score":"0"}
{"id":"92kvFoX06Hw", "score":"0"}
{"id":"7wDVEmdjV6p", "score":"0"}
{"id":"79ixQn7OPq7", "score":"0"}
{"id":"5KFHXv0FfVM", "score":"0"}
{"id":"3xGrVPDoejy", "score":"0"}
{"id":"31Ht1E3aAxm", "score":"0"}
{"id":"2KNV9gaRQNG", "score":"0"}
{"id":"2FukkxqcPkO", "score":"0"}
{"id":"1zZtlnZNxWn", "score":"0"}
{"id":"1F4RGwyBh7s", "score":"0"}
{"id":"1CR1ASZX5Eg", "score":"0"}
{"id":"1CBf9Lb7c9t", "score":"0"}
