{"id":"AYMkAiRLjO0", "score":"179516"}
{"id":"4H0OiRMVmeN", "score":"74769"}
{"id":"75uMvaBC2Ci", "score":"61664"}
{"id":"zKmhyM7qWw", "score":"44934"}
{"id":"1ekTySEhsm", "score":"30438"}
{"id":"3sH0Hw7W4Ag", "score":"28160"}
{"id":"6mWeab1m9Mt", "score":"27670"}
{"id":"JiZr3RCnBzV", "score":"26806"}
{"id":"JSlECjCLuqz", "score":"26771"}
{"id":"9uJeBBQovBv", "score":"22355"}
{"id":"7JryFv4a5ux", "score":"19938"}
{"id":"KQe1cS3Bh3z", "score":"16340"}
{"id":"BGoE2NTuXbx", "score":"13775"}
{"id":"BGi9NeHaZ2r", "score":"13075"}
{"id":"1HoWar5S5sN", "score":"10875"}
{"id":"EBgADHxbUWF", "score":"10453"}
{"id":"HmHiZPysOXD", "score":"8880"}
{"id":"dpA6COVmes", "score":"8718"}
{"id":"AXnR8QQHLxH", "score":"7738"}
{"id":"KyaqkdqjhTN", "score":"7500"}
{"id":"KSnRZlr8tMH", "score":"7462"}
{"id":"56fzTxnxnnZ", "score":"7224"}
{"id":"J4xu45S2sdk", "score":"7158"}
{"id":"74CbpdFOYPJ", "score":"5838"}
{"id":"Lbb6a2UNsLn", "score":"5834"}
{"id":"I4T9j0bEOLm", "score":"5281"}
{"id":"HSgr2ahANcl", "score":"5214"}
{"id":"21ymRcVW2oB", "score":"5023"}
{"id":"6CeH7P5hJEF", "score":"4648"}
{"id":"D7Z28vC8Ebj", "score":"4434"}
{"id":"8KLmeRixcQF", "score":"4284"}
{"id":"3OtEYr8is2Y", "score":"4238"}
{"id":"BaBMZEfxcOk", "score":"4188"}
{"id":"75SvJ2HOLoh", "score":"3739"}
{"id":"DRqvuKXaw5r", "score":"3209"}
{"id":"7JwjappKjDj", "score":"2904"}
{"id":"3XDJe0yNJ6E", "score":"2638"}
{"id":"DwJ1QBnWWg9", "score":"2534"}
{"id":"JdzUUNEfIMx", "score":"2062"}
{"id":"KYT85MZ5CyB", "score":"2031"}
{"id":"97ydVYWXSb8", "score":"2011"}
{"id":"3Zcvz0at9kQ", "score":"1991"}
{"id":"HzJN2mG06TN", "score":"1925"}
{"id":"IIhR4niYsYi", "score":"1919"}
{"id":"J2sQLOxzlJC", "score":"1725"}
{"id":"6ACe2DNuvyE", "score":"1702"}
{"id":"BMZFvGHqIx", "score":"1637"}
{"id":"BX5MoZQYQP", "score":"1591"}
{"id":"DA8OJaZi4LY", "score":"1573"}
{"id":"B7cRG0IP8hj", "score":"1518"}
{"id":"GYvMgPXp8ZM", "score":"1332"}
{"id":"5QxBjCUm71A", "score":"1160"}
{"id":"5FwaG3r0SzI", "score":"1067"}
{"id":"17rAeDyKOPX", "score":"1053"}
{"id":"5avt2mEZaUh", "score":"1049"}
{"id":"CDnFv4NPuZ4", "score":"1042"}
{"id":"2SfyaozLFAL", "score":"1016"}
{"id":"4ygG0tZHcdx", "score":"1010"}
{"id":"BzuSxtOd0ZE", "score":"1000"}
{"id":"9GfUVvAVsO6", "score":"995"}
{"id":"J2TIdaR9C0A", "score":"994"}
{"id":"7d19rtcO1Sz", "score":"990"}
{"id":"DExSVLNrqlt", "score":"987"}
{"id":"A9XfHFJY9uy", "score":"984"}
{"id":"AKSpUSxlgQZ", "score":"913"}
{"id":"G0vShKJb9lq", "score":"902"}
{"id":"4qxzT7tc0fN", "score":"888"}
{"id":"1mrSZo526ju", "score":"887"}
{"id":"Hgo5GSz5VXP", "score":"843"}
{"id":"j64xn4bk2k", "score":"728"}
{"id":"KQB5vV3kGPZ", "score":"716"}
{"id":"CCt9bXDjhMs", "score":"537"}
{"id":"AckQOxOREth", "score":"514"}
{"id":"JLEb2jz3Q13", "score":"501"}
{"id":"MOWab7efST", "score":"480"}
{"id":"6DsQ6pCqKKr", "score":"443"}
{"id":"K6IrqYbbGIr", "score":"433"}
{"id":"CJ2bTGoKo4U", "score":"426"}
{"id":"EoFKKLpmkmV", "score":"420"}
{"id":"1UVVcopWRXl", "score":"357"}
{"id":"user_9", "score":"1"}
{"id":"user_8", "score":"1"}
{"id":"user_7", "score":"1"}
{"id":"user_6", "score":"1"}
{"id":"user_5", "score":"1"}
{"id":"user_4", "score":"1"}
{"id":"user_3", "score":"1"}
{"id":"user_2", "score":"1"}
{"id":"user_10", "score":"1"}
{"id":"user_1", "score":"1"}
{"id":"KCMdV0JRAgV", "score":"0"}
{"id":"JYwssDZXVrG", "score":"0"}
{"id":"Iu8CAitnEPn", "score":"0"}
{"id":"Ipu8qkfQko8", "score":"0"}
{"id":"ITMRLS2GCnQ", "score":"0"}
{"id":"ISeGJvTxPAg", "score":"0"}
{"id":"HaqkBNO7uuK", "score":"0"}
{"id":"H5NhRgfm6fp", "score":"0"}
{"id":"H25G6fyYy5y", "score":"0"}
{"id":"GsqARSTEgKq", "score":"0"}
{"id":"Gpx9M37Tk3L", "score":"0"}
{"id":"GNKHVf95Hw0", "score":"0"}
{"id":"G8IpsPq5xKC", "score":"0"}
{"id":"Fx3pRB9yAdw", "score":"0"}
{"id":"F9FvG1yLsgH", "score":"0"}
{"id":"F7quMWWTIOe", "score":"0"}
{"id":"E4Tu16f4l9G", "score":"0"}
{"id":"DzMbhfUUG7m", "score":"0"}
{"id":"DSKmYImINkC", "score":"0"}
{"id":"DBURx6BOzbr", "score":"0"}
{"id":"D5aE49uxjMn", "score":"0"}
{"id":"D340dF6npuy", "score":"0"}
{"id":"CuZ8T8gMnJp", "score":"0"}
{"id":"CV12ws34yrJ", "score":"0"}
{"id":"CF9DAEPJc5k", "score":"0"}
{"id":"C1hYJdp9DFX", "score":"0"}
{"id":"BGwi7zN7CNl", "score":"0"}
{"id":"BEy053n8gTv", "score":"0"}
{"id":"B9hpMyBoBUC", "score":"0"}
{"id":"B5L49sV0aY6", "score":"0"}
{"id":"AWSy9suTDv", "score":"0"}
{"id":"A5Z0Gn8LjQ", "score":"0"}
{"id":"9pngD3Zvr9G", "score":"0"}
{"id":"9oCBsEevABo", "score":"0"}
{"id":"9GRcX1YHnY6", "score":"0"}
{"id":"89YmSALvstM", "score":"0"}
{"id":"7nhxxoEPMga", "score":"0"}
{"id":"7RgSyljXqf5", "score":"0"}
{"id":"6q7IQOsihnJ", "score":"0"}
{"id":"6kaL7WHrlMY", "score":"0"}
{"id":"5QNBNUASJED", "score":"0"}
{"id":"5Omq9x40IQU", "score":"0"}
{"id":"4NY9YRBucZP", "score":"0"}
{"id":"3iS8nR4MxDM", "score":"0"}
{"id":"3ZWdP90crYm", "score":"0"}
{"id":"3UklC8F5NT3", "score":"0"}
{"id":"38y2ZPlDtkS", "score":"0"}
{"id":"2UCkD9JxBjs", "score":"0"}
{"id":"1Qub62CqJqh", "score":"0"}
{"id":"1FD6vnBj5ro", "score":"0"}
