{"id":"DQsS6WoyStU", "score":"107614"}
{"id":"BCGeom3VmQD", "score":"73554"}
{"id":"72f2KXmSxUe", "score":"49407"}
{"id":"LH2I6JlObVv", "score":"48467"}
{"id":"G3SsMIWOsXP", "score":"47341"}
{"id":"23TI8nstLGI", "score":"35000"}
{"id":"5DdgbC1h0DX", "score":"27963"}
{"id":"2w2kVnDCxj6", "score":"23705"}
{"id":"kVdNajH9BZ", "score":"17039"}
{"id":"Jtgin34Ef7o", "score":"15737"}
{"id":"HDv4VC6q2BC", "score":"14625"}
{"id":"33AWmDmsrFN", "score":"12811"}
{"id":"5QCkrIqFnyv", "score":"11844"}
{"id":"7qMW0auNR6F", "score":"11659"}
{"id":"6zP1kkO5iSE", "score":"10100"}
{"id":"FVfZT1ZTArV", "score":"9043"}
{"id":"BQYtynHEpA1", "score":"8799"}
{"id":"4PRK4rAIkM3", "score":"8722"}
{"id":"8EXwX2WfWRr", "score":"8473"}
{"id":"2xwsVHiIj13", "score":"8304"}
{"id":"CH5ZXGk3jcF", "score":"8299"}
{"id":"2WeMyRdze7B", "score":"7601"}
{"id":"L6B3Iohho5L", "score":"7323"}
{"id":"Ft3RzHbIwXg", "score":"6985"}
{"id":"HaKhbe6imrC", "score":"6675"}
{"id":"4inHysGrQnP", "score":"6566"}
{"id":"LN0HENahqnn", "score":"5392"}
{"id":"KD7nLfKxn66", "score":"5254"}
{"id":"1TrLmmMuPu8", "score":"5120"}
{"id":"JXf1lf99w5i", "score":"4683"}
{"id":"1eZed9RhHcs", "score":"4513"}
{"id":"AYzzrCzsMax", "score":"4205"}
{"id":"BWb6n4waNdr", "score":"4119"}
{"id":"8uTBTJrzWRc", "score":"4029"}
{"id":"JKldcWbmYdP", "score":"3133"}
{"id":"JId1qPTk48L", "score":"2982"}
{"id":"LAxpjchvCJd", "score":"2885"}
{"id":"6qSIi2HuYS4", "score":"2874"}
{"id":"1rgJKPq5Xod", "score":"2809"}
{"id":"57Q31IgDGRJ", "score":"2768"}
{"id":"HYcbrcij0bV", "score":"2726"}
{"id":"D45zv5JwQph", "score":"2669"}
{"id":"JmKJa6Nj1ZV", "score":"2643"}
{"id":"4wVqtxMBzIg", "score":"2554"}
{"id":"3xtEwehkzjK", "score":"2233"}
{"id":"2qb5PeqQiGa", "score":"2220"}
{"id":"HpnIdMXt2je", "score":"2071"}
{"id":"EJI7CTYwsbT", "score":"1848"}
{"id":"KA09ton9q6k", "score":"1800"}
{"id":"qJv96reoxb", "score":"1681"}
{"id":"8CibzZbkDi2", "score":"1638"}
{"id":"LjkEkx8YRoB", "score":"1565"}
{"id":"9h19snD9aa8", "score":"1559"}
{"id":"AHSZ3Za6KeU", "score":"1545"}
{"id":"5Xfdbc9m90", "score":"1529"}
{"id":"JATDE2ilS2v", "score":"1434"}
{"id":"78D2hhCK2Kz", "score":"1352"}
{"id":"CcGACBpHQWH", "score":"1120"}
{"id":"KK4djxBbVoO", "score":"1068"}
{"id":"7p0kdxpRHPk", "score":"1066"}
{"id":"Lg46oCjWOzi", "score":"1051"}
{"id":"DvBYJAogybN", "score":"1008"}
{"id":"1SShrWhgDJH", "score":"990"}
{"id":"6K7uGJFMpsG", "score":"968"}
{"id":"AMVAVLiuMMj", "score":"967"}
{"id":"AD0YyFW0DWs", "score":"952"}
{"id":"BJcrrrTjST9", "score":"949"}
{"id":"7ddCU6KEhVF", "score":"945"}
{"id":"8unhzzCy5Zv", "score":"921"}
{"id":"2jY1emddz7v", "score":"912"}
{"id":"AO86wLfTm3Q", "score":"832"}
{"id":"HmEifXuR372", "score":"812"}
{"id":"7NNoN3Nv7H6", "score":"781"}
{"id":"ARZRdcM9uOg", "score":"682"}
{"id":"6oJmmOKgHPO", "score":"603"}
{"id":"IwWSHUyVL8Q", "score":"522"}
{"id":"3nZpeTXujp2", "score":"491"}
{"id":"LxkN2zJ27nB", "score":"463"}
{"id":"DJ8CvVsO4oK", "score":"462"}
{"id":"IYQlAV4G1gQ", "score":"460"}
{"id":"6iVHozLSehD", "score":"453"}
{"id":"J5Y5HXCjPQA", "score":"438"}
{"id":"KVAdEXLTFI2", "score":"433"}
{"id":"6tY9LFtrjdG", "score":"425"}
{"id":"LE2JSeFTKk3", "score":"424"}
{"id":"Jtt9cAL3yXO", "score":"419"}
{"id":"Lay07feji5Z", "score":"418"}
{"id":"ClBcy7Fcjcd", "score":"418"}
{"id":"user_9", "score":"1"}
{"id":"user_8", "score":"1"}
{"id":"user_7", "score":"1"}
{"id":"user_6", "score":"1"}
{"id":"user_5", "score":"1"}
{"id":"user_4", "score":"1"}
{"id":"user_3", "score":"1"}
{"id":"user_2", "score":"1"}
{"id":"user_10", "score":"1"}
{"id":"user_1", "score":"1"}
{"id":"Oeb53tN1li", "score":"0"}
{"id":"K62jEqbAoVU", "score":"0"}
{"id":"JiDffWcumuX", "score":"0"}
{"id":"JOxuwsMnnum", "score":"0"}
{"id":"IdTrzrPzZrL", "score":"0"}
{"id":"IQ3RuhFiinB", "score":"0"}
{"id":"I1qQZyamnmT", "score":"0"}
{"id":"HjINxK2iCad", "score":"0"}
{"id":"HeyBldL87V", "score":"0"}
{"id":"GEJboO1b61H", "score":"0"}
{"id":"Fwg8YRjKjzQ", "score":"0"}
{"id":"Fh6cl0NdkKh", "score":"0"}
{"id":"FKJyQCdCjii", "score":"0"}
{"id":"F9N3ORSUtUa", "score":"0"}
{"id":"Ef2FJZPwVjQ", "score":"0"}
{"id":"D3PxotDSCso", "score":"0"}
{"id":"CHbIrf0zEFA", "score":"0"}
{"id":"BxvvfiZWkCR", "score":"0"}
{"id":"9a2m3lzZp5", "score":"0"}
{"id":"9GR3ffYyksa", "score":"0"}
{"id":"8nfSpzHV7FM", "score":"0"}
{"id":"8LJhXMZ38CJ", "score":"0"}
{"id":"8JOTl34vxfY", "score":"0"}
{"id":"8JHbORd3TYR", "score":"0"}
{"id":"85ZHZPZBmmG", "score":"0"}
{"id":"7e0uxYXmRG5", "score":"0"}
{"id":"7SMFxZC9rK6", "score":"0"}
{"id":"6L24pzt47QJ", "score":"0"}
{"id":"5vQD0L2uZ8C", "score":"0"}
{"id":"5join0X3di0", "score":"0"}
{"id":"5OHIab53LlJ", "score":"0"}
{"id":"4vFWlWEs3f6", "score":"0"}
{"id":"4NYgvLkko38", "score":"0"}
{"id":"3zkK4ID2Lrg", "score":"0"}
{"id":"3tN9U9BWlGz", "score":"0"}
{"id":"2uLMOZY7Itt", "score":"0"}
{"id":"2mPo15sw3Vs", "score":"0"}
{"id":"1dUdC0xXTbO", "score":"0"}
{"id":"1dHHqI7zXmW", "score":"0"}
{"id":"19eEaOaSwTe", "score":"0"}
{"id":"18oG8TaJY7Q", "score":"0"}
{"id":"12PCyOqwzh5", "score":"0"}
