{"id":"4xZkYbyd1K8", "score":"742465"}
{"id":"9ACMoNimRwq", "score":"426173"}
{"id":"HbawZ741Mxc", "score":"401234"}
{"id":"LFEu4GViKXg", "score":"72790"}
{"id":"Eq4sy9Gitmu", "score":"68587"}
{"id":"BLa1gZTDuy3", "score":"42906"}
{"id":"HitRVIO2U81", "score":"25029"}
{"id":"Jkw2J2u2suA", "score":"21386"}
{"id":"EzuHLWvAlFy", "score":"20279"}
{"id":"Kol1PiIp2JX", "score":"14820"}
{"id":"ZY85dwC1To", "score":"9559"}
{"id":"H86IsoYpEaq", "score":"6075"}
{"id":"ElsIHfeG0t9", "score":"4784"}
{"id":"LXExEFdVxyi", "score":"2662"}
{"id":"EIL8FVpbkX3", "score":"2352"}
{"id":"BV8T1SR0vpZ", "score":"1925"}
{"id":"6YY0sJjZPfq", "score":"1203"}
{"id":"DqymWtyAsOP", "score":"1070"}
{"id":"user_9", "score":"1"}
{"id":"user_8", "score":"1"}
{"id":"user_7", "score":"1"}
{"id":"user_6", "score":"1"}
{"id":"user_5", "score":"1"}
{"id":"user_4", "score":"1"}
{"id":"user_3", "score":"1"}
{"id":"user_2", "score":"1"}
{"id":"user_10", "score":"1"}
{"id":"user_1", "score":"1"}
{"id":"DXOSsVn4OYL", "score":"0"}
{"id":"A0Iiuv4zFNM", "score":"0"}
