{"id":"B908JG15wVT", "score":"335541"}
{"id":"GgHAD8z4iEW", "score":"177417"}
{"id":"E2BJXGNyRl2", "score":"130858"}
{"id":"KSZixXxZI6w", "score":"38532"}
{"id":"Kox5XeYDN9C", "score":"36150"}
{"id":"1lTFn7VI2z0", "score":"18565"}
{"id":"HGDirtwmC4o", "score":"17512"}
{"id":"ICBlSR3c5GT", "score":"17224"}
{"id":"7aXl5AffIQg", "score":"15643"}
{"id":"FPqAv5YL8j1", "score":"11010"}
{"id":"3vL6DKsO5gj", "score":"9719"}
{"id":"DleqQSXQUx8", "score":"3676"}
{"id":"3j6vFYX0E83", "score":"3512"}
{"id":"Dbss2pVcIvx", "score":"3348"}
{"id":"AuZLCcWg95u", "score":"2228"}
{"id":"J9QpYE4u7Vz", "score":"1491"}
{"id":"ATFUL547vBu", "score":"1084"}
{"id":"user_9", "score":"1"}
{"id":"user_8", "score":"1"}
{"id":"user_7", "score":"1"}
{"id":"user_6", "score":"1"}
{"id":"user_5", "score":"1"}
{"id":"user_4", "score":"1"}
{"id":"user_3", "score":"1"}
{"id":"user_2", "score":"1"}
{"id":"user_10", "score":"1"}
{"id":"user_1", "score":"1"}
{"id":"JrTPp2Iu4X6", "score":"0"}
{"id":"H6neMw15ZF0", "score":"0"}
{"id":"A5zcDZqKCYO", "score":"0"}
