{"id":"6P4WGLIlz3l", "score":"74596"}
{"id":"2XVXizO7fIw", "score":"22048"}
{"id":"Lgxs9dJIsmq", "score":"17730"}
{"id":"COvl0OSXnTD", "score":"16525"}
{"id":"CTgllbgYkyV", "score":"6715"}
{"id":"orOCAefOf3", "score":"2762"}
{"id":"Bd7CQGUDNvF", "score":"2034"}
{"id":"9HtahdH3jpC", "score":"1893"}
{"id":"2DPrITtM5y0", "score":"1654"}
{"id":"ExgHu3SVxKu", "score":"1522"}
{"id":"yCjpekNLEr", "score":"1451"}
{"id":"CfttUBwHhVQ", "score":"1385"}
{"id":"LJUhLOXfsPL", "score":"1230"}
{"id":"HV1Aei4ig9A", "score":"970"}
{"id":"JGM0TMQovil", "score":"531"}
{"id":"IWe42TN8r9R", "score":"513"}
{"id":"user_9", "score":"1"}
{"id":"user_8", "score":"1"}
{"id":"user_7", "score":"1"}
{"id":"user_6", "score":"1"}
{"id":"user_5", "score":"1"}
{"id":"user_4", "score":"1"}
{"id":"user_3", "score":"1"}
{"id":"user_2", "score":"1"}
{"id":"user_10", "score":"1"}
{"id":"user_1", "score":"1"}
{"id":"KUmTO2Qzh5Y", "score":"0"}
{"id":"CtWjBQzeY9P", "score":"0"}
{"id":"8kKDLdqZQhb", "score":"0"}
{"id":"3iJ4Y0ClUst", "score":"0"}
