{"id":"Gbd6BglueMX", "score":"565447"}
{"id":"Fo5D1Tr46Lv", "score":"264101"}
{"id":"EbPheKbR1md", "score":"137912"}
{"id":"9L2BfdoiCCB", "score":"113108"}
{"id":"9bjoPlf05lG", "score":"68636"}
{"id":"3Sz67QP2dyO", "score":"60734"}
{"id":"IqCT2UivTva", "score":"52939"}
{"id":"2GunG1HSTtb", "score":"47286"}
{"id":"4FpKmDjWpTT", "score":"40609"}
{"id":"CYY752coHfY", "score":"39536"}
{"id":"2EtS996d6yh", "score":"31471"}
{"id":"DFaWuVPmk0K", "score":"29846"}
{"id":"2KjUTGfDohe", "score":"25030"}
{"id":"FdJA8fGQJup", "score":"24416"}
{"id":"JxPyYj6eeEM", "score":"19077"}
{"id":"9cal41m2tAj", "score":"17859"}
{"id":"8r0VZkkPx0O", "score":"14792"}
{"id":"9NR6khDzApI", "score":"14394"}
{"id":"50YFwXzmoni", "score":"14373"}
{"id":"CYhRDZOshry", "score":"14320"}
{"id":"7SzLaN3EGHn", "score":"14260"}
{"id":"BkpxLmqdrSC", "score":"11450"}
{"id":"7AuxdMwLxmZ", "score":"11252"}
{"id":"E3xW1LqIisX", "score":"11132"}
{"id":"B0KoIo5IGbs", "score":"10712"}
{"id":"53VudxXRUct", "score":"10316"}
{"id":"FstdKCo41Vw", "score":"9578"}
{"id":"BjX6l6ZmNvS", "score":"9345"}
{"id":"KXdWg0cqq9h", "score":"8900"}
{"id":"JJhCZmXkRaX", "score":"8837"}
{"id":"J1wdPjzUnLh", "score":"8553"}
{"id":"dpb7zKty99", "score":"8336"}
{"id":"8VVCqrWOIVu", "score":"8120"}
{"id":"J4aFgb5DVfU", "score":"7919"}
{"id":"JVsM2iCoACQ", "score":"7859"}
{"id":"B8CmdT9sZjx", "score":"7553"}
{"id":"AzcNdpJqi1y", "score":"6830"}
{"id":"7p7qBDx75MM", "score":"6717"}
{"id":"5OGg60tYDli", "score":"6212"}
{"id":"AjiFDiaofD8", "score":"6130"}
{"id":"9EtnfcMcRAZ", "score":"5868"}
{"id":"LnWIxqkyB1R", "score":"5788"}
{"id":"LG1n7pnGElL", "score":"5431"}
{"id":"FbVGEFxUXmd", "score":"5327"}
{"id":"8dhXTdaR1RQ", "score":"5162"}
{"id":"Dho45zNbWUB", "score":"4901"}
{"id":"5C7iBWwQ0oQ", "score":"4883"}
{"id":"Io7z9T1yJYt", "score":"4874"}
{"id":"L4pGKBfoB5S", "score":"4804"}
{"id":"ImeNwV3MDm3", "score":"4393"}
{"id":"DaVTFmuqb3B", "score":"4367"}
{"id":"3feuXAhjDAl", "score":"4321"}
{"id":"IWQsJrK3xhd", "score":"4273"}
{"id":"F0XjI6jKIVc", "score":"4250"}
{"id":"CCM9l6PrjiO", "score":"4026"}
{"id":"2BClr3cyZgd", "score":"3635"}
{"id":"G6xg3h17TQa", "score":"3459"}
{"id":"95LoypLAOTX", "score":"3427"}
{"id":"Fc3T8BkzrAr", "score":"3395"}
{"id":"IaqScriI8PQ", "score":"3378"}
{"id":"9jUzKiknTbZ", "score":"3289"}
{"id":"BTpbh2e91wY", "score":"3109"}
{"id":"JlhbwABHxBs", "score":"3106"}
{"id":"1geC1wVFKSm", "score":"2999"}
{"id":"Ja1TBHtfvxD", "score":"2976"}
{"id":"5Yecz4zkBma", "score":"2645"}
{"id":"7T8NK8jjvk5", "score":"2493"}
{"id":"1uOUe6W2xtr", "score":"2462"}
{"id":"5cQXNkxA2ay", "score":"2256"}
{"id":"1Ec2XOFRVSg", "score":"2046"}
{"id":"1UVdUisIDbC", "score":"2012"}
{"id":"6zayE35T231", "score":"1974"}
{"id":"LMRzhaJmZaN", "score":"1847"}
{"id":"KXg7r0WsapC", "score":"1842"}
{"id":"L4RO6Sd6GrV", "score":"1834"}
{"id":"6jwrqriVhFM", "score":"1819"}
{"id":"L53Qffnnj3M", "score":"1816"}
{"id":"LHaMTAbLgCb", "score":"1786"}
{"id":"8vYRWzfOZbH", "score":"1785"}
{"id":"5vATzDOD0i", "score":"1782"}
{"id":"FMg7ynZmqoD", "score":"1781"}
{"id":"2PVtavpG2AY", "score":"1746"}
{"id":"4lDRr81vcLm", "score":"1744"}
{"id":"Aa69GjgAj8J", "score":"1726"}
{"id":"BzNUgynnXa3", "score":"1642"}
{"id":"Ja1tGRlhHMy", "score":"1618"}
{"id":"EjClVk7Lke8", "score":"1363"}
{"id":"6vFtViqK2Cr", "score":"1325"}
{"id":"9qpiz5Gg2pH", "score":"1303"}
{"id":"8dyn6ghgrh9", "score":"1152"}
{"id":"7LL1QenQVTD", "score":"1120"}
{"id":"9qp8mewXfAa", "score":"1034"}
{"id":"CjqtkZfkQ6T", "score":"1007"}
{"id":"5dI9ByNQtjt", "score":"994"}
{"id":"AKWWkrcYu5W", "score":"963"}
{"id":"LVTReEPNwb5", "score":"953"}
{"id":"3PuFuJiTh02", "score":"944"}
{"id":"4Gt5I9h7jXD", "score":"884"}
{"id":"2LlGqQSTpTb", "score":"856"}
{"id":"HEGhaUKPsxB", "score":"842"}
{"id":"Cqcr00fV4Vs", "score":"833"}
{"id":"AwxePHJuEiQ", "score":"786"}
{"id":"FUpFlu9Ts59", "score":"690"}
{"id":"FDwbKUlTtHV", "score":"674"}
{"id":"L9iTTbCDkCj", "score":"520"}
{"id":"11MaGYGejkh", "score":"515"}
{"id":"5azVnfWDG9T", "score":"506"}
{"id":"8IENEJBjlmB", "score":"488"}
{"id":"5xpFMoKw9bi", "score":"486"}
{"id":"Hv701AGdHrJ", "score":"467"}
{"id":"9fdMu5GShVO", "score":"419"}
{"id":"3dn41j8l2yb", "score":"396"}
{"id":"user_9", "score":"1"}
{"id":"user_8", "score":"1"}
{"id":"user_7", "score":"1"}
{"id":"user_6", "score":"1"}
{"id":"user_5", "score":"1"}
{"id":"user_4", "score":"1"}
{"id":"user_3", "score":"1"}
{"id":"user_2", "score":"1"}
{"id":"user_10", "score":"1"}
{"id":"user_1", "score":"1"}
{"id":"L4SUrjjfVXv", "score":"0"}
{"id":"K79hqdshq1m", "score":"0"}
{"id":"IbpNl3SSH73", "score":"0"}
{"id":"IPciPSLp8Pt", "score":"0"}
{"id":"HaD8b0O7z7i", "score":"0"}
{"id":"HAkoWWYokKV", "score":"0"}
{"id":"FwjQpWPWE7I", "score":"0"}
{"id":"Fv2mPIjL1ts", "score":"0"}
{"id":"DZdqJ2K8bt7", "score":"0"}
{"id":"DTh9Gis16x8", "score":"0"}
{"id":"DC2StFRv0Jv", "score":"0"}
{"id":"D4QcKTEt9gy", "score":"0"}
{"id":"CpYBnwCt9hl", "score":"0"}
{"id":"Cfz2ZluGHKn", "score":"0"}
{"id":"CSmDycjCiXl", "score":"0"}
{"id":"BZvYdcOrn88", "score":"0"}
{"id":"BU6TZXIpNS1", "score":"0"}
{"id":"ANiqU5Lpvhm", "score":"0"}
{"id":"AJffXzYGfkQ", "score":"0"}
{"id":"8oFsByZyHJz", "score":"0"}
{"id":"8RZJYSit2rJ", "score":"0"}
{"id":"8Mh1woRvKE2", "score":"0"}
{"id":"8KlSiThyxxV", "score":"0"}
{"id":"8JyO8IXZXWU", "score":"0"}
{"id":"7po70fqaKgg", "score":"0"}
{"id":"7al3lwEK8Yl", "score":"0"}
{"id":"7JMLruMVR9l", "score":"0"}
{"id":"70KYz7ylpug", "score":"0"}
{"id":"641GEwWlIwh", "score":"0"}
{"id":"5Lag4DWsOc1", "score":"0"}
{"id":"58ZoPxCBoZm", "score":"0"}
{"id":"56ItCxpxTTO", "score":"0"}
{"id":"562CjVy2FAY", "score":"0"}
{"id":"4MDSeV6aght", "score":"0"}
{"id":"2tzmUKRVxSk", "score":"0"}
{"id":"2VO7bpnXjl2", "score":"0"}
{"id":"1imDMBD7fDQ", "score":"0"}
{"id":"1LBOdBwuucG", "score":"0"}
