{"id":"BIhy3J5iQnw", "score":"2079185"}
{"id":"7uSk2nat4l6", "score":"1727776"}
{"id":"CRlYS0udQlb", "score":"1249108"}
{"id":"IZYgpvZhig7", "score":"928885"}
{"id":"AUCDUzsgn5o", "score":"620397"}
{"id":"6EvxnCTKV6K", "score":"432234"}
{"id":"C96RZjx4kjg", "score":"427713"}
{"id":"3ZqE1xtFDuH", "score":"348219"}
{"id":"4heccWTYGP7", "score":"309422"}
{"id":"3cDW5SxyJPP", "score":"298379"}
{"id":"95M0atlYcRi", "score":"293027"}
{"id":"GDsP8JRMv8V", "score":"160187"}
{"id":"FsId6ZsithC", "score":"128283"}
{"id":"GEFRFeuqC45", "score":"95633"}
{"id":"CMDRiGxwrXg", "score":"84456"}
{"id":"5zh2IhWHqDE", "score":"79630"}
{"id":"4Rk14GbQJwN", "score":"76824"}
{"id":"K8WnE9GzgF3", "score":"76431"}
{"id":"DuQsNlUlOmv", "score":"75421"}
{"id":"C6wjNnhFfHU", "score":"70953"}
{"id":"Ea0JJ6odE00", "score":"64975"}
{"id":"JpIfKUCM4I", "score":"57836"}
{"id":"3jSpUtNkCIZ", "score":"52488"}
{"id":"TofEYAQhfx", "score":"35687"}
{"id":"60x92hH1F2G", "score":"33727"}
{"id":"Gj4RP1eKzVz", "score":"31169"}
{"id":"E1emxbWKkK8", "score":"30968"}
{"id":"2KAs8EBzW1h", "score":"29705"}
{"id":"MARItBSRwn", "score":"24248"}
{"id":"KCYlobSeqvN", "score":"22064"}
{"id":"Lv8TQau6zuT", "score":"20697"}
{"id":"4Vq0xp6gFet", "score":"20506"}
{"id":"DXGifQ4W1N5", "score":"18927"}
{"id":"GwnXMLeJlV", "score":"16443"}
{"id":"KLp5AP0i0rj", "score":"15278"}
{"id":"1V8wqgOTtCE", "score":"15111"}
{"id":"FMoxwHG0afI", "score":"14334"}
{"id":"1XqnuENN5ab", "score":"13776"}
{"id":"JAnAillRBnJ", "score":"10354"}
{"id":"Cj1bPJN6Kd7", "score":"8851"}
{"id":"Cc5I1s3YSPB", "score":"8545"}
{"id":"4LMNAvwP8KY", "score":"8192"}
{"id":"7XW6HQKhq1", "score":"8172"}
{"id":"GfV50OmMn1g", "score":"6533"}
{"id":"8iyJoOrCUS7", "score":"6144"}
{"id":"94yyXOrqkik", "score":"6044"}
{"id":"54hmGVuvPWI", "score":"5918"}
{"id":"1ceilQOwMcq", "score":"5653"}
{"id":"6aAIJzPBxFx", "score":"5008"}
{"id":"1B8vdKBHNQw", "score":"4972"}
{"id":"4jS0QROSBot", "score":"4128"}
{"id":"MmJzIjSrNs", "score":"4117"}
{"id":"Co9YBn8KNQw", "score":"3612"}
{"id":"Dcnnxwd1CTI", "score":"3448"}
{"id":"Kfek2yPsGJb", "score":"3423"}
{"id":"HPzcE6plaFy", "score":"2916"}
{"id":"EDqelya6LDE", "score":"2660"}
{"id":"CLAoPGiwZaC", "score":"2471"}
{"id":"5z5fg9f09RE", "score":"1951"}
{"id":"9WqTru3VF1F", "score":"1924"}
{"id":"4kcD04kkX3Z", "score":"1909"}
{"id":"HjEVlPBXMqw", "score":"1730"}
{"id":"HDhLDLpzHgW", "score":"1529"}
{"id":"7zmgHqnPZXj", "score":"1286"}
{"id":"D9mUiYEp7Y6", "score":"1284"}
{"id":"LsLKdRFFDYN", "score":"1228"}
{"id":"EVuDOmQc8OW", "score":"1141"}
{"id":"24kZoyeZZda", "score":"1136"}
{"id":"6ZeUfRPCbXz", "score":"1116"}
{"id":"9F9RGb9XneE", "score":"1101"}
{"id":"7mGNXBv3jtf", "score":"1020"}
{"id":"Fx3xAcirGZh", "score":"985"}
{"id":"Luyc6ILD59S", "score":"508"}
{"id":"9JKw3yg3pF1", "score":"487"}
{"id":"KdE7pp8II3J", "score":"474"}
{"id":"user_9", "score":"1"}
{"id":"user_8", "score":"1"}
{"id":"user_7", "score":"1"}
{"id":"user_6", "score":"1"}
{"id":"user_5", "score":"1"}
{"id":"user_4", "score":"1"}
{"id":"user_3", "score":"1"}
{"id":"user_2", "score":"1"}
{"id":"user_10", "score":"1"}
{"id":"user_1", "score":"1"}
{"id":"LmPCeLVVOdF", "score":"0"}
{"id":"LeLGAY5Sc5g", "score":"0"}
{"id":"LXPuCyBFfj9", "score":"0"}
{"id":"KIVgiD2vhL0", "score":"0"}
{"id":"K0UREzQPFju", "score":"0"}
{"id":"J9it2WsLBDq", "score":"0"}
{"id":"J3uqIcCa7Aq", "score":"0"}
{"id":"J2ENrEnEgmT", "score":"0"}
{"id":"IC1tjNsB5TM", "score":"0"}
{"id":"HWyVVor2gob", "score":"0"}
{"id":"GkLpKHRbjFv", "score":"0"}
{"id":"GFTN8A0t0P8", "score":"0"}
{"id":"FwWm4xezD34", "score":"0"}
{"id":"E1QeSJ14zuJ", "score":"0"}
{"id":"C6XzvdzLdTk", "score":"0"}
{"id":"9nJGBCRZSA7", "score":"0"}
{"id":"7qf98xtNXCo", "score":"0"}
{"id":"6TPtcwldYaP", "score":"0"}
{"id":"5TOAKXDN490", "score":"0"}
{"id":"5APMxEUYZWe", "score":"0"}
{"id":"3JPbI5vTURN", "score":"0"}
{"id":"2kp4nrrwaXA", "score":"0"}
{"id":"27JPGgyvqgF", "score":"0"}
{"id":"1UkJ2mmRdFB", "score":"0"}
