{"id":"Bsmhp6DnGAx", "score":"3252835"}
{"id":"8rcaZEfHkbI", "score":"1115405"}
{"id":"AxWMCJeYzkL", "score":"1008511"}
{"id":"I3Sph5tL9rX", "score":"826803"}
{"id":"IHsAXtiU1x3", "score":"766316"}
{"id":"EeJ1adzKPLA", "score":"712557"}
{"id":"8VPtyCdLYEL", "score":"711696"}
{"id":"7Ouo6cwxtKp", "score":"589040"}
{"id":"HCmZpIwBvjy", "score":"497695"}
{"id":"3chOWG8IxVR", "score":"465490"}
{"id":"93OiuqjmsLI", "score":"410867"}
{"id":"4aBPDQbxQcE", "score":"396870"}
{"id":"Inuog8ykdEs", "score":"347249"}
{"id":"75BHEaliBvz", "score":"312390"}
{"id":"3PFp6NpeK2t", "score":"262709"}
{"id":"LpGNUm560YE", "score":"240749"}
{"id":"GmYSsby7lAL", "score":"227220"}
{"id":"6XqWMMwD7f8", "score":"192051"}
{"id":"4XnyyFvJNCZ", "score":"179642"}
{"id":"IQgkVMvcePe", "score":"163621"}
{"id":"Hv9okd5OAoN", "score":"153482"}
{"id":"4sq2vkz01ZM", "score":"146735"}
{"id":"44a1WsEvXJV", "score":"138538"}
{"id":"5ayqfGZExLr", "score":"128498"}
{"id":"Gy1j0ENRTP8", "score":"119075"}
{"id":"CizaPKxrZ98", "score":"109282"}
{"id":"IYy0TB8oThb", "score":"104389"}
{"id":"ExSBo5zz5dJ", "score":"103542"}
{"id":"1eviCWsMxCc", "score":"101230"}
{"id":"IIdn6NTE0HU", "score":"100974"}
{"id":"J6NLKbjUIPQ", "score":"96322"}
{"id":"BF8e5YWg3f2", "score":"94570"}
{"id":"2Q49zgP51GE", "score":"83897"}
{"id":"7zzOXwaTBrS", "score":"64383"}
{"id":"Hhh3ngC6tCk", "score":"64170"}
{"id":"D1BYXxAJwpF", "score":"56802"}
{"id":"Jt6xbog1rZU", "score":"51442"}
{"id":"GUdGvYQHZwY", "score":"50675"}
{"id":"4nKDlOfA6MU", "score":"50675"}
{"id":"2XjjWfyN8Ab", "score":"45389"}
{"id":"6kShoxXiPlz", "score":"45161"}
{"id":"L1WPb8LtvqN", "score":"44036"}
{"id":"8Vt6oIVtJRu", "score":"42350"}
{"id":"H4UQNLE34WI", "score":"39714"}
{"id":"KmdR98CzHzV", "score":"31929"}
{"id":"1430r7VVc6a", "score":"29149"}
{"id":"APauWeoEWDa", "score":"28066"}
{"id":"GBxKxdtXMjt", "score":"27531"}
{"id":"CJCdwSEUZRk", "score":"25274"}
{"id":"LYqtwHVq1cr", "score":"23954"}
{"id":"LN55Ekgn73s", "score":"23504"}
{"id":"KBK3KfHEEqf", "score":"22757"}
{"id":"3kFqhRGQdhv", "score":"19759"}
{"id":"JxnC1AzjiMO", "score":"19092"}
{"id":"Jr2oSDpIDtA", "score":"18459"}
{"id":"KPZCQR5HHUC", "score":"17213"}
{"id":"FGxfnl3rI3", "score":"16823"}
{"id":"8nfMv06fogh", "score":"15990"}
{"id":"3cFRazQXaHg", "score":"15723"}
{"id":"6sq1zOkSTcS", "score":"14802"}
{"id":"J92LwpfE1NN", "score":"13771"}
{"id":"CRVkHl0KBJl", "score":"13502"}
{"id":"2domHrNF9Yd", "score":"13282"}
{"id":"Ln94Mq3huLV", "score":"11929"}
{"id":"BKszbDLdcft", "score":"11629"}
{"id":"6VNSk3tLrL0", "score":"11304"}
{"id":"4OJdYLgOfbz", "score":"9026"}
{"id":"5RFFbN1gGgV", "score":"7478"}
{"id":"IA9SR5ZMqvn", "score":"7366"}
{"id":"Dxr1YLWq2a0", "score":"7314"}
{"id":"ATZWJj1YEmC", "score":"6901"}
{"id":"5Z01RKab7Mn", "score":"6756"}
{"id":"5LaKhijsKrI", "score":"6686"}
{"id":"CVKIqschUnF", "score":"5726"}
{"id":"Bbpk3CPDbgW", "score":"3552"}
{"id":"Hq3RcxmaaZY", "score":"2620"}
{"id":"Gvb8brkBGqA", "score":"2261"}
{"id":"G6YMC2HItCq", "score":"2223"}
{"id":"OXdowWvscL", "score":"2196"}
{"id":"CxvY742J9bw", "score":"2170"}
{"id":"G5RMisZsi2F", "score":"1049"}
{"id":"Iles5zF6qQT", "score":"556"}
{"id":"user_9", "score":"1"}
{"id":"user_8", "score":"1"}
{"id":"user_7", "score":"1"}
{"id":"user_6", "score":"1"}
{"id":"user_5", "score":"1"}
{"id":"user_4", "score":"1"}
{"id":"user_3", "score":"1"}
{"id":"user_2", "score":"1"}
{"id":"user_10", "score":"1"}
{"id":"user_1", "score":"1"}
{"id":"lL5vK9K7Uv", "score":"0"}
{"id":"WuRwBPqCYN", "score":"0"}
{"id":"Lg7G3hDw7dZ", "score":"0"}
{"id":"KKa5oMqX5dW", "score":"0"}
{"id":"JWBXYYoDOpU", "score":"0"}
{"id":"IksTMQUDIs1", "score":"0"}
{"id":"IQAiLj7j5Ut", "score":"0"}
{"id":"FR2pHZs6H1h", "score":"0"}
{"id":"EVkxpwS2LTE", "score":"0"}
{"id":"DGyqifrGnoI", "score":"0"}
{"id":"AB28OphSwYE", "score":"0"}
{"id":"9gQWr1wv9xy", "score":"0"}
{"id":"8FQmhSGv83r", "score":"0"}
{"id":"85Rdk2RQ3c5", "score":"0"}
{"id":"5whJMU9C2S8", "score":"0"}
{"id":"4n087QeIKuZ", "score":"0"}
{"id":"3RtKfzCa05t", "score":"0"}
{"id":"20C4f2gtX0I", "score":"0"}
