{"id":"LJhuEjNZzjI", "score":"92562"}
{"id":"30tuk6qRcHW", "score":"62008"}
{"id":"FMpoxaSnoMz", "score":"42535"}
{"id":"33rrnvrG3le", "score":"38632"}
{"id":"IlxiAE4TP8K", "score":"21912"}
{"id":"8Nf9PCdrEgq", "score":"19460"}
{"id":"5EvKa9vnaDT", "score":"17891"}
{"id":"CywuNAwzLzu", "score":"10317"}
{"id":"L6iAx4BzGZk", "score":"10025"}
{"id":"48FaKwxwtIF", "score":"9459"}
{"id":"HQYR0xHkb3z", "score":"8402"}
{"id":"IFXkfuR8jS6", "score":"7211"}
{"id":"JRO5v9izS0g", "score":"6633"}
{"id":"DPwyuV5uHNC", "score":"5594"}
{"id":"LHGnb6EDduz", "score":"4610"}
{"id":"L1duCOkiRaL", "score":"4408"}
{"id":"5CCSTEZpSM0", "score":"4310"}
{"id":"EtmvxBalOqI", "score":"4297"}
{"id":"2eZFvGUJsbq", "score":"4121"}
{"id":"2V4jZbFMRJS", "score":"4111"}
{"id":"99PTCX5R3a7", "score":"3966"}
{"id":"HFkWF1VEUvG", "score":"3577"}
{"id":"1j08k0UxF6U", "score":"3329"}
{"id":"24HFaAqyzwQ", "score":"3260"}
{"id":"B6uNax0Evt6", "score":"3031"}
{"id":"7t4yGOEURFJ", "score":"2530"}
{"id":"5JKdL10zoIX", "score":"2384"}
{"id":"1JfBbz6dO9Z", "score":"2248"}
{"id":"ExwLdw2L0ch", "score":"2109"}
{"id":"AaPrqkyy9u7", "score":"2088"}
{"id":"G1ojSUuDYAj", "score":"2002"}
{"id":"8iIFWf91ony", "score":"1910"}
{"id":"mjFZKATcPp", "score":"1885"}
{"id":"VXwoQFvp6K", "score":"1724"}
{"id":"CoMFwu682qx", "score":"1648"}
{"id":"17ILVWWN27D", "score":"1538"}
{"id":"Jqrufaf1Lsh", "score":"1508"}
{"id":"F1JtYm0D6sP", "score":"1437"}
{"id":"EMwg2EsIKNU", "score":"1411"}
{"id":"8iSSRqUo4yV", "score":"1399"}
{"id":"GJgcMFE8BMh", "score":"1358"}
{"id":"4j2L5Dvg9Mt", "score":"1338"}
{"id":"LZH1s6fC2wq", "score":"1333"}
{"id":"8khRpZWuWfo", "score":"1279"}
{"id":"19jgwC09hFj", "score":"1184"}
{"id":"F9PmLQby9qV", "score":"1163"}
{"id":"I4AeL6odBYW", "score":"1143"}
{"id":"Ek6JnAKUZQm", "score":"1115"}
{"id":"EqOVnNw2hYH", "score":"1110"}
{"id":"2PVxknQoXdc", "score":"1095"}
{"id":"5YKWYAQqgjY", "score":"1052"}
{"id":"5fjXSJTX8pC", "score":"1016"}
{"id":"51B3rZqF8cK", "score":"1004"}
{"id":"HDFy6oQGoEu", "score":"1001"}
{"id":"CW9HPBKGZBn", "score":"1001"}
{"id":"5HgZ7NK68x", "score":"997"}
{"id":"FwEbwjFNLHZ", "score":"996"}
{"id":"1OiOajVaD5u", "score":"991"}
{"id":"4z3jjhiXOK", "score":"988"}
{"id":"2TOLXhpbc97", "score":"987"}
{"id":"10G7jVf95JV", "score":"979"}
{"id":"L26ByR82jzV", "score":"972"}
{"id":"7HgOsa2HYUC", "score":"970"}
{"id":"AhwTdf3u3xp", "score":"967"}
{"id":"B6vL9SrtWja", "score":"966"}
{"id":"2SZCpLsndAO", "score":"965"}
{"id":"D765WfFSzpE", "score":"964"}
{"id":"Kir16IBXKZ9", "score":"947"}
{"id":"JnLVdOj2xj3", "score":"947"}
{"id":"KGtw3LOR4Ts", "score":"946"}
{"id":"AfQvKItaPgn", "score":"940"}
{"id":"7x5kyISp7ZI", "score":"938"}
{"id":"6s30VCZTNFY", "score":"919"}
{"id":"2qQ0MrdubMZ", "score":"910"}
{"id":"KCXQFbzl1w9", "score":"902"}
{"id":"LZ1yhzo8Oao", "score":"866"}
{"id":"BKyutM4zmf8", "score":"863"}
{"id":"7bsoHBmVlpx", "score":"806"}
{"id":"4EFeCu4omCZ", "score":"805"}
{"id":"J3qtsVmEfGu", "score":"742"}
{"id":"5gmA9UEUkGO", "score":"721"}
{"id":"75F5O6wGZm4", "score":"550"}
{"id":"K7BCYNN7EcH", "score":"530"}
{"id":"6CFunz5Jq9k", "score":"486"}
{"id":"3AEVIy0Ry2w", "score":"474"}
{"id":"Ff0gGUZjnwE", "score":"469"}
{"id":"7ILUGpNjnMT", "score":"467"}
{"id":"1PJirb2DXy0", "score":"458"}
{"id":"BwmWXVuCd5Q", "score":"424"}
{"id":"3IDKbXrJdJ4", "score":"418"}
{"id":"user_9", "score":"1"}
{"id":"user_8", "score":"1"}
{"id":"user_7", "score":"1"}
{"id":"user_6", "score":"1"}
{"id":"user_5", "score":"1"}
{"id":"user_4", "score":"1"}
{"id":"user_3", "score":"1"}
{"id":"user_2", "score":"1"}
{"id":"user_10", "score":"1"}
{"id":"user_1", "score":"1"}
{"id":"z59AE94eDB", "score":"0"}
{"id":"LtxoU3AIGkr", "score":"0"}
{"id":"LTHwN5ShQqG", "score":"0"}
{"id":"LPXbibf6P9N", "score":"0"}
{"id":"LHLCWne9CIH", "score":"0"}
{"id":"K51cGJXmZ5m", "score":"0"}
{"id":"JufseEwpAPK", "score":"0"}
{"id":"Jqjv3zAEHaf", "score":"0"}
{"id":"IKHQETtFyI", "score":"0"}
{"id":"HfO1QaYJS1m", "score":"0"}
{"id":"HUmKr9E83p2", "score":"0"}
{"id":"GcoJZEgzdwd", "score":"0"}
{"id":"ExTOy3kyFua", "score":"0"}
{"id":"E1UDCeNDJOG", "score":"0"}
{"id":"DXTXYqiO9m3", "score":"0"}
{"id":"D9DrmpMrpJH", "score":"0"}
{"id":"Cy1FGHku1Vr", "score":"0"}
{"id":"Cx4QxriA5mV", "score":"0"}
{"id":"CnJeij3UgZv", "score":"0"}
{"id":"CTcyBpfEJre", "score":"0"}
{"id":"ALxLgBpT8nL", "score":"0"}
{"id":"9vNYil7Ztoc", "score":"0"}
{"id":"9XmQrZBDBP5", "score":"0"}
{"id":"9FPQHMLUeHA", "score":"0"}
{"id":"8sjkZo2Rvl", "score":"0"}
{"id":"8KKCLZwfAvJ", "score":"0"}
{"id":"7ikmbyF6CvR", "score":"0"}
{"id":"7hNHQ7zjWIk", "score":"0"}
{"id":"7WmaefxbIKg", "score":"0"}
{"id":"7MX9MCmbbV6", "score":"0"}
{"id":"6ZDZjDSHO3W", "score":"0"}
{"id":"6EkBvXFhO0X", "score":"0"}
{"id":"5VcBWzA6RDl", "score":"0"}
{"id":"4UdWL2XaDTs", "score":"0"}
{"id":"3vq9xsLJfde", "score":"0"}
{"id":"3q10qxjajlr", "score":"0"}
{"id":"3jiVw5wSyTp", "score":"0"}
{"id":"3NtEwwGATsw", "score":"0"}
{"id":"2VE6C4Vta3A", "score":"0"}
{"id":"1DFPEuHrYSO", "score":"0"}
