{"id":"2UFFmkZRUNJ", "score":"2155394"}
{"id":"GSdQFRo7t6U", "score":"1220808"}
{"id":"CQLwbk3TNV", "score":"798395"}
{"id":"25oD101ch66", "score":"788715"}
{"id":"9oF9B0Ji6IR", "score":"733845"}
{"id":"EQnIyAjssfG", "score":"669562"}
{"id":"IHtFdV6iyxH", "score":"648024"}
{"id":"KbemKibfXk0", "score":"572298"}
{"id":"DUhlkfrmWZV", "score":"564654"}
{"id":"E55C1TTaYRG", "score":"551876"}
{"id":"H1e2SD5URk5", "score":"532135"}
{"id":"JjtiCLA411C", "score":"531987"}
{"id":"EsahOcC3wbr", "score":"498143"}
{"id":"Bnb5MFnCPZd", "score":"441921"}
{"id":"3Km9wdGawyG", "score":"424433"}
{"id":"ECMzw1NCjVP", "score":"415008"}
{"id":"1muwTSWIrPt", "score":"389527"}
{"id":"AbGPQ9z1sl5", "score":"315575"}
{"id":"3GZKl9af6YP", "score":"309443"}
{"id":"Gf0GGVfomcI", "score":"292477"}
{"id":"FkcLEAsxPHa", "score":"267920"}
{"id":"FXxwlYWwpWG", "score":"254014"}
{"id":"1UX664XRaoy", "score":"249563"}
{"id":"ErZ8K7nbPJD", "score":"246993"}
{"id":"CqQGeql0HIe", "score":"232307"}
{"id":"JoCvL6jV73A", "score":"224228"}
{"id":"LNOiPaaTKUS", "score":"220415"}
{"id":"1lrjsgQzQsk", "score":"218614"}
{"id":"9QDku6BQ7I", "score":"202146"}
{"id":"B6VWBceNpqJ", "score":"188403"}
{"id":"ARpzSUNPgR", "score":"158982"}
{"id":"I7GrPYcFAAu", "score":"137824"}
{"id":"1ZpTAe6Z532", "score":"118080"}
{"id":"JZLrSBmH6lB", "score":"115411"}
{"id":"2VMloJWmekU", "score":"96700"}
{"id":"1OuJco03EU", "score":"96332"}
{"id":"GLW2eIDQOF4", "score":"87275"}
{"id":"GosMcTgs5aJ", "score":"72856"}
{"id":"3JNH7PiGYFN", "score":"66321"}
{"id":"7kv2MjOU2FN", "score":"64097"}
{"id":"Joe6r4HXJRO", "score":"62865"}
{"id":"HjcgfewF6x4", "score":"57581"}
{"id":"ExeN7PkTRb1", "score":"56271"}
{"id":"1CfLicPIabw", "score":"51373"}
{"id":"9T1qREGusUf", "score":"49225"}
{"id":"1SkprsWtlgz", "score":"44763"}
{"id":"DH4YpAdleKQ", "score":"40748"}
{"id":"KCIoqKzy8wE", "score":"39947"}
{"id":"7HyslhqTQ9F", "score":"37572"}
{"id":"Lka02CgChM5", "score":"36129"}
{"id":"JwL2jKJlLmQ", "score":"34956"}
{"id":"CPUhAo0doWo", "score":"33133"}
{"id":"LlB8vHSRij7", "score":"30500"}
{"id":"4nN4onzIbjp", "score":"29650"}
{"id":"B2ENyolah5T", "score":"28017"}
{"id":"EdFBRg9tWSE", "score":"27852"}
{"id":"s1moHNiWRW", "score":"26315"}
{"id":"IXqfJ9eCUq1", "score":"22821"}
{"id":"5HGUss7p575", "score":"21718"}
{"id":"D67xfCm1a38", "score":"21395"}
{"id":"KIFwvnXYI6y", "score":"20421"}
{"id":"Fsn350TFgP", "score":"18530"}
{"id":"3Vg1FpLr2HK", "score":"18402"}
{"id":"GII8Oq4WER", "score":"17051"}
{"id":"FVE1yG73hz4", "score":"16560"}
{"id":"Gis9ggIYAm", "score":"15942"}
{"id":"EJzJzL1IMNH", "score":"15502"}
{"id":"1TTgna9FNrM", "score":"15050"}
{"id":"m08l1QqYfg", "score":"14541"}
{"id":"7LaQpeV5cco", "score":"14225"}
{"id":"4B4FXoN1fA7", "score":"13603"}
{"id":"DIk4cjP6T0I", "score":"13498"}
{"id":"F8kQ7oqlzJU", "score":"12997"}
{"id":"KnXrRZFqxKM", "score":"12351"}
{"id":"334oD6rEqG", "score":"12024"}
{"id":"Ba5m0k8A9TR", "score":"11807"}
{"id":"3Dvmz377R9a", "score":"8569"}
{"id":"NO79DRQXTC", "score":"8350"}
{"id":"FrDOQp2eWqR", "score":"8026"}
{"id":"3lFvPHwLLBy", "score":"7720"}
{"id":"FEjZtrObJVb", "score":"7433"}
{"id":"CIQHLWj4bV3", "score":"6778"}
{"id":"B7OeXB4OGh1", "score":"5736"}
{"id":"H4c2rxofUnG", "score":"5663"}
{"id":"roY9d0u2NA", "score":"5391"}
{"id":"71iv2jZvtsU", "score":"5373"}
{"id":"CNlIZ19qqCt", "score":"5105"}
{"id":"7ew6lNxiMB3", "score":"4653"}
{"id":"80mcD7upmlQ", "score":"4534"}
{"id":"y5APvg81J7", "score":"4351"}
{"id":"BwVmaMkGnV", "score":"4312"}
{"id":"CyoVPp1VfeU", "score":"4176"}
{"id":"2SspWrX5YNj", "score":"3661"}
{"id":"1XmN9bu6zxM", "score":"3456"}
{"id":"BF4jP3wNNxf", "score":"3426"}
{"id":"1EZ3aJHUAN8", "score":"3375"}
{"id":"EBuyMyr5wN9", "score":"3272"}
{"id":"Bnvg2pCOO0K", "score":"3029"}
{"id":"BKfiMvfpHet", "score":"2970"}
{"id":"DMtwmS39DHy", "score":"2966"}
{"id":"GgcvhWzSqWg", "score":"2931"}
{"id":"3qYdbrh69Et", "score":"2712"}
{"id":"Jxm1t2v5jDA", "score":"2382"}
{"id":"Kot6Pxb3seb", "score":"2074"}
{"id":"FxFlG7ENe70", "score":"1975"}
{"id":"HdAUdZVpTKl", "score":"1956"}
{"id":"1aEkxT6yExn", "score":"1714"}
{"id":"D43Gt3chuHo", "score":"1702"}
{"id":"9Oyb2SmjJxN", "score":"1689"}
{"id":"Bx2O8KFJzju", "score":"1657"}
{"id":"783fG52EnLF", "score":"1652"}
{"id":"6ykOoGBCcGg", "score":"1262"}
{"id":"GqzX8rnijIY", "score":"1253"}
{"id":"GnrZpJfBoZz", "score":"1085"}
{"id":"3KdFpxVrqlr", "score":"1034"}
{"id":"EJyCLRtnq1K", "score":"1032"}
{"id":"43uNG5ljeYY", "score":"1032"}
{"id":"E4zZJXBtgcb", "score":"1029"}
{"id":"9h2nFQXSrZM", "score":"1002"}
{"id":"1rgYga4Yu0N", "score":"987"}
{"id":"JmGEqtog6FI", "score":"831"}
{"id":"AoJBhvxuBov", "score":"767"}
{"id":"BMzVhbzlrc8", "score":"561"}
{"id":"user_9", "score":"1"}
{"id":"user_8", "score":"1"}
{"id":"user_7", "score":"1"}
{"id":"user_6", "score":"1"}
{"id":"user_5", "score":"1"}
{"id":"user_4", "score":"1"}
{"id":"user_3", "score":"1"}
{"id":"user_2", "score":"1"}
{"id":"user_10", "score":"1"}
{"id":"user_1", "score":"1"}
{"id":"XHt1RuWOmc", "score":"0"}
{"id":"KBX4KnCdfKZ", "score":"0"}
{"id":"K5aAeb3f2G9", "score":"0"}
{"id":"IycZEsNtAUY", "score":"0"}
{"id":"InGJQpo5ITD", "score":"0"}
{"id":"GJwyVUIHOPR", "score":"0"}
{"id":"FuZSyiXbUdB", "score":"0"}
{"id":"EkDWw74zSIc", "score":"0"}
{"id":"ENfJMLJNrP3", "score":"0"}
{"id":"DHAh8cOcBGt", "score":"0"}
{"id":"C1piaLuIYED", "score":"0"}
{"id":"C0oQVNRlEbm", "score":"0"}
{"id":"BKAtcteS1gV", "score":"0"}
{"id":"AyHOGytxYL", "score":"0"}
{"id":"AkzAP7T0rS2", "score":"0"}
{"id":"8tRbUhWNAIf", "score":"0"}
{"id":"7goKmslMjH0", "score":"0"}
{"id":"7azyU9FV7BE", "score":"0"}
{"id":"7Spk1fEUXBP", "score":"0"}
{"id":"75jyRGDpo0y", "score":"0"}
{"id":"648JBdfnHjd", "score":"0"}
{"id":"5UEe5F1vlKf", "score":"0"}
{"id":"4nd4bfInErq", "score":"0"}
{"id":"3Nu4nwSPCaj", "score":"0"}
{"id":"2rMnBAHQZR1", "score":"0"}
{"id":"2kNyMHVPFhs", "score":"0"}
{"id":"1G4GSKjHrGt", "score":"0"}
