{"id":"ERLUWoo7V9f", "score":"57374"}
{"id":"4EPOSx3P19Z", "score":"38883"}
{"id":"AJjISXfCCog", "score":"30947"}
{"id":"CeLEdbdKqWf", "score":"21549"}
{"id":"1nTJfRFObIa", "score":"20216"}
{"id":"9FXYzG70CgI", "score":"19951"}
{"id":"7Ilkk9fyEb1", "score":"12813"}
{"id":"DIGxZWhjMjZ", "score":"12524"}
{"id":"5ZPMhu4eyTq", "score":"10851"}
{"id":"3TmmQGlhvMT", "score":"8884"}
{"id":"BpZbFjBvL9l", "score":"8831"}
{"id":"Fo90frNCT3Q", "score":"8187"}
{"id":"I39VKbToMLO", "score":"6729"}
{"id":"3gkXCHkLunZ", "score":"6384"}
{"id":"8z5uSsCP0hT", "score":"6038"}
{"id":"EEmyXgLwoY6", "score":"5794"}
{"id":"FBeYweUdFQe", "score":"5385"}
{"id":"JutBIezyXyN", "score":"5183"}
{"id":"84WuLygjQ9q", "score":"4678"}
{"id":"9yMYztatAkw", "score":"4496"}
{"id":"EhN0TTUlzf8", "score":"4394"}
{"id":"EZSemZ4UKiI", "score":"4027"}
{"id":"A4qix5yA1V2", "score":"3920"}
{"id":"AATD2kauZ6k", "score":"3915"}
{"id":"KrBuMSIzbVC", "score":"3400"}
{"id":"KgfLLY3Wk82", "score":"3311"}
{"id":"6LJuNP8uB9A", "score":"3147"}
{"id":"HXmSPa4dIgy", "score":"2987"}
{"id":"6n24cYub2UL", "score":"2921"}
{"id":"CJ3Ti2fizsk", "score":"2919"}
{"id":"etOHyjMtGN", "score":"2886"}
{"id":"KM54hWXiOq5", "score":"2697"}
{"id":"JeTNbMwFfbF", "score":"2554"}
{"id":"7lHGUdQbtKG", "score":"2429"}
{"id":"Lc45yqTTOhE", "score":"2292"}
{"id":"XcUHVq5yzb", "score":"2253"}
{"id":"IdrPtybwc3o", "score":"2184"}
{"id":"1S2EcfQbvoo", "score":"2071"}
{"id":"JAnmhe3KIwu", "score":"2005"}
{"id":"8T0FfdxNXah", "score":"1946"}
{"id":"K8IlAXgr3tt", "score":"1853"}
{"id":"3bUfMa1Scf5", "score":"1803"}
{"id":"1g99xEyK35h", "score":"1803"}
{"id":"5rFI6HItjv8", "score":"1709"}
{"id":"EaDZLhKbDgI", "score":"1643"}
{"id":"Esx1WKumjUQ", "score":"1634"}
{"id":"IsQ0T56Npjh", "score":"1537"}
{"id":"5jTmDr6w9R2", "score":"1518"}
{"id":"3K8JGO1sNgm", "score":"1437"}
{"id":"LmAdi5G2A0K", "score":"1311"}
{"id":"Bj4wKrj7L4R", "score":"1284"}
{"id":"BsD7vCyPpyv", "score":"1125"}
{"id":"7b1tPG54EPD", "score":"1067"}
{"id":"4m6doPfwUoy", "score":"1066"}
{"id":"Dm4QiRp7xVG", "score":"1060"}
{"id":"DpFwUC7RuYH", "score":"1050"}
{"id":"8FdzySUeBEm", "score":"1025"}
{"id":"D6tWyZBGhz4", "score":"1020"}
{"id":"269dv58Tj2s", "score":"1003"}
{"id":"LTPecTLJTtQ", "score":"990"}
{"id":"JSjI7lrZ8UR", "score":"988"}
{"id":"IqnkngWnNdi", "score":"981"}
{"id":"1rv1KglUviq", "score":"969"}
{"id":"1z46ribop7N", "score":"968"}
{"id":"8sw1rNlHdHS", "score":"960"}
{"id":"H7H0nVGlhyN", "score":"951"}
{"id":"CWH4ZQzyfaB", "score":"945"}
{"id":"4WhlVjdjQjG", "score":"942"}
{"id":"e4rciHBKtK", "score":"941"}
{"id":"HlYzoDSYlp6", "score":"923"}
{"id":"C4fszBfkNiD", "score":"884"}
{"id":"FnYqkvjkOhh", "score":"881"}
{"id":"Gl3ZL5SAjkr", "score":"877"}
{"id":"FWLjCWq0buM", "score":"876"}
{"id":"FEhWtZefOik", "score":"876"}
{"id":"8c07vSBSgTh", "score":"731"}
{"id":"LDts4qb4MCR", "score":"669"}
{"id":"KQyVjJVBqQL", "score":"470"}
{"id":"1cLnocS7PJJ", "score":"452"}
{"id":"Jf0HDii0PsJ", "score":"451"}
{"id":"7JGUifUEQ8p", "score":"446"}
{"id":"34hMFVDtSJA", "score":"443"}
{"id":"5kFvUa7p1fx", "score":"418"}
{"id":"LtKxcqMGdvh", "score":"410"}
{"id":"GckkaVnrzbE", "score":"402"}
{"id":"9ViKz7Eqo2Y", "score":"398"}
{"id":"A46v0vOrrG5", "score":"393"}
{"id":"HmjpAEpyaQk", "score":"369"}
{"id":"user_9", "score":"1"}
{"id":"user_8", "score":"1"}
{"id":"user_7", "score":"1"}
{"id":"user_6", "score":"1"}
{"id":"user_5", "score":"1"}
{"id":"user_4", "score":"1"}
{"id":"user_3", "score":"1"}
{"id":"user_2", "score":"1"}
{"id":"user_10", "score":"1"}
{"id":"user_1", "score":"1"}
{"id":"lGv95m4Pca", "score":"0"}
{"id":"LA6QmKTUau0", "score":"0"}
{"id":"Kv0pJgvakdZ", "score":"0"}
{"id":"Jp9j6aF3833", "score":"0"}
{"id":"JmBt4XOyEtL", "score":"0"}
{"id":"JYlBJeTVlff", "score":"0"}
{"id":"IaRQ7xIXuQh", "score":"0"}
{"id":"INwRmV3egBE", "score":"0"}
{"id":"IGCZwLOmYfM", "score":"0"}
{"id":"HuPyNufhi42", "score":"0"}
{"id":"HAEz4KNWuSZ", "score":"0"}
{"id":"GGeVaYtoYa7", "score":"0"}
{"id":"FXXXbeGCoLB", "score":"0"}
{"id":"F4AgdbGH1yZ", "score":"0"}
{"id":"EyEZ6kJPvEn", "score":"0"}
{"id":"Ew5y6faW4M5", "score":"0"}
{"id":"EcKNdD4cSsN", "score":"0"}
{"id":"EIOv5otD8MY", "score":"0"}
{"id":"EHoH0IAlcn9", "score":"0"}
{"id":"DrKShNqeOCC", "score":"0"}
{"id":"CrC5hhTHXgC", "score":"0"}
{"id":"Cp9O6Re1FnC", "score":"0"}
{"id":"CcltjyjcQyT", "score":"0"}
{"id":"AxO1q61LTw", "score":"0"}
{"id":"AVXzxZzHNOb", "score":"0"}
{"id":"9vAwPUye7jG", "score":"0"}
{"id":"9NQqoUfRiAK", "score":"0"}
{"id":"93KwH4JIhno", "score":"0"}
{"id":"8B5uQZcrayM", "score":"0"}
{"id":"84EohGPSfEr", "score":"0"}
{"id":"7emcGGgwTwf", "score":"0"}
{"id":"7emcGGgw9LS", "score":"0"}
{"id":"7ZHHJB8Sl20", "score":"0"}
{"id":"7PBdTFZIR36", "score":"0"}
{"id":"7COwYDlKlQQ", "score":"0"}
{"id":"6XBgOykUC3M", "score":"0"}
{"id":"5dpjUEQyR2o", "score":"0"}
{"id":"4yaQBCR5mzC", "score":"0"}
{"id":"3ZtV4CZeM9y", "score":"0"}
{"id":"3UO7GTtwejx", "score":"0"}
{"id":"19DEVRon0l9", "score":"0"}
{"id":"1734SijFJeQ", "score":"0"}
