{"id":"35AWG5SpAg4", "score":"75415"}
{"id":"84uuaNWZD3j", "score":"30175"}
{"id":"914dH2ZRfhh", "score":"29001"}
{"id":"HYVW5Aq7ROz", "score":"22016"}
{"id":"1I8Zz65V97G", "score":"21638"}
{"id":"64L1ahhKAhA", "score":"18965"}
{"id":"9HdgeF5fsbl", "score":"17283"}
{"id":"Arlq8yY34GC", "score":"16589"}
{"id":"KsM1bT1mklM", "score":"15707"}
{"id":"328XbwV5WbK", "score":"8610"}
{"id":"3D8tQtiwdkt", "score":"8430"}
{"id":"9UXb8sYfPZh", "score":"7978"}
{"id":"5GS8SU0HfgW", "score":"7832"}
{"id":"3YQMEbjaMtd", "score":"6954"}
{"id":"6mldE4C4oEc", "score":"6619"}
{"id":"KONovmzYGHn", "score":"6536"}
{"id":"A6WjwCE69VL", "score":"6403"}
{"id":"EKaRPIHxobE", "score":"6358"}
{"id":"Jzy9xqy5Bpb", "score":"6273"}
{"id":"62aikk9I5xI", "score":"5904"}
{"id":"Ez2yjDdrqAP", "score":"5304"}
{"id":"6yrJyr1H2Es", "score":"5127"}
{"id":"Dh5TRN6CLTK", "score":"4852"}
{"id":"CimYZp7KV2l", "score":"4837"}
{"id":"8NmW6XwG7wg", "score":"4234"}
{"id":"JfG9w4QaapC", "score":"4135"}
{"id":"JCT7Lxk8uEc", "score":"3908"}
{"id":"9H8Bj3pUcpm", "score":"3642"}
{"id":"72XE9n266ZC", "score":"3320"}
{"id":"HzPfKCBXm7L", "score":"3058"}
{"id":"BrRHDtzWf5N", "score":"2999"}
{"id":"CAD5aghO2KF", "score":"2803"}
{"id":"CsmCT799kBe", "score":"2643"}
{"id":"IobJ8NrWxbd", "score":"2532"}
{"id":"5eGjOm42gnh", "score":"2466"}
{"id":"DP3qWET0dZD", "score":"2335"}
{"id":"ICrMdT23re5", "score":"2267"}
{"id":"Hpm8pg8V8Oa", "score":"2153"}
{"id":"FPBMmxL0znE", "score":"2094"}
{"id":"42hFczEEZFE", "score":"2015"}
{"id":"24XHjhMiZKm", "score":"1935"}
{"id":"5KbZ8VnSK1z", "score":"1905"}
{"id":"K9r2XYZjJdf", "score":"1867"}
{"id":"7AD5yQdLq5y", "score":"1848"}
{"id":"6s5yBVPOV9l", "score":"1829"}
{"id":"GvZDtv8Zasg", "score":"1776"}
{"id":"CSl0fJqODK3", "score":"1756"}
{"id":"J6OGml7i8wY", "score":"1742"}
{"id":"D6sL3i6DyRE", "score":"1682"}
{"id":"I8SMH59O3AY", "score":"1655"}
{"id":"JtoeHFZfvqE", "score":"1650"}
{"id":"FJ38dcuywGt", "score":"1605"}
{"id":"9frTHRcJSar", "score":"1555"}
{"id":"v0tu6J7h1f", "score":"1509"}
{"id":"Dgga9gkydNU", "score":"1337"}
{"id":"E2ITFnKqK0v", "score":"1334"}
{"id":"8icVdkCXsNr", "score":"1290"}
{"id":"JyZuNRY40bC", "score":"1198"}
{"id":"3gYOV18j8a1", "score":"1194"}
{"id":"6CXZuWdO0cL", "score":"1184"}
{"id":"5pXE6w1gxxc", "score":"1178"}
{"id":"LrzJXAzH2vN", "score":"1054"}
{"id":"IlOLuCEApFl", "score":"1030"}
{"id":"HsuK6xUdCmt", "score":"1017"}
{"id":"JUSzcU3b5nE", "score":"1005"}
{"id":"4KMnqbFXqpu", "score":"1003"}
{"id":"H01KRV1fNEa", "score":"999"}
{"id":"149jEGAZLLC", "score":"987"}
{"id":"Kh5HWkbN3c", "score":"966"}
{"id":"86d1H1TaKhu", "score":"965"}
{"id":"KCCGCOMMGgd", "score":"963"}
{"id":"HrnOdvZwOnd", "score":"948"}
{"id":"HHKyHEuDGGg", "score":"916"}
{"id":"FbbArHu36qy", "score":"909"}
{"id":"CuH5FFZ7Itc", "score":"907"}
{"id":"9gIFdQ4wHsX", "score":"886"}
{"id":"4gkB5zXezdc", "score":"878"}
{"id":"GfQJ6nLNFGE", "score":"857"}
{"id":"9cpmrC7wyY0", "score":"844"}
{"id":"D6XsXWjurSu", "score":"843"}
{"id":"9L7BHliWgs6", "score":"843"}
{"id":"1LhS0ATMvwh", "score":"831"}
{"id":"9nxxqiWm5ee", "score":"825"}
{"id":"6RIFS5bFi1P", "score":"823"}
{"id":"FFvoC4yxgw1", "score":"776"}
{"id":"BbjuLizR5LD", "score":"711"}
{"id":"54YtA4Zw2Y2", "score":"676"}
{"id":"IKfsGG40FvX", "score":"649"}
{"id":"JXbVSXyiTUu", "score":"599"}
{"id":"GSyLarx0dvy", "score":"519"}
{"id":"5N1AbQsrOkC", "score":"519"}
{"id":"6naXXMNMjzc", "score":"471"}
{"id":"CXvkX3Fj1py", "score":"468"}
{"id":"6CBcC4TlqRY", "score":"448"}
{"id":"JKTBBF9u97m", "score":"438"}
{"id":"9XkZ4Cr7ZVS", "score":"435"}
{"id":"user_9", "score":"1"}
{"id":"user_8", "score":"1"}
{"id":"user_7", "score":"1"}
{"id":"user_6", "score":"1"}
{"id":"user_5", "score":"1"}
{"id":"user_4", "score":"1"}
{"id":"user_3", "score":"1"}
{"id":"user_2", "score":"1"}
{"id":"user_10", "score":"1"}
{"id":"user_1", "score":"1"}
{"id":"LmzN9Er6XHL", "score":"0"}
{"id":"KfRO7a5h2EU", "score":"0"}
{"id":"Ke8HHVduTen", "score":"0"}
{"id":"KK9OKaO6hTp", "score":"0"}
{"id":"K9Y3Oh1cRPZ", "score":"0"}
{"id":"K7QY5BTDV5o", "score":"0"}
{"id":"JYcZlz7vKbp", "score":"0"}
{"id":"JMhb9shaXV7", "score":"0"}
{"id":"JGkU2uDVRX9", "score":"0"}
{"id":"J62V5VnM8oz", "score":"0"}
{"id":"IzaKfpUJ3HX", "score":"0"}
{"id":"IVGj3Ryjk2q", "score":"0"}
{"id":"IHxmJ7OYE8b", "score":"0"}
{"id":"HRIbzPnnpMl", "score":"0"}
{"id":"GCOB2Po6naH", "score":"0"}
{"id":"F2wAd8yabhp", "score":"0"}
{"id":"Ew1J4U0n21H", "score":"0"}
{"id":"Dg87Uk4YeaI", "score":"0"}
{"id":"DQ1nUm9SUjK", "score":"0"}
{"id":"Bls85JSoYBp", "score":"0"}
{"id":"BTc4NeoK7H4", "score":"0"}
{"id":"Aqoqu9GXJ9h", "score":"0"}
{"id":"9q7JWBrI7gi", "score":"0"}
{"id":"9kqAYkrWhr8", "score":"0"}
{"id":"9e9ilIVr4MS", "score":"0"}
{"id":"9AxXWjiiZl9", "score":"0"}
{"id":"97wCfXUPQMa", "score":"0"}
{"id":"7iZnNxfvHnF", "score":"0"}
{"id":"6QBxdnaABbb", "score":"0"}
{"id":"68oCoxnx3CN", "score":"0"}
{"id":"5HjyTIHPEB1", "score":"0"}
{"id":"3LO7bNvvyT4", "score":"0"}
{"id":"1NekU99zgsE", "score":"0"}
{"id":"1Aet8HbYoc2", "score":"0"}
