{"id":"1Xm2D7zLuMo", "score":"4300551"}
{"id":"F329sCmjN8u", "score":"2442995"}
{"id":"E6Je68tzv1Y", "score":"1815452"}
{"id":"ACA26G85JM", "score":"1727323"}
{"id":"E2eikDqfRGf", "score":"1649504"}
{"id":"2kTN9hh7RgV", "score":"1568467"}
{"id":"7w7IZGzjUmn", "score":"1511992"}
{"id":"KONCv2ItRCA", "score":"1505680"}
{"id":"ADb5ndv8RhB", "score":"1493513"}
{"id":"9fhKifG7wQi", "score":"1411247"}
{"id":"5mS6pzTm6Wt", "score":"1060911"}
{"id":"8JRlxnvajuv", "score":"1034660"}
{"id":"C6MK5PVMRFx", "score":"1029693"}
{"id":"2Stwnfahe2r", "score":"1002441"}
{"id":"aP2WxX1F9c", "score":"999709"}
{"id":"7PS8R1ZGDGQ", "score":"984345"}
{"id":"19P6ZYaRvf9", "score":"941435"}
{"id":"2d8KsFvjMFd", "score":"903363"}
{"id":"9us6xmaYDfP", "score":"903073"}
{"id":"Ddr9ue0CWLj", "score":"895854"}
{"id":"5A8uZcqxqD6", "score":"887792"}
{"id":"2NbVN9XKlyt", "score":"883669"}
{"id":"4Gz7pTY6BJE", "score":"866180"}
{"id":"1TJQTgzQ14w", "score":"853198"}
{"id":"6HyAzupYIwS", "score":"786717"}
{"id":"4ChNPwFz2O3", "score":"761900"}
{"id":"IgNeeAy3gm9", "score":"728876"}
{"id":"75U5eoLQkRQ", "score":"725649"}
{"id":"8BQQir5FW25", "score":"725188"}
{"id":"FZY06twig8o", "score":"717541"}
{"id":"5ZCOoOAoc2q", "score":"709384"}
{"id":"GtLCoWKgoNL", "score":"704803"}
{"id":"AKlRJmSPDox", "score":"689093"}
{"id":"5HqGB5kPUQ6", "score":"665520"}
{"id":"LA8pmmOiq91", "score":"662641"}
{"id":"LwLUz6x8xa8", "score":"640173"}
{"id":"3r04u0dtVup", "score":"622706"}
{"id":"3ZTbSdZuQyP", "score":"609626"}
{"id":"9dL403zizPi", "score":"581181"}
{"id":"5J6wecoxpYd", "score":"577528"}
{"id":"GOfFfJx3ZfE", "score":"569843"}
{"id":"2CTsr0UpGpp", "score":"548292"}
{"id":"JEaqZNdGH0Q", "score":"520942"}
{"id":"59zCNTKBtIE", "score":"503547"}
{"id":"JJTWjUpckBL", "score":"493508"}
{"id":"F4b47FQe3uj", "score":"491731"}
{"id":"DzJDdkACTn3", "score":"454423"}
{"id":"Bp1JVh8RVpV", "score":"449153"}
{"id":"FI6PeS0KXT8", "score":"433015"}
{"id":"LHMc0u3ZXJW", "score":"424392"}
{"id":"2jgx7PPoKKs", "score":"409912"}
{"id":"Kzvpkeqn9vE", "score":"403283"}
{"id":"EyI7RGPA5ob", "score":"379005"}
{"id":"FNKADDpJt8f", "score":"367706"}
{"id":"IDZ4UmUwGg0", "score":"366381"}
{"id":"GsSedC6lft2", "score":"333172"}
{"id":"8ywWEnTmIs0", "score":"307968"}
{"id":"5cTCp0NCQqe", "score":"284897"}
{"id":"BmKz8EbrBT3", "score":"266307"}
{"id":"4tejLs40EXk", "score":"240257"}
{"id":"8hfQQIpijsD", "score":"234621"}
{"id":"Jy6oFleML3B", "score":"220171"}
{"id":"Eb2gu79Mja5", "score":"204352"}
{"id":"9vRAtcYU8MF", "score":"185543"}
{"id":"GrTgThGFBLM", "score":"180934"}
{"id":"6dXNrEJKEyl", "score":"177763"}
{"id":"KcEH6hdb9H3", "score":"174015"}
{"id":"I4NdWiJXeVY", "score":"153879"}
{"id":"764esCullh3", "score":"148738"}
{"id":"LLA2LVUFGZf", "score":"148649"}
{"id":"DPQ92qEJglk", "score":"147382"}
{"id":"2xMkf6b3zCg", "score":"143694"}
{"id":"FJTti4OjZSL", "score":"143043"}
{"id":"8yDADaDOTtb", "score":"122924"}
{"id":"GhpDrcA52gs", "score":"113785"}
{"id":"GS05XZWYNN4", "score":"111831"}
{"id":"K8OusEsFIoO", "score":"110297"}
{"id":"FdDwXBznENl", "score":"80715"}
{"id":"Ed9w0qwyrzM", "score":"63881"}
{"id":"NXMnG5ACwp", "score":"58520"}
{"id":"Leu26gVadWm", "score":"57471"}
{"id":"I5c8F9DxvJQ", "score":"55857"}
{"id":"7hUJmDgky7r", "score":"52624"}
{"id":"2thrB7HsDff", "score":"50021"}
{"id":"Hrf76ADgv7J", "score":"49961"}
{"id":"GG9S3PjtD8v", "score":"49057"}
{"id":"LGby8XuIgk1", "score":"47990"}
{"id":"Jrs0akVdyTK", "score":"36714"}
{"id":"3Uau5sw9zrp", "score":"32792"}
{"id":"LrnPUCdvxPG", "score":"31882"}
{"id":"5puhL0Sm5Ei", "score":"30081"}
{"id":"BfzXdA12XDf", "score":"29730"}
{"id":"CDoqpPR8Q4s", "score":"29593"}
{"id":"7mfGPjouUrm", "score":"28857"}
{"id":"2xPGiGmoAkU", "score":"28284"}
{"id":"4qX4b8Ma94h", "score":"24027"}
{"id":"ILiLfbDqyY", "score":"22260"}
{"id":"D6dioGxccUf", "score":"18852"}
{"id":"7O8OgwBEiu0", "score":"18301"}
{"id":"4CPSxw7jaIV", "score":"17501"}
{"id":"HtASgjtewqe", "score":"17460"}
{"id":"EhYocmhPSVC", "score":"15316"}
{"id":"4z8Q5z1Y6Z4", "score":"15177"}
{"id":"FeEhVd1GuOi", "score":"14288"}
{"id":"9Pxd2PKVWTN", "score":"13143"}
{"id":"6G5It08mRwj", "score":"13030"}
{"id":"IZbmUnVT027", "score":"11191"}
{"id":"FCpsDDSfiPE", "score":"10512"}
{"id":"3amXh7Y2o7B", "score":"9981"}
{"id":"DAxlSYpxom2", "score":"9632"}
{"id":"4eWda0IEvFw", "score":"8086"}
{"id":"BvWoy2CUgsk", "score":"7159"}
{"id":"7n6RGOLyL0O", "score":"6451"}
{"id":"GXwCWMszZTd", "score":"6040"}
{"id":"EEQdh6IRQu2", "score":"4483"}
{"id":"8xompOLIdgI", "score":"3759"}
{"id":"4IsEbSRF8fh", "score":"3315"}
{"id":"LKNkjOXBGAI", "score":"3274"}
{"id":"EoloAV3aiDa", "score":"2599"}
{"id":"HV5HQWnszjc", "score":"2529"}
{"id":"Hr8pMVQ43Uz", "score":"2526"}
{"id":"qnuX4K0wHq", "score":"2499"}
{"id":"8X446cfHqgR", "score":"2260"}
{"id":"8EdmhTuQ2ij", "score":"2015"}
{"id":"HZVU3XWld7w", "score":"1642"}
{"id":"6zylRmw7gtj", "score":"1117"}
{"id":"4yLyKwpxJ2Z", "score":"1054"}
{"id":"L4B1V8bYcbx", "score":"1009"}
{"id":"JozF1VKBRZp", "score":"1009"}
{"id":"6t0FDdzLGQe", "score":"995"}
{"id":"ISLN5Ec7zWp", "score":"963"}
{"id":"2BkmUXfTs9F", "score":"696"}
{"id":"13z9k9I7mQK", "score":"532"}
{"id":"8FNp10j8dFN", "score":"522"}
{"id":"user_9", "score":"1"}
{"id":"user_8", "score":"1"}
{"id":"user_7", "score":"1"}
{"id":"user_6", "score":"1"}
{"id":"user_5", "score":"1"}
{"id":"user_4", "score":"1"}
{"id":"user_3", "score":"1"}
{"id":"user_2", "score":"1"}
{"id":"user_10", "score":"1"}
{"id":"user_1", "score":"1"}
{"id":"EYYzIUelFVh", "score":"0"}
{"id":"EQMGfRMUCFb", "score":"0"}
{"id":"B0EC9MGcQ61", "score":"0"}
{"id":"5PgyzfLE4Ja", "score":"0"}
{"id":"2WxC5n0xvvl", "score":"0"}
{"id":"17yGk2EUx9q", "score":"0"}
