{"id":"9aCuIEylPbe", "score":"2408976"}
{"id":"Cd9JYJ7tg8E", "score":"2046234"}
{"id":"25f3eVBBkhl", "score":"1338534"}
{"id":"HNTgYqa9E4w", "score":"983411"}
{"id":"5cTCp0NCQqe", "score":"771239"}
{"id":"7w7IZGzjUmn", "score":"353042"}
{"id":"Leu26gVadWm", "score":"306470"}
{"id":"8tslPiyB6dv", "score":"259405"}
{"id":"7d4GJhYrCC9", "score":"229618"}
{"id":"B5OPTQuEbfN", "score":"217829"}
{"id":"AR9BVVEYqVa", "score":"210647"}
{"id":"2d8KsFvjMFd", "score":"197887"}
{"id":"KO6E2HzPtlB", "score":"195931"}
{"id":"8EzvNV21kMY", "score":"190203"}
{"id":"5JyjGmZXw8y", "score":"180855"}
{"id":"ACA26G85JM", "score":"152903"}
{"id":"C9IFjIXybPX", "score":"136485"}
{"id":"LDFHGtiP6ta", "score":"135354"}
{"id":"JfWDyoyQef8", "score":"129194"}
{"id":"CDoqpPR8Q4s", "score":"128559"}
{"id":"AwHEBztDESN", "score":"119902"}
{"id":"1TJQTgzQ14w", "score":"118169"}
{"id":"A131C7cINPC", "score":"89169"}
{"id":"5mzWcOuZYcM", "score":"84424"}
{"id":"LHMc0u3ZXJW", "score":"80067"}
{"id":"6uUCn8CJcIi", "score":"68190"}
{"id":"8N6YmzutkBe", "score":"66454"}
{"id":"FNKADDpJt8f", "score":"66028"}
{"id":"FdDwXBznENl", "score":"64140"}
{"id":"8hfQQIpijsD", "score":"62432"}
{"id":"3eujU2BSpsE", "score":"59919"}
{"id":"7FoTspqIGRK", "score":"58171"}
{"id":"IjJM9QYVp8o", "score":"53175"}
{"id":"AAIuzUXykjA", "score":"50073"}
{"id":"4pIRwAGVsP8", "score":"46718"}
{"id":"I23IfYf9Wiu", "score":"46321"}
{"id":"9tEVqbPjwAM", "score":"43475"}
{"id":"Jvkng3vaDKp", "score":"41876"}
{"id":"HZQQaDarqtp", "score":"37411"}
{"id":"1fo8P10Feh3", "score":"33363"}
{"id":"20GhhPd2MJS", "score":"31552"}
{"id":"Lf1f80yVEV9", "score":"29534"}
{"id":"9e5xo3iAvE1", "score":"27954"}
{"id":"4ChNPwFz2O3", "score":"25296"}
{"id":"70BSvZdkVTM", "score":"25161"}
{"id":"815f7MJQo2L", "score":"20721"}
{"id":"24Y4Ox7fwMb", "score":"19955"}
{"id":"GDe5xtQptAk", "score":"19610"}
{"id":"ADb5ndv8RhB", "score":"19455"}
{"id":"7O8OgwBEiu0", "score":"16574"}
{"id":"BzaeMjSqBD0", "score":"15681"}
{"id":"8yDA8J0Gtdq", "score":"15048"}
{"id":"IsszaldFLuQ", "score":"14042"}
{"id":"Aa7l5Vd3QMA", "score":"13838"}
{"id":"19P6ZYaRvf9", "score":"12929"}
{"id":"I9fYzE5rog5", "score":"11851"}
{"id":"Lbl7JjLYfsm", "score":"11821"}
{"id":"187SeBfNSU0", "score":"11670"}
{"id":"B4JguxuKf8s", "score":"11643"}
{"id":"C6OCYpn38fL", "score":"10901"}
{"id":"7NaFvHf8HZ3", "score":"10617"}
{"id":"6HyAzupYIwS", "score":"10237"}
{"id":"Bo2SIGnKxXD", "score":"9569"}
{"id":"2Mtv5XDu9Uq", "score":"9241"}
{"id":"In8nWCOsliQ", "score":"9163"}
{"id":"JR5IYIBAf3U", "score":"9107"}
{"id":"6nNWLzLcSTL", "score":"7336"}
{"id":"5Exu3rw9vt6", "score":"3963"}
{"id":"4CPSxw7jaIV", "score":"3720"}
{"id":"CDmytaCuugE", "score":"3398"}
{"id":"Alf6kFdZUT", "score":"2200"}
{"id":"GK8ThOqHnoQ", "score":"2006"}
{"id":"GsSedC6lft2", "score":"1454"}
{"id":"I4NdWiJXeVY", "score":"1408"}
{"id":"CCKXgecBjPz", "score":"994"}
{"id":"F4b47FQe3uj", "score":"880"}
{"id":"EDTzrLSjXcu", "score":"823"}
{"id":"JBD3D724FnM", "score":"634"}
{"id":"9ysiLRTf7He", "score":"412"}
{"id":"Cr7VZvbS68s", "score":"14"}
{"id":"user_9", "score":"1"}
{"id":"user_8", "score":"1"}
{"id":"user_7", "score":"1"}
{"id":"user_6", "score":"1"}
{"id":"user_5", "score":"1"}
{"id":"user_4", "score":"1"}
{"id":"user_3", "score":"1"}
{"id":"user_2", "score":"1"}
{"id":"user_10", "score":"1"}
{"id":"user_1", "score":"1"}
{"id":"cd3TJaLQWI", "score":"0"}
{"id":"JPCk67i3N1S", "score":"0"}
{"id":"J156QEHc6le", "score":"0"}
{"id":"E4reuPGdVO6", "score":"0"}
{"id":"BvWoy2CUgsk", "score":"0"}
{"id":"Bu2P6A0NPKW", "score":"0"}
{"id":"8hW1Zbi8X5s", "score":"0"}
{"id":"7c5u5kIOnL9", "score":"0"}
{"id":"7BHmAy6UxdV", "score":"0"}
{"id":"67GGMFO3sPQ", "score":"0"}
{"id":"4z8Q5z1Y6Z4", "score":"0"}
{"id":"2BkmUXfTs9F", "score":"0"}
{"id":"1I99Cyh4OFT", "score":"0"}
