{"id":"9dYpFxZ8Q7L", "score":"550239"}
{"id":"8X3afjrVZlB", "score":"518002"}
{"id":"4SYVWttyot2", "score":"374242"}
{"id":"41x4OZNRWxd", "score":"53992"}
{"id":"9NKDvGB1arb", "score":"37387"}
{"id":"4o1HfYLCDaR", "score":"33456"}
{"id":"1lvNZu0AblS", "score":"5803"}
{"id":"oG5pjt1Jq6", "score":"4548"}
{"id":"E3QLZhLyVWY", "score":"3042"}
{"id":"lyOcRUCOyj", "score":"1474"}
{"id":"4XY4QZsKpfL", "score":"175"}
{"id":"user_9", "score":"1"}
{"id":"user_8", "score":"1"}
{"id":"user_7", "score":"1"}
{"id":"user_6", "score":"1"}
{"id":"user_5", "score":"1"}
{"id":"user_4", "score":"1"}
{"id":"user_3", "score":"1"}
{"id":"user_2", "score":"1"}
{"id":"user_10", "score":"1"}
{"id":"user_1", "score":"1"}
{"id":"Kstjh3ywqsy", "score":"0"}
{"id":"Hk9cYDyQR38", "score":"0"}
{"id":"EuABHBN6mmg", "score":"0"}
{"id":"DGwbZTVa5zF", "score":"0"}
{"id":"C1oF1RTZgJR", "score":"0"}
{"id":"BmmWQvNnMuw", "score":"0"}
{"id":"7at03OBur1b", "score":"0"}
{"id":"2sskPL4Japk", "score":"0"}
