{"id":"GAqbjsTuM5i", "score":"67246"}
{"id":"JAItAjmPeYO", "score":"10117"}
{"id":"3kZdtc9OD4G", "score":"7113"}
{"id":"48hJrpEMSku", "score":"6551"}
{"id":"J3cxryemJvE", "score":"3888"}
{"id":"9rhhz6dneKe", "score":"1889"}
{"id":"4uDi20f31VT", "score":"1320"}
{"id":"CMKH1i8AbIO", "score":"1170"}
{"id":"7kIMlr0yDEW", "score":"871"}
{"id":"DuAYBaEIAYI", "score":"587"}
{"id":"5DcPS2CJJsJ", "score":"529"}
{"id":"2f2Mz5wJ9I0", "score":"523"}
{"id":"IoUgyBwoF5Z", "score":"403"}
{"id":"2yiqZakCaDx", "score":"399"}
{"id":"33wz6xmqk1x", "score":"326"}
{"id":"FFjb2QcfSI2", "score":"305"}
{"id":"6ATcWhKzbnM", "score":"269"}
{"id":"84aEjv97kay", "score":"249"}
{"id":"1Gzm2sW4amr", "score":"201"}
{"id":"97XIsCPEFo", "score":"197"}
{"id":"Jzj5uKJtGcf", "score":"189"}
{"id":"I0X6pQZjrfv", "score":"176"}
{"id":"CKpYVosObyN", "score":"153"}
{"id":"6KwSBEwOngm", "score":"123"}
{"id":"AAU3qXfPFEO", "score":"112"}
{"id":"EOvUUdqWSUe", "score":"107"}
{"id":"Em43euQJSE2", "score":"72"}
{"id":"1pR0wTeLCUe", "score":"70"}
{"id":"2EjvphfBPGo", "score":"63"}
{"id":"9n5moRJFzpu", "score":"61"}
{"id":"8AeZolNvpcm", "score":"50"}
{"id":"7N8JpNtE4dq", "score":"36"}
{"id":"DVWp7Vh7tGl", "score":"28"}
{"id":"2J9dgVaQWFU", "score":"28"}
{"id":"user_9", "score":"1"}
{"id":"user_8", "score":"1"}
{"id":"user_7", "score":"1"}
{"id":"user_6", "score":"1"}
{"id":"user_5", "score":"1"}
{"id":"user_4", "score":"1"}
{"id":"user_3", "score":"1"}
{"id":"user_2", "score":"1"}
{"id":"user_10", "score":"1"}
{"id":"user_1", "score":"1"}
{"id":"oD1hsengl9", "score":"0"}
{"id":"LqgJDgFdq2h", "score":"0"}
{"id":"Kt8070lPfaX", "score":"0"}
{"id":"KFcCSIeFBwP", "score":"0"}
{"id":"K7M2kLZqdpF", "score":"0"}
{"id":"JO0sshicYm", "score":"0"}
{"id":"Ii4k3ojAXcP", "score":"0"}
{"id":"IM6PwHyUecA", "score":"0"}
{"id":"GzXs3EJFdu0", "score":"0"}
{"id":"FRHMmbitQRA", "score":"0"}
{"id":"EpJohgfva4w", "score":"0"}
{"id":"E6WKoByf0uE", "score":"0"}
{"id":"E591gzRegaJ", "score":"0"}
{"id":"CJdlsHOFKJG", "score":"0"}
{"id":"B9zZODzCRPM", "score":"0"}
{"id":"Atvoj8MzCPt", "score":"0"}
{"id":"AgeY7WLn1Fj", "score":"0"}
{"id":"9Iv8bQFogdr", "score":"0"}
{"id":"7vd3w3VeoLC", "score":"0"}
{"id":"6G9viXhjSJ2", "score":"0"}
{"id":"5keOIz6HhDo", "score":"0"}
{"id":"5RG1tpfIZHK", "score":"0"}
{"id":"52ZmW9IPZQL", "score":"0"}
{"id":"4aiVOKL0TQg", "score":"0"}
{"id":"4QMSMsDECJf", "score":"0"}
{"id":"3pOniTujCDh", "score":"0"}
{"id":"1VleJ6THu6G", "score":"0"}
