{"id":"DAUe8jUFSKh", "score":"2101802"}
{"id":"It9h92WH7jj", "score":"526719"}
{"id":"ASbFqCc55vy", "score":"518097"}
{"id":"4J11h4QfRWs", "score":"217676"}
{"id":"KhdoKUoI8q4", "score":"189362"}
{"id":"L80gHKzrGnj", "score":"161173"}
{"id":"8RBIgPiGXbl", "score":"116206"}
{"id":"4oAsdrPQzNj", "score":"107268"}
{"id":"ECDjKesB8JD", "score":"95919"}
{"id":"4NKEDf67MjE", "score":"90646"}
{"id":"6V8p61ChwlL", "score":"86552"}
{"id":"BXzPA8E5E1c", "score":"85663"}
{"id":"4zbT0IjyTiU", "score":"64650"}
{"id":"5fn3FPb5wfG", "score":"58251"}
{"id":"LkkLErFytiN", "score":"54025"}
{"id":"JRldu8slhzg", "score":"51079"}
{"id":"HaAk0CqqBoC", "score":"48103"}
{"id":"1KpWGrD1gin", "score":"38712"}
{"id":"kvV9wMtDAC", "score":"32906"}
{"id":"3zHl7cRbspB", "score":"32048"}
{"id":"JT2WcfzJ4ZQ", "score":"29244"}
{"id":"C4PuR27OdGy", "score":"29081"}
{"id":"3RgaQstiOnF", "score":"24722"}
{"id":"9WPY7x8B1QP", "score":"23727"}
{"id":"122vn01vsRz", "score":"23546"}
{"id":"2hePGZpB5TP", "score":"23011"}
{"id":"9oKoRCBkbfE", "score":"21766"}
{"id":"30d8UlW2VG1", "score":"21685"}
{"id":"8jFnplKVXZh", "score":"21333"}
{"id":"AhBcl2wEd4a", "score":"20069"}
{"id":"L0EoxoG8sIa", "score":"17941"}
{"id":"Aa6AxnYRT8n", "score":"17244"}
{"id":"Dx2N3HrelLM", "score":"12272"}
{"id":"Ly0mK8m97pj", "score":"12079"}
{"id":"76BFCN1iOuQ", "score":"12022"}
{"id":"2dILeALCEmo", "score":"11629"}
{"id":"Gy4PlGkGm5q", "score":"8317"}
{"id":"Jwqs6mTQLA9", "score":"7495"}
{"id":"CQLwbk3TNV", "score":"6718"}
{"id":"3qykXTB2yz9", "score":"4400"}
{"id":"6LITH0NaX56", "score":"3163"}
{"id":"Gls7PcoLGZi", "score":"3013"}
{"id":"J79DAgLVB1A", "score":"2755"}
{"id":"IzgAO87hElZ", "score":"2306"}
{"id":"7yskpmtK4Jf", "score":"2293"}
{"id":"8fbxLNTVZGv", "score":"2230"}
{"id":"JPlYcp6Qthj", "score":"1464"}
{"id":"CfD4YCzIs84", "score":"1215"}
{"id":"CwvRrruvbDp", "score":"1061"}
{"id":"1t2z8voNwPo", "score":"989"}
{"id":"y5APvg81J7", "score":"964"}
{"id":"4ouIhpROzNE", "score":"856"}
{"id":"3gTNG2M3NfV", "score":"849"}
{"id":"HRPNex6wdbm", "score":"759"}
{"id":"LAcjdMKNE89", "score":"741"}
{"id":"JwP3G53kysx", "score":"469"}
{"id":"DzehxgcTqUV", "score":"428"}
{"id":"8PNlDK0lscV", "score":"357"}
{"id":"A48LYZVTiPK", "score":"353"}
{"id":"Lj1KUVfR4il", "score":"320"}
{"id":"An3qV5D2NfA", "score":"300"}
{"id":"7j6gVkHiKlc", "score":"290"}
{"id":"L4Rv0snzY5X", "score":"260"}
{"id":"BaGquLPzj9P", "score":"220"}
{"id":"Avg9Q8G2Lrm", "score":"74"}
{"id":"user_9", "score":"1"}
{"id":"user_8", "score":"1"}
{"id":"user_7", "score":"1"}
{"id":"user_6", "score":"1"}
{"id":"user_5", "score":"1"}
{"id":"user_4", "score":"1"}
{"id":"user_3", "score":"1"}
{"id":"user_2", "score":"1"}
{"id":"user_10", "score":"1"}
{"id":"user_1", "score":"1"}
{"id":"KcsKkyVEzlD", "score":"0"}
{"id":"KQfZtkM1LpE", "score":"0"}
{"id":"KQJuVF9KQC7", "score":"0"}
{"id":"KNWyS2QbwFh", "score":"0"}
{"id":"KDVBWSvo2Of", "score":"0"}
{"id":"JntltVmaVTe", "score":"0"}
{"id":"J76McEptwwG", "score":"0"}
{"id":"HHZa2RdnJo", "score":"0"}
{"id":"G71kT2uqIsS", "score":"0"}
{"id":"EvHo79db58S", "score":"0"}
{"id":"Dy4EAzWuoT3", "score":"0"}
{"id":"DfVRq2LbzAU", "score":"0"}
{"id":"DYPehVhqxwX", "score":"0"}
{"id":"D3jYLFAl28Q", "score":"0"}
{"id":"D1VyllhAGKF", "score":"0"}
{"id":"AbhFpumlXKN", "score":"0"}
{"id":"8m3kTpkNdSK", "score":"0"}
{"id":"8YBL8MWnn6K", "score":"0"}
{"id":"6Rzz9Ziig2G", "score":"0"}
{"id":"66vfYCZbWAO", "score":"0"}
{"id":"5HBxfrHLEOD", "score":"0"}
{"id":"4hwgvis8Swc", "score":"0"}
{"id":"4ab09IKI5eL", "score":"0"}
{"id":"4YejeNNhyUp", "score":"0"}
{"id":"2j1LfKvdjka", "score":"0"}
{"id":"2bZqDwASXbM", "score":"0"}
{"id":"2KB6JUXgpqs", "score":"0"}
