{"id":"18W1NQxuO7w", "score":"6705722"}
{"id":"2hjso2JE1kT", "score":"5435868"}
{"id":"4bXAT3tOltN", "score":"4651994"}
{"id":"6lKlHn7zSsj", "score":"4569830"}
{"id":"5KTHy7w59gy", "score":"4385183"}
{"id":"5srIC0DEsNI", "score":"4182573"}
{"id":"CplrIdVajwj", "score":"3379371"}
{"id":"EgXnJrHhR6h", "score":"3135579"}
{"id":"246j3EqHUdr", "score":"2283023"}
{"id":"CP3xkfET6E3", "score":"2133959"}
{"id":"3kYdw37rv5h", "score":"1457280"}
{"id":"DsDVDrwiy9v", "score":"1447827"}
{"id":"96a1BWcnGVI", "score":"1320559"}
{"id":"3zgudbdao1K", "score":"1115485"}
{"id":"psL0KKDEYw", "score":"1070620"}
{"id":"I38i00NBYk8", "score":"1051888"}
{"id":"Dh5mCi92wNP", "score":"1003754"}
{"id":"6oLAQrinN4k", "score":"795489"}
{"id":"G8T2MDMDouU", "score":"685817"}
{"id":"9obj4NDxfcT", "score":"658074"}
{"id":"CyXOHMDA7Ht", "score":"578713"}
{"id":"4XnyyFvJNCZ", "score":"572471"}
{"id":"xwkEHqbQW0", "score":"567793"}
{"id":"BGswx3etHyj", "score":"567285"}
{"id":"4C6ROdt0h2w", "score":"539177"}
{"id":"IkFU2ONNPBq", "score":"520705"}
{"id":"Lc4ZEnTqHgo", "score":"426229"}
{"id":"7ksjxfpdoDK", "score":"416165"}
{"id":"AxZV39Ul9N4", "score":"408220"}
{"id":"JJUmWwHQp8D", "score":"371115"}
{"id":"8H1GOZNsrLB", "score":"345038"}
{"id":"BYwuyBTIQYY", "score":"333869"}
{"id":"DduXnkexyIM", "score":"302318"}
{"id":"Z7RZDt0Tvn", "score":"251992"}
{"id":"8WKjnvOEGn8", "score":"208771"}
{"id":"7apJ6BdpUQk", "score":"197745"}
{"id":"9ZWCbRfY28J", "score":"195433"}
{"id":"2Kow6UhznRT", "score":"184428"}
{"id":"CJ2G0unZgWe", "score":"183264"}
{"id":"GMqgSEceKOU", "score":"183111"}
{"id":"L8ufyXsM2kh", "score":"159029"}
{"id":"3PFp6NpeK2t", "score":"150820"}
{"id":"LyBcJiZVbMb", "score":"139462"}
{"id":"2935uLFgotI", "score":"132392"}
{"id":"EjwinlxFGeb", "score":"117332"}
{"id":"1ceilQOwMcq", "score":"104453"}
{"id":"1QAOCEOzyeO", "score":"104343"}
{"id":"I7XiDmTX7Dx", "score":"87483"}
{"id":"J5ndsF3BqzD", "score":"85661"}
{"id":"atPYQ0HTWJ", "score":"75547"}
{"id":"A6Uo2lQXFTO", "score":"72522"}
{"id":"9a5J3dDTZNa", "score":"62992"}
{"id":"1SGujP2YF35", "score":"62298"}
{"id":"93llytNT5O7", "score":"60609"}
{"id":"HHoq802f0zL", "score":"60156"}
{"id":"4mpjDHUz1ZH", "score":"58491"}
{"id":"3Yji2do0Rsh", "score":"52312"}
{"id":"BbhcsLNDQYd", "score":"50658"}
{"id":"L9cNdCV6RcT", "score":"45443"}
{"id":"1j5GwDbNrhO", "score":"31456"}
{"id":"9BtHZtIOmGk", "score":"25152"}
{"id":"5LBarL8vg6g", "score":"19238"}
{"id":"Knkhw82hs66", "score":"19068"}
{"id":"3VMPvL7bnJR", "score":"18222"}
{"id":"KXqSLQ9h6gm", "score":"17781"}
{"id":"HVLy6RjCRzk", "score":"16800"}
{"id":"1JmOuMU9jVO", "score":"16312"}
{"id":"FdA4ZSnwEJe", "score":"16181"}
{"id":"9jyp4TrFyvm", "score":"15221"}
{"id":"LsZXpFDfAIg", "score":"12857"}
{"id":"KZwUCtSIBSK", "score":"4877"}
{"id":"41flXbHopYm", "score":"2539"}
{"id":"2Qdh7KjL9U5", "score":"1350"}
{"id":"5nqrPLFmj0D", "score":"382"}
{"id":"ClPFGm8gOYv", "score":"92"}
{"id":"user_9", "score":"1"}
{"id":"user_8", "score":"1"}
{"id":"user_7", "score":"1"}
{"id":"user_6", "score":"1"}
{"id":"user_5", "score":"1"}
{"id":"user_4", "score":"1"}
{"id":"user_3", "score":"1"}
{"id":"user_2", "score":"1"}
{"id":"user_10", "score":"1"}
{"id":"user_1", "score":"1"}
{"id":"Ep7NfbIWaGD", "score":"0"}
{"id":"EZ9SHij36hb", "score":"0"}
{"id":"Cg0iuwE38nI", "score":"0"}
{"id":"40gQHVCJ7dz", "score":"0"}
