{"id":"C2HzWirAoGg", "score":"4308962"}
{"id":"6maGXoVLV0O", "score":"2730345"}
{"id":"rjZomOUfDW", "score":"2394929"}
{"id":"5m31x3zBZvd", "score":"1565982"}
{"id":"C9Vg78kiVnB", "score":"1376472"}
{"id":"G3CcGG4hfl0", "score":"1370662"}
{"id":"H0eto4ecwvd", "score":"779024"}
{"id":"40yhDceQ4nS", "score":"736728"}
{"id":"pZOWSx9vc9", "score":"733369"}
{"id":"J8vB5GT3xvb", "score":"689492"}
{"id":"2WgRZwsAYI1", "score":"646399"}
{"id":"JS1S6hpx3s1", "score":"634215"}
{"id":"3vrGX4DDjtd", "score":"537215"}
{"id":"QwxhEdyeTd", "score":"528228"}
{"id":"HuOEx3JMkwr", "score":"526960"}
{"id":"34vmVoRbAS8", "score":"462460"}
{"id":"eahHqtiAwa", "score":"414486"}
{"id":"82qKCM2YJIb", "score":"351489"}
{"id":"LdWJj1SoHgm", "score":"349063"}
{"id":"LRFPxkdbSl4", "score":"321956"}
{"id":"HnJTGpkHJQr", "score":"287433"}
{"id":"1CT7nAt8Hnt", "score":"285825"}
{"id":"7osFcIMc8ks", "score":"265801"}
{"id":"AgwbJwS2Aq0", "score":"259025"}
{"id":"DUlIlALB5yb", "score":"227615"}
{"id":"1SqYINhrFAp", "score":"226108"}
{"id":"A3XpXXpF8lN", "score":"225786"}
{"id":"IXqfJ9eCUq1", "score":"211350"}
{"id":"7rBl04lz5S", "score":"197878"}
{"id":"lBIeXkFbGg", "score":"197548"}
{"id":"1DZ2D3ou6ut", "score":"197236"}
{"id":"7JAkHsAYGfN", "score":"186156"}
{"id":"91RKokyKNwm", "score":"176143"}
{"id":"F8Jk96zx2hg", "score":"173371"}
{"id":"Htm7KoMhjed", "score":"170953"}
{"id":"3cigR7LeDWg", "score":"167098"}
{"id":"H7oV5uzt8O3", "score":"166544"}
{"id":"KyfzzciPElG", "score":"154143"}
{"id":"6jgdMo5JGcR", "score":"128174"}
{"id":"1vvqei6Bq20", "score":"121840"}
{"id":"LOH20xn9odq", "score":"121723"}
{"id":"DBvDFJogBkr", "score":"104841"}
{"id":"148CZIC3ECv", "score":"85067"}
{"id":"AbmNaWZkpni", "score":"70059"}
{"id":"ILeDvigZI1e", "score":"61169"}
{"id":"EGFuUeEmMT2", "score":"60221"}
{"id":"j3jmtgH0t5", "score":"58735"}
{"id":"B5tjPrQBm12", "score":"55624"}
{"id":"7dbWLKk6xiH", "score":"55255"}
{"id":"JdtSXpCiICE", "score":"50042"}
{"id":"BmpgURxa6qe", "score":"37159"}
{"id":"3TFUlUZaD2j", "score":"36728"}
{"id":"5XCvcoyRqvV", "score":"28796"}
{"id":"Eoq4lHeeITv", "score":"28582"}
{"id":"7XyOZir20pG", "score":"21756"}
{"id":"7KyjP3Rjrbp", "score":"21747"}
{"id":"KCIoqKzy8wE", "score":"19428"}
{"id":"4I2STlsqrM3", "score":"16715"}
{"id":"KgeB2bOhOiZ", "score":"16467"}
{"id":"7dOuMyBJNaO", "score":"16239"}
{"id":"LWMrm1DdhQb", "score":"9071"}
{"id":"LlB8vHSRij7", "score":"6394"}
{"id":"FLWEjFjThAb", "score":"5362"}
{"id":"HDaTRdULkOu", "score":"4632"}
{"id":"EiQnoJA6gq8", "score":"4459"}
{"id":"2lwLudmCu0s", "score":"4390"}
{"id":"JlIe3pk694c", "score":"4250"}
{"id":"6azQQoY9wGe", "score":"4024"}
{"id":"Aat8ry2Eq1Q", "score":"3509"}
{"id":"DyYDmYpG5TX", "score":"3428"}
{"id":"5OOTSZGbwSF", "score":"2937"}
{"id":"Dhho3sNGl8E", "score":"2287"}
{"id":"3gvHjAjPOV", "score":"1932"}
{"id":"EoFDUp8sS7c", "score":"1718"}
{"id":"tUcnZcygt2", "score":"1444"}
{"id":"FLlk82QdXfc", "score":"902"}
{"id":"8wJqurfIuCa", "score":"696"}
{"id":"4N0e1RnR5sl", "score":"668"}
{"id":"FHbgizqgq0e", "score":"620"}
{"id":"6EeDpieZw33", "score":"463"}
{"id":"A21QdiaULNX", "score":"327"}
{"id":"IR0V7UJL38D", "score":"303"}
{"id":"FzirVS8lVIM", "score":"275"}
{"id":"7BeMWEmpc6f", "score":"69"}
{"id":"LTlsXAOhl2g", "score":"54"}
{"id":"user_9", "score":"1"}
{"id":"user_8", "score":"1"}
{"id":"user_7", "score":"1"}
{"id":"user_6", "score":"1"}
{"id":"user_5", "score":"1"}
{"id":"user_4", "score":"1"}
{"id":"user_3", "score":"1"}
{"id":"user_2", "score":"1"}
{"id":"user_10", "score":"1"}
{"id":"user_1", "score":"1"}
{"id":"LyM65nzVOrD", "score":"0"}
{"id":"K28E3Drufcl", "score":"0"}
{"id":"IPR75snhPXq", "score":"0"}
{"id":"GJwyVUIHOPR", "score":"0"}
{"id":"FkHn6IvN4g3", "score":"0"}
{"id":"CTqIk8COFdz", "score":"0"}
{"id":"BNlTOBOTmmq", "score":"0"}
{"id":"9EafugkOveD", "score":"0"}
{"id":"6rfS2Z831Tw", "score":"0"}
{"id":"6iMNUYMKEPc", "score":"0"}
{"id":"3hU2nldxazG", "score":"0"}
