{"id":"AFMQfInrB1O", "score":"1924392"}
{"id":"8pOEjVz4HWb", "score":"944192"}
{"id":"DayYVVzx3He", "score":"940223"}
{"id":"CpnbFvSvmJe", "score":"262953"}
{"id":"Kfzmq4KnCsF", "score":"240871"}
{"id":"INu590wOyKg", "score":"137898"}
{"id":"9TtxMK6Kfx", "score":"113514"}
{"id":"FLIPhyl7B1Y", "score":"56062"}
{"id":"Fx7z7IasYOK", "score":"44006"}
{"id":"GBbXhs0yFnR", "score":"41528"}
{"id":"D3SzTM4nSSV", "score":"40654"}
{"id":"72W7mQLJBTQ", "score":"29187"}
{"id":"DeT0uPDVMCA", "score":"17186"}
{"id":"HkYOHxcAimS", "score":"2969"}
{"id":"8qUibKV40Fs", "score":"1276"}
{"id":"68oaTUGdXrB", "score":"175"}
{"id":"user_9", "score":"1"}
{"id":"user_8", "score":"1"}
{"id":"user_7", "score":"1"}
{"id":"user_6", "score":"1"}
{"id":"user_5", "score":"1"}
{"id":"user_4", "score":"1"}
{"id":"user_3", "score":"1"}
{"id":"user_2", "score":"1"}
{"id":"user_10", "score":"1"}
{"id":"user_1", "score":"1"}
