{"id":"A0iHv4x4h29", "score":"576482"}
{"id":"9hfJTUf4usR", "score":"279816"}
{"id":"644fY1AVgPy", "score":"182481"}
{"id":"IpK2LBZl8kv", "score":"147202"}
{"id":"4Br8uuDbCub", "score":"78732"}
{"id":"84NSUre2TW", "score":"76911"}
{"id":"1tWLq9SAO2X", "score":"55471"}
{"id":"7Mxj6t4XJq3", "score":"47666"}
{"id":"LsKeEfrg7hB", "score":"41589"}
{"id":"2lrBrijm0yv", "score":"30649"}
{"id":"AkdfpNnmFgj", "score":"5955"}
{"id":"user_9", "score":"1"}
{"id":"user_8", "score":"1"}
{"id":"user_7", "score":"1"}
{"id":"user_6", "score":"1"}
{"id":"user_5", "score":"1"}
{"id":"user_4", "score":"1"}
{"id":"user_3", "score":"1"}
{"id":"user_2", "score":"1"}
{"id":"user_10", "score":"1"}
{"id":"user_1", "score":"1"}
{"id":"EVAlpKcs5oN", "score":"0"}
{"id":"BsaOXW42m72", "score":"0"}
