{"id":"FIHwd6Atq7w", "score":"1647475"}
{"id":"6xNPGgiKDF7", "score":"633313"}
{"id":"1ZrzBPelh9w", "score":"517306"}
{"id":"5TJRjBGdJ6j", "score":"307351"}
{"id":"EUG1CQKFUBx", "score":"119662"}
{"id":"AbGPQ9z1sl5", "score":"92892"}
{"id":"Gvjho9WbvC2", "score":"89917"}
{"id":"2KosdRxQmTK", "score":"52104"}
{"id":"7Xy1srU4giJ", "score":"41268"}
{"id":"DGESdonjRzS", "score":"34813"}
{"id":"vVrDxhP2gn", "score":"9143"}
{"id":"GFIrGFKeMb", "score":"5749"}
{"id":"7XGqBjwewqa", "score":"4149"}
{"id":"6mBLKkCbI3Y", "score":"2208"}
{"id":"KSGghZBBsff", "score":"1828"}
{"id":"H7o62J5ODPr", "score":"1407"}
{"id":"8f0WVpmtgOd", "score":"1222"}
{"id":"I77HQpSWQIc", "score":"710"}
{"id":"IIWPt4XNPE9", "score":"444"}
{"id":"8RqTCpxQULu", "score":"318"}
{"id":"user_9", "score":"1"}
{"id":"user_8", "score":"1"}
{"id":"user_7", "score":"1"}
{"id":"user_6", "score":"1"}
{"id":"user_5", "score":"1"}
{"id":"user_4", "score":"1"}
{"id":"user_3", "score":"1"}
{"id":"user_2", "score":"1"}
{"id":"user_10", "score":"1"}
{"id":"user_1", "score":"1"}
